Designator,Val,Package,Mid X,Mid Y,Rotation,Layer
C1,10uF,C_1206_3216Metric,25.32,-62.7,0.0,top
C2,100nF,C_0402_1005Metric,86.504494,-56.5375,0.0,top
C3,100nF,C_0402_1005Metric,65.52,-56.5,0.0,top
C4,100nF,C_0402_1005Metric,43.62,-56.6275,0.0,top
C5,10nF,C_0402_1005Metric,20.78,-70.9,0.0,top
C6,220u,CP_Elec_10x10.5,34.0,-71.0875,90.0,top
C7,100nF,C_0402_1005Metric,76.0,-56.8,0.0,top
C8,100nF,C_0402_1005Metric,54.5,-56.92,0.0,top
C9,22u,C_1206_3216Metric,42.3,-73.0,0.0,top
C10,22u,C_1206_3216Metric,42.3,-75.5,0.0,top
C11,100nF,C_0402_1005Metric,22.58,-58.3,0.0,top
C12,100nF,C_0402_1005Metric,44.16,-54.1,-90.0,top
C13,100nF,C_0402_1005Metric,65.46,-54.1,-90.0,top
C14,100nF,C_0402_1005Metric,86.72,-54.1,-90.0,top
C15,100nF,C_0402_1005Metric,44.16,-50.2,90.0,top
C16,100nF,C_0402_1005Metric,65.42,-50.12,90.0,top
C17,100nF,C_0402_1005Metric,86.72,-50.12,90.0,top
C18,120u,CP_Radial_D5.0mm_P2.50mm,46.36,-47.205113,90.0,top
C19,120u,CP_Radial_D5.0mm_P2.50mm,67.56,-47.205113,90.0,top
C20,120u,CP_Radial_D5.0mm_P2.50mm,88.62,-47.205113,90.0,top
C21,100nF,C_0402_1005Metric,54.785,-54.1,-90.0,top
C22,100nF,C_0402_1005Metric,76.12,-54.1,-90.0,top
C23,100nF,C_0402_1005Metric,54.785,-50.1,90.0,top
C24,100nF,C_0402_1005Metric,76.22,-50.2,90.0,top
C25,120u,CP_Radial_D5.0mm_P2.50mm,56.985,-47.205113,90.0,top
C26,120u,CP_Radial_D5.0mm_P2.50mm,78.12,-47.205113,90.0,top
C27,12p,C_0402_1005Metric,58.25,-82.9,180.0,top
C28,12p,C_0402_1005Metric,58.15,-77.5,0.0,top
C29,100nF,C_0402_1005Metric,70.6,-90.2,0.0,top
C30,100nF,C_0402_1005Metric,64.7,-78.6,180.0,top
C31,100nF,C_0402_1005Metric,63.2,-80.1,-90.0,top
C32,100nF,C_0402_1005Metric,61.7,-85.18,-90.0,top
C33,1uF,C_0402_1005Metric,60.6,-85.18,-90.0,top
C34,1uF,C_0402_1005Metric,57.6,-85.18,90.0,top
C35,1nF,C_0402_1005Metric,27.7,-86.42,0.0,top
C36,1nF,C_0402_1005Metric,103.77,-84.91,180.0,top
C37,1nF,C_0402_1005Metric,27.48,-114.83,0.0,top
C38,1nF,C_0402_1005Metric,27.68,-101.02,0.0,top
C39,1nF,C_0402_1005Metric,22.0,-86.85,90.0,top
C40,1nF,C_0402_1005Metric,109.35,-84.81,-90.0,top
C41,1nF,C_0402_1005Metric,21.8,-114.82,90.0,top
C42,1nF,C_0402_1005Metric,22.1,-101.12,90.0,top
C43,1nF,C_0402_1005Metric,27.68,-82.72,0.0,top
C44,1nF,C_0402_1005Metric,103.65,-88.81,180.0,top
C45,1nF,C_0402_1005Metric,27.5,-110.62,0.0,top
C46,1nF,C_0402_1005Metric,27.7,-97.22,0.0,top
C47,1nF,C_0402_1005Metric,22.0,-82.86,90.0,top
C48,1nF,C_0402_1005Metric,109.35,-88.83,-90.0,top
C49,1nF,C_0402_1005Metric,21.8,-110.72,90.0,top
C50,1nF,C_0402_1005Metric,22.1,-97.12,90.0,top
C51,1nF,C_0402_1005Metric,103.75,-112.6,180.0,top
C52,1nF,C_0402_1005Metric,109.25,-112.67,-90.0,top
C53,1nF,C_0402_1005Metric,103.45,-117.0,180.0,top
C54,1nF,C_0402_1005Metric,109.2125,-117.0,-90.0,top
C55,100nF,C_0402_1005Metric,97.3,-56.3,0.0,top
C56,100nF,C_0402_1005Metric,97.06,-53.92,-90.0,top
C57,100nF,C_0402_1005Metric,97.06,-50.18,90.0,top
C58,120u,CP_Radial_D5.0mm_P2.50mm,99.26,-47.3,90.0,top
C59,1nF,C_0402_1005Metric,103.15,-98.9,180.0,top
C60,1nF,C_0402_1005Metric,108.73,-98.7,-90.0,top
C61,1nF,C_0402_1005Metric,103.11,-102.6,180.0,top
C62,1nF,C_0402_1005Metric,108.63,-102.69,-90.0,top
C63,100nF,C_0402_1005Metric,24.72,-60.9,0.0,top
D1,RED LED,LED_0805_2012Metric,47.3,-83.8,180.0,top
D2,RED LED,LED_0805_2012Metric,61.0,-76.5,0.0,top
D3,D,D_SOD-323,60.3,-123.3,-90.0,top
D4,D,D_SOD-323,79.35,-123.3,-90.0,top
D5,3.3V,D_MiniMELF,53.5,-121.5,180.0,top
D6,3.3V,D_MiniMELF,72.75,-121.5,180.0,top
D7,3.3V,D_MiniMELF,53.5,-123.9,180.0,top
D8,3.3V,D_MiniMELF,72.7,-123.9,180.0,top
FB1,120R,R_0805_2012Metric,59.1,-85.4125,-90.0,top
FB2,120R,R_0805_2012Metric,84.184494,-59.1025,90.0,top
FB3,120R,R_0805_2012Metric,63.14,-59.065,90.0,top
FB4,120R,R_0805_2012Metric,41.32,-59.3125,90.0,top
FB5,120R,R_0805_2012Metric,73.7,-59.4025,90.0,top
FB6,120R,R_0805_2012Metric,52.12,-59.5,90.0,top
FB7,120R,R_0805_2012Metric,95.12,-58.8025,90.0,top
J1,Screw_Terminal_01x02,TerminalBlock_bornier-2_P5.08mm,39.12,-38.6,0.0,top
J2,Screw_Terminal_01x02,TerminalBlock_bornier-2_P5.08mm,60.46,-38.6,0.0,top
J3,Screw_Terminal_01x02,TerminalBlock_bornier-2_P5.08mm,81.72,-38.6,0.0,top
J4,Screw_Terminal_01x02,TerminalBlock_bornier-2_P5.08mm,49.785,-38.6,0.0,top
J5,Screw_Terminal_01x02,TerminalBlock_bornier-2_P5.08mm,71.12,-38.6,0.0,top
J7,Conn_01x06_Female,PinHeader_1x06_P2.54mm_Vertical,62.9,-128.0,-90.0,top
J8,Conn_01x06_Female,PinHeader_1x06_P2.54mm_Vertical,82.1,-127.9,-90.0,top
J9,Screw_Terminal_01x02,TerminalBlock_bornier-2_P5.08mm,92.32,-38.6,0.0,top
J10,Conn_01x04_Female,PinHeader_1x04_P2.54mm_Vertical,112.95,-118.11,180.0,top
J11,Conn_01x06_Male,PinHeader_1x06_P2.54mm_Vertical,44.15,-117.02,-90.0,top
J12,Conn_01x06_Male,PinHeader_1x06_P2.54mm_Vertical,44.25,-104.82,-90.0,top
J13,Conn_01x06_Male,PinHeader_1x06_P2.54mm_Vertical,44.45,-92.12,-90.0,top
J14,Conn_01x06_Male,PinHeader_1x06_P2.54mm_Vertical,85.35,-88.8,90.0,top
J15,Conn_01x06_Male,PinHeader_1x06_P2.54mm_Vertical,85.15,-99.8,90.0,top
J16,Conn_01x06_Male,PinHeader_1x06_P2.54mm_Vertical,85.3,-112.5,90.0,top
J17,Conn_01x04_Male,PinHeader_1x04_P2.54mm_Vertical,44.14,-120.92,-90.0,top
J18,Conn_01x04_Male,PinHeader_1x04_P2.54mm_Vertical,44.3,-108.72,-90.0,top
J19,Conn_01x04_Female,PinHeader_1x04_P2.54mm_Vertical,18.2,-110.22,0.0,top
J20,Conn_01x04_Female,PinHeader_1x04_P2.54mm_Vertical,18.1,-81.92,0.0,top
J21,Conn_01x04_Female,PinHeader_1x04_P2.54mm_Vertical,112.93,-104.5,180.0,top
J22,Conn_01x04_Female,PinHeader_1x04_P2.54mm_Vertical,18.1,-96.22,0.0,top
J23,Conn_01x04_Female,PinHeader_1x04_P2.54mm_Vertical,113.05,-89.58,180.0,top
J24,Conn_01x04_Male,PinHeader_1x04_P2.54mm_Vertical,44.44,-96.02,-90.0,top
J25,Conn_01x04_Male,PinHeader_1x04_P2.54mm_Vertical,85.35,-85.0,90.0,top
J26,Conn_01x04_Male,PinHeader_1x04_P2.54mm_Vertical,85.11,-96.0,90.0,top
J27,Conn_01x04_Male,PinHeader_1x04_P2.54mm_Vertical,85.25,-108.7,90.0,top
J28,Conn_01x02_Female,AMASS_XT60-F_1x02_P7.20mm_Vertical,109.5,-72.9,90.0,top
L1,15u,L_Bourns_SRP7028A_7.3x6.6mm,20.9,-75.1875,0.0,top
Q1,2N7002,SOT-23,24.6,-87.63,180.0,top
Q2,2N7002,SOT-23,106.75,-83.9,0.0,top
Q3,2N7002,SOT-23,24.4,-115.82,180.0,top
Q4,2N7002,SOT-23,24.7,-102.02,180.0,top
Q5,2N7002,SOT-23,24.6,-83.66,180.0,top
Q6,2N7002,SOT-23,106.75,-87.8,0.0,top
Q7,2N7002,SOT-23,24.4,-111.62,180.0,top
Q8,2N7002,SOT-23,24.7,-98.12,180.0,top
Q9,2N7002,SOT-23,106.7125,-111.71,0.0,top
Q10,2N7002,SOT-23,106.55,-116.05,0.0,top
Q11,2N7002,SOT-23,106.13,-97.9,0.0,top
Q12,2N7002,SOT-23,106.13,-101.7,0.0,top
R1,0.01 0.25W,R_1206_3216Metric_Pad1.30x1.75mm_HandSolder,90.004494,-58.7,90.0,top
R2,0.01 0.25W,R_1206_3216Metric_Pad1.30x1.75mm_HandSolder,68.94,-58.75,90.0,top
R3,0.01 0.25W,R_1206_3216Metric_Pad1.30x1.75mm_HandSolder,47.22,-58.95,90.0,top
R4,0.01 0.25W,R_1206_3216Metric_Pad1.30x1.75mm_HandSolder,79.42,-59.1,90.0,top
R5,0.01 0.25W,R_1206_3216Metric_Pad1.30x1.75mm_HandSolder,57.92,-59.2,90.0,top
R6,1Ok,R_0402_1005Metric_Pad0.72x0.64mm_HandSolder,27.9,-71.7875,90.0,top
R7,3k3,R_0402_1005Metric_Pad0.72x0.64mm_HandSolder,27.9,-69.3875,90.0,top
R8,440,R_0402_1005Metric_Pad0.72x0.64mm_HandSolder,45.9,-81.9,180.0,top
R9,0.1,R_1206_3216Metric_Pad1.30x1.75mm_HandSolder,40.12,-45.3,90.0,top
R10,0.1,R_1206_3216Metric_Pad1.30x1.75mm_HandSolder,61.46,-45.4,90.0,top
R11,0.1,R_1206_3216Metric_Pad1.30x1.75mm_HandSolder,82.72,-45.25,90.0,top
R12,0.1,R_1206_3216Metric_Pad1.30x1.75mm_HandSolder,50.885,-45.25,90.0,top
R13,0.1,R_1206_3216Metric_Pad1.30x1.75mm_HandSolder,72.22,-45.25,90.0,top
R14,2k2,R_0402_1005Metric,73.4,-79.7,0.0,top
R15,2k2,R_0402_1005Metric,75.5,-79.7,180.0,top
R16,0.01 0.25W,R_1206_3216Metric_Pad1.30x1.75mm_HandSolder,100.84,-58.5,90.0,top
R17,100K,R_0402_1005Metric,35.2,-58.2,0.0,top
R18,1K,R_0402_1005Metric,91.4,-118.51,0.0,top
R19,1K,R_0402_1005Metric,91.39,-119.71,0.0,top
R20,440,R_0402_1005Metric,61.3,-78.5,-90.0,top
R21,10K,R_0402_1005Metric,65.0,-121.4,90.0,top
R22,10K,R_0402_1005Metric,93.19,-118.01,-90.0,top
R23,10K,R_0402_1005Metric,93.19,-120.21,90.0,top
R24,10K,R_0402_1005Metric,27.3,-88.03,-90.0,top
R25,10K,R_0402_1005Metric,104.15,-83.3,90.0,top
R26,10K,R_0402_1005Metric,27.0,-116.43,-90.0,top
R27,10K,R_0402_1005Metric,27.3,-102.62,-90.0,top
R28,10K,R_0402_1005Metric,20.9,-88.8,-90.0,top
R29,10K,R_0402_1005Metric,110.45,-82.8,90.0,top
R30,10K,R_0402_1005Metric,20.7,-116.82,-90.0,top
R31,10K,R_0402_1005Metric,20.9,-103.12,-90.0,top
R32,100,R_0402_1005Metric,20.9,-86.82,90.0,top
R33,100,R_0402_1005Metric,110.45,-84.81,-90.0,top
R34,100,R_0402_1005Metric,20.7,-114.82,90.0,top
R35,100,R_0402_1005Metric,20.9,-101.12,90.0,top
R36,10K,R_0402_1005Metric,27.2,-84.32,-90.0,top
R37,10K,R_0402_1005Metric,104.15,-87.2,90.0,top
R38,10K,R_0402_1005Metric,27.1,-112.22,-90.0,top
R39,10K,R_0402_1005Metric,27.3,-98.82,-90.0,top
R40,10K,R_0402_1005Metric,20.9,-84.85,-90.0,top
R41,10K,R_0402_1005Metric,110.45,-86.81,90.0,top
R42,10K,R_0402_1005Metric,20.7,-112.72,-90.0,top
R43,10K,R_0402_1005Metric,20.9,-99.11,-90.0,top
R44,100,R_0402_1005Metric,20.9,-82.85,90.0,top
R45,100,R_0402_1005Metric,110.45,-88.8,-90.0,top
R46,100,R_0402_1005Metric,20.7,-110.71,90.0,top
R47,100,R_0402_1005Metric,20.9,-97.12,90.0,top
R48,10K,R_0402_1005Metric,104.15,-111.09,90.0,top
R49,10K,R_0402_1005Metric,110.35,-110.67,90.0,top
R50,100,R_0402_1005Metric,110.35,-112.67,-90.0,top
R51,10K,R_0402_1005Metric,103.95,-115.31,90.0,top
R52,10K,R_0402_1005Metric_Pad0.72x0.64mm_HandSolder,110.35,-114.87,90.0,top
R53,100,R_0402_1005Metric,110.35,-117.0,-90.0,top
R54,10K,R_0402_1005Metric,33.09,-58.2,0.0,top
R55,0.1,R_1206_3216Metric_Pad1.30x1.75mm_HandSolder,93.06,-45.2,90.0,top
R56,10K,R_0402_1005Metric,103.55,-97.3,90.0,top
R57,10K,R_0402_1005Metric,109.83,-96.7,90.0,top
R58,100,R_0402_1005Metric,109.83,-98.7,-90.0,top
R59,10K,R_0402_1005Metric,103.53,-100.99,90.0,top
R60,10K,R_0402_1005Metric,109.83,-100.7,90.0,top
R61,100,R_0402_1005Metric,109.83,-102.7,-90.0,top
SS1,D_Schottky,D_2114_3652Metric,19.5,-66.9125,90.0,top
U1,TPS5430DDA,TI_SO-PowerPAD-8_ThermalVias,24.6,-67.6875,90.0,top
U2,INA181,SOT-23-6,87.004494,-59.1375,90.0,top
U3,INA181,SOT-23-6,65.94,-59.18,90.0,top
U4,INA181,SOT-23-6,44.12,-59.3075,90.0,top
U5,INA181,SOT-23-6,76.42,-59.48,90.0,top
U6,INA181,SOT-23-6,54.92,-59.6,90.0,top
U7,AMS1117-3.3,SOT-223-3_TabPin2,41.1,-81.3,-90.0,top
U8,ADS7830,TSSOP-16_4.4x5mm_P0.65mm,24.5,-54.9,180.0,top
U9,AT8870,Diodes_PSOP-8,40.86,-51.9,90.0,top
U10,AT8870,Diodes_PSOP-8,62.085,-51.9,90.0,top
U11,AT8870,Diodes_PSOP-8,83.37,-51.9,90.0,top
U12,AT8870,Diodes_PSOP-8,51.46,-51.9,90.0,top
U13,AT8870,Diodes_PSOP-8,72.82,-51.9,90.0,top
U14,STM32F030C8Tx,LQFP-48_7x7mm_P0.5mm,67.6,-84.4,0.0,top
U15,INA181,SOT-23-6,97.94,-58.9,90.0,top
U16,AT8870,Diodes_PSOP-8,93.66,-51.925,90.0,top
Y1,Crystal_GND24,Crystal_SMD_3225-4Pin_3.2x2.5mm,58.15,-80.2,90.0,top
