(kicad_sch (version 20211123) (generator eeschema)

  (uuid fd5bcccb-aef9-404a-9593-6c8c0d460080)

  (paper "A4")

  (lib_symbols
    (symbol "Connector:Screw_Terminal_01x02" (pin_names (offset 1.016) hide) (in_bom yes) (on_board yes)
      (property "Reference" "J" (id 0) (at 0 2.54 0)
        (effects (font (size 1.27 1.27)))
      )
      (property "Value" "Screw_Terminal_01x02" (id 1) (at 0 -5.08 0)
        (effects (font (size 1.27 1.27)))
      )
      (property "Footprint" "" (id 2) (at 0 0 0)
        (effects (font (size 1.27 1.27)) hide)
      )
      (property "Datasheet" "~" (id 3) (at 0 0 0)
        (effects (font (size 1.27 1.27)) hide)
      )
      (property "ki_keywords" "screw terminal" (id 4) (at 0 0 0)
        (effects (font (size 1.27 1.27)) hide)
      )
      (property "ki_description" "Generic screw terminal, single row, 01x02, script generated (kicad-library-utils/schlib/autogen/connector/)" (id 5) (at 0 0 0)
        (effects (font (size 1.27 1.27)) hide)
      )
      (property "ki_fp_filters" "TerminalBlock*:*" (id 6) (at 0 0 0)
        (effects (font (size 1.27 1.27)) hide)
      )
      (symbol "Screw_Terminal_01x02_1_1"
        (rectangle (start -1.27 1.27) (end 1.27 -3.81)
          (stroke (width 0.254) (type default) (color 0 0 0 0))
          (fill (type background))
        )
        (circle (center 0 -2.54) (radius 0.635)
          (stroke (width 0.1524) (type default) (color 0 0 0 0))
          (fill (type none))
        )
        (polyline
          (pts
            (xy -0.5334 -2.2098)
            (xy 0.3302 -3.048)
          )
          (stroke (width 0.1524) (type default) (color 0 0 0 0))
          (fill (type none))
        )
        (polyline
          (pts
            (xy -0.5334 0.3302)
            (xy 0.3302 -0.508)
          )
          (stroke (width 0.1524) (type default) (color 0 0 0 0))
          (fill (type none))
        )
        (polyline
          (pts
            (xy -0.3556 -2.032)
            (xy 0.508 -2.8702)
          )
          (stroke (width 0.1524) (type default) (color 0 0 0 0))
          (fill (type none))
        )
        (polyline
          (pts
            (xy -0.3556 0.508)
            (xy 0.508 -0.3302)
          )
          (stroke (width 0.1524) (type default) (color 0 0 0 0))
          (fill (type none))
        )
        (circle (center 0 0) (radius 0.635)
          (stroke (width 0.1524) (type default) (color 0 0 0 0))
          (fill (type none))
        )
        (pin passive line (at -5.08 0 0) (length 3.81)
          (name "Pin_1" (effects (font (size 1.27 1.27))))
          (number "1" (effects (font (size 1.27 1.27))))
        )
        (pin passive line (at -5.08 -2.54 0) (length 3.81)
          (name "Pin_2" (effects (font (size 1.27 1.27))))
          (number "2" (effects (font (size 1.27 1.27))))
        )
      )
    )
    (symbol "Device:C" (pin_numbers hide) (pin_names (offset 0.254)) (in_bom yes) (on_board yes)
      (property "Reference" "C" (id 0) (at 0.635 2.54 0)
        (effects (font (size 1.27 1.27)) (justify left))
      )
      (property "Value" "C" (id 1) (at 0.635 -2.54 0)
        (effects (font (size 1.27 1.27)) (justify left))
      )
      (property "Footprint" "" (id 2) (at 0.9652 -3.81 0)
        (effects (font (size 1.27 1.27)) hide)
      )
      (property "Datasheet" "~" (id 3) (at 0 0 0)
        (effects (font (size 1.27 1.27)) hide)
      )
      (property "ki_keywords" "cap capacitor" (id 4) (at 0 0 0)
        (effects (font (size 1.27 1.27)) hide)
      )
      (property "ki_description" "Unpolarized capacitor" (id 5) (at 0 0 0)
        (effects (font (size 1.27 1.27)) hide)
      )
      (property "ki_fp_filters" "C_*" (id 6) (at 0 0 0)
        (effects (font (size 1.27 1.27)) hide)
      )
      (symbol "C_0_1"
        (polyline
          (pts
            (xy -2.032 -0.762)
            (xy 2.032 -0.762)
          )
          (stroke (width 0.508) (type default) (color 0 0 0 0))
          (fill (type none))
        )
        (polyline
          (pts
            (xy -2.032 0.762)
            (xy 2.032 0.762)
          )
          (stroke (width 0.508) (type default) (color 0 0 0 0))
          (fill (type none))
        )
      )
      (symbol "C_1_1"
        (pin passive line (at 0 3.81 270) (length 2.794)
          (name "~" (effects (font (size 1.27 1.27))))
          (number "1" (effects (font (size 1.27 1.27))))
        )
        (pin passive line (at 0 -3.81 90) (length 2.794)
          (name "~" (effects (font (size 1.27 1.27))))
          (number "2" (effects (font (size 1.27 1.27))))
        )
      )
    )
    (symbol "Device:C_Polarized_US" (pin_numbers hide) (pin_names (offset 0.254) hide) (in_bom yes) (on_board yes)
      (property "Reference" "C" (id 0) (at 0.635 2.54 0)
        (effects (font (size 1.27 1.27)) (justify left))
      )
      (property "Value" "C_Polarized_US" (id 1) (at 0.635 -2.54 0)
        (effects (font (size 1.27 1.27)) (justify left))
      )
      (property "Footprint" "" (id 2) (at 0 0 0)
        (effects (font (size 1.27 1.27)) hide)
      )
      (property "Datasheet" "~" (id 3) (at 0 0 0)
        (effects (font (size 1.27 1.27)) hide)
      )
      (property "ki_keywords" "cap capacitor" (id 4) (at 0 0 0)
        (effects (font (size 1.27 1.27)) hide)
      )
      (property "ki_description" "Polarized capacitor, US symbol" (id 5) (at 0 0 0)
        (effects (font (size 1.27 1.27)) hide)
      )
      (property "ki_fp_filters" "CP_*" (id 6) (at 0 0 0)
        (effects (font (size 1.27 1.27)) hide)
      )
      (symbol "C_Polarized_US_0_1"
        (polyline
          (pts
            (xy -2.032 0.762)
            (xy 2.032 0.762)
          )
          (stroke (width 0.508) (type default) (color 0 0 0 0))
          (fill (type none))
        )
        (polyline
          (pts
            (xy -1.778 2.286)
            (xy -0.762 2.286)
          )
          (stroke (width 0) (type default) (color 0 0 0 0))
          (fill (type none))
        )
        (polyline
          (pts
            (xy -1.27 1.778)
            (xy -1.27 2.794)
          )
          (stroke (width 0) (type default) (color 0 0 0 0))
          (fill (type none))
        )
        (arc (start 2.032 -1.27) (mid 0 -0.5572) (end -2.032 -1.27)
          (stroke (width 0.508) (type default) (color 0 0 0 0))
          (fill (type none))
        )
      )
      (symbol "C_Polarized_US_1_1"
        (pin passive line (at 0 3.81 270) (length 2.794)
          (name "~" (effects (font (size 1.27 1.27))))
          (number "1" (effects (font (size 1.27 1.27))))
        )
        (pin passive line (at 0 -3.81 90) (length 3.302)
          (name "~" (effects (font (size 1.27 1.27))))
          (number "2" (effects (font (size 1.27 1.27))))
        )
      )
    )
    (symbol "Device:R" (pin_numbers hide) (pin_names (offset 0)) (in_bom yes) (on_board yes)
      (property "Reference" "R" (id 0) (at 2.032 0 90)
        (effects (font (size 1.27 1.27)))
      )
      (property "Value" "R" (id 1) (at 0 0 90)
        (effects (font (size 1.27 1.27)))
      )
      (property "Footprint" "" (id 2) (at -1.778 0 90)
        (effects (font (size 1.27 1.27)) hide)
      )
      (property "Datasheet" "~" (id 3) (at 0 0 0)
        (effects (font (size 1.27 1.27)) hide)
      )
      (property "ki_keywords" "R res resistor" (id 4) (at 0 0 0)
        (effects (font (size 1.27 1.27)) hide)
      )
      (property "ki_description" "Resistor" (id 5) (at 0 0 0)
        (effects (font (size 1.27 1.27)) hide)
      )
      (property "ki_fp_filters" "R_*" (id 6) (at 0 0 0)
        (effects (font (size 1.27 1.27)) hide)
      )
      (symbol "R_0_1"
        (rectangle (start -1.016 -2.54) (end 1.016 2.54)
          (stroke (width 0.254) (type default) (color 0 0 0 0))
          (fill (type none))
        )
      )
      (symbol "R_1_1"
        (pin passive line (at 0 3.81 270) (length 1.27)
          (name "~" (effects (font (size 1.27 1.27))))
          (number "1" (effects (font (size 1.27 1.27))))
        )
        (pin passive line (at 0 -3.81 90) (length 1.27)
          (name "~" (effects (font (size 1.27 1.27))))
          (number "2" (effects (font (size 1.27 1.27))))
        )
      )
    )
    (symbol "mylib:AT8870" (in_bom yes) (on_board yes)
      (property "Reference" "U" (id 0) (at -7.62 11.43 0)
        (effects (font (size 1.27 1.27)) (justify left))
      )
      (property "Value" "AT8870" (id 1) (at 12.7 11.43 0)
        (effects (font (size 1.27 1.27)) (justify right))
      )
      (property "Footprint" "Package_SO:SOP-8-1EP_3x3mm_P0.65mm_EP1.95x2.15mm" (id 2) (at -2.54 -20.32 0)
        (effects (font (size 1.27 1.27)) hide)
      )
      (property "Datasheet" "https://lcsc.com/product-detail/Motor-Driver-ICs_Jiaxing-Heroic-Elec-Tech-AT8870_C191458.html" (id 3) (at 0 15.24 0)
        (effects (font (size 1.27 1.27)) hide)
      )
      (property "ki_keywords" "mosfet driver" (id 4) (at 0 0 0)
        (effects (font (size 1.27 1.27)) hide)
      )
      (property "ki_description" "4A dual low-side MOSFET driver, MSOP-8" (id 5) (at 0 0 0)
        (effects (font (size 1.27 1.27)) hide)
      )
      (property "ki_fp_filters" "MSOP*1EP*3x3mm*P0.65mm*" (id 6) (at 0 0 0)
        (effects (font (size 1.27 1.27)) hide)
      )
      (symbol "AT8870_0_1"
        (rectangle (start -7.62 10.16) (end 7.62 -2.54)
          (stroke (width 0.254) (type default) (color 0 0 0 0))
          (fill (type background))
        )
      )
      (symbol "AT8870_1_0"
        (pin output line (at 10.16 7.62 180) (length 2.54)
          (name "OUT2" (effects (font (size 1.27 1.27))))
          (number "8" (effects (font (size 1.27 1.27))))
        )
      )
      (symbol "AT8870_1_1"
        (pin power_in line (at -10.16 7.62 0) (length 2.54)
          (name "GND" (effects (font (size 1.27 1.27))))
          (number "1" (effects (font (size 1.27 1.27))))
        )
        (pin input line (at -10.16 5.08 0) (length 2.54)
          (name "IN1" (effects (font (size 1.27 1.27))))
          (number "2" (effects (font (size 1.27 1.27))))
        )
        (pin input line (at -10.16 2.54 0) (length 2.54)
          (name "IN2" (effects (font (size 1.27 1.27))))
          (number "3" (effects (font (size 1.27 1.27))))
        )
        (pin input line (at -10.16 0 0) (length 2.54)
          (name "VREF" (effects (font (size 1.27 1.27))))
          (number "4" (effects (font (size 1.27 1.27))))
        )
        (pin power_in line (at 10.16 0 180) (length 2.54)
          (name "VM" (effects (font (size 1.27 1.27))))
          (number "5" (effects (font (size 1.27 1.27))))
        )
        (pin output line (at 10.16 2.54 180) (length 2.54)
          (name "OUT1" (effects (font (size 1.27 1.27))))
          (number "6" (effects (font (size 1.27 1.27))))
        )
        (pin bidirectional line (at 10.16 5.08 180) (length 2.54)
          (name "ISEN" (effects (font (size 1.27 1.27))))
          (number "7" (effects (font (size 1.27 1.27))))
        )
        (pin power_in line (at 0 12.7 270) (length 2.54)
          (name "EP" (effects (font (size 1.27 1.27))))
          (number "9" (effects (font (size 1.27 1.27))))
        )
      )
    )
    (symbol "power:+3V3" (power) (pin_names (offset 0)) (in_bom yes) (on_board yes)
      (property "Reference" "#PWR" (id 0) (at 0 -3.81 0)
        (effects (font (size 1.27 1.27)) hide)
      )
      (property "Value" "+3V3" (id 1) (at 0 3.556 0)
        (effects (font (size 1.27 1.27)))
      )
      (property "Footprint" "" (id 2) (at 0 0 0)
        (effects (font (size 1.27 1.27)) hide)
      )
      (property "Datasheet" "" (id 3) (at 0 0 0)
        (effects (font (size 1.27 1.27)) hide)
      )
      (property "ki_keywords" "power-flag" (id 4) (at 0 0 0)
        (effects (font (size 1.27 1.27)) hide)
      )
      (property "ki_description" "Power symbol creates a global label with name \"+3V3\"" (id 5) (at 0 0 0)
        (effects (font (size 1.27 1.27)) hide)
      )
      (symbol "+3V3_0_1"
        (polyline
          (pts
            (xy -0.762 1.27)
            (xy 0 2.54)
          )
          (stroke (width 0) (type default) (color 0 0 0 0))
          (fill (type none))
        )
        (polyline
          (pts
            (xy 0 0)
            (xy 0 2.54)
          )
          (stroke (width 0) (type default) (color 0 0 0 0))
          (fill (type none))
        )
        (polyline
          (pts
            (xy 0 2.54)
            (xy 0.762 1.27)
          )
          (stroke (width 0) (type default) (color 0 0 0 0))
          (fill (type none))
        )
      )
      (symbol "+3V3_1_1"
        (pin power_in line (at 0 0 90) (length 0) hide
          (name "+3V3" (effects (font (size 1.27 1.27))))
          (number "1" (effects (font (size 1.27 1.27))))
        )
      )
    )
    (symbol "power:GND" (power) (pin_names (offset 0)) (in_bom yes) (on_board yes)
      (property "Reference" "#PWR" (id 0) (at 0 -6.35 0)
        (effects (font (size 1.27 1.27)) hide)
      )
      (property "Value" "GND" (id 1) (at 0 -3.81 0)
        (effects (font (size 1.27 1.27)))
      )
      (property "Footprint" "" (id 2) (at 0 0 0)
        (effects (font (size 1.27 1.27)) hide)
      )
      (property "Datasheet" "" (id 3) (at 0 0 0)
        (effects (font (size 1.27 1.27)) hide)
      )
      (property "ki_keywords" "power-flag" (id 4) (at 0 0 0)
        (effects (font (size 1.27 1.27)) hide)
      )
      (property "ki_description" "Power symbol creates a global label with name \"GND\" , ground" (id 5) (at 0 0 0)
        (effects (font (size 1.27 1.27)) hide)
      )
      (symbol "GND_0_1"
        (polyline
          (pts
            (xy 0 0)
            (xy 0 -1.27)
            (xy 1.27 -1.27)
            (xy 0 -2.54)
            (xy -1.27 -1.27)
            (xy 0 -1.27)
          )
          (stroke (width 0) (type default) (color 0 0 0 0))
          (fill (type none))
        )
      )
      (symbol "GND_1_1"
        (pin power_in line (at 0 0 270) (length 0) hide
          (name "GND" (effects (font (size 1.27 1.27))))
          (number "1" (effects (font (size 1.27 1.27))))
        )
      )
    )
  )

  (junction (at 44.45 149.86) (diameter 0) (color 0 0 0 0)
    (uuid 0a07a8ea-e90d-447e-8377-512fe5491f04)
  )
  (junction (at 67.31 35.56) (diameter 0) (color 0 0 0 0)
    (uuid 0bbe75fd-d41e-40ab-8a2b-eaa628c51548)
  )
  (junction (at 175.26 129.54) (diameter 0) (color 0 0 0 0)
    (uuid 23503166-0fcf-412b-821b-1f857e893c61)
  )
  (junction (at 88.9 35.56) (diameter 0) (color 0 0 0 0)
    (uuid 3a0a721b-5d35-41f8-a44f-2bd58adc52ab)
  )
  (junction (at 67.31 129.54) (diameter 0) (color 0 0 0 0)
    (uuid 46cab781-d8cc-4995-ae5f-94d2cfef50c7)
  )
  (junction (at 175.26 81.28) (diameter 0) (color 0 0 0 0)
    (uuid 5ad770be-a199-49fa-8599-0684bdc6bd85)
  )
  (junction (at 175.26 35.56) (diameter 0) (color 0 0 0 0)
    (uuid 6ca68167-2312-4edf-b219-a0e09d113c0f)
  )
  (junction (at 153.67 35.56) (diameter 0) (color 0 0 0 0)
    (uuid 851b16d5-bb5c-4ec3-8a07-42e5606da59c)
  )
  (junction (at 153.67 81.28) (diameter 0) (color 0 0 0 0)
    (uuid 8e7a48e0-a500-4762-a540-74c827260870)
  )
  (junction (at 67.31 81.28) (diameter 0) (color 0 0 0 0)
    (uuid b824ec6f-e1c8-4385-a656-fb147a5415c8)
  )
  (junction (at 88.9 129.54) (diameter 0) (color 0 0 0 0)
    (uuid be561000-017f-49b6-a3cb-eb5d02956c2d)
  )
  (junction (at 153.67 129.54) (diameter 0) (color 0 0 0 0)
    (uuid e08f6aa1-7299-40db-9e4c-72dd0c36f21f)
  )
  (junction (at 88.9 81.28) (diameter 0) (color 0 0 0 0)
    (uuid eb9148f4-549d-4286-b518-52a6fc086ea2)
  )

  (bus_entry (at 44.45 35.56) (size 2.54 -2.54)
    (stroke (width 0) (type default) (color 0 0 0 0))
    (uuid 01bf42ee-0767-463a-8757-a5c5c24fd091)
  )
  (bus_entry (at 44.45 33.02) (size 2.54 -2.54)
    (stroke (width 0) (type default) (color 0 0 0 0))
    (uuid 01bf42ee-0767-463a-8757-a5c5c24fd092)
  )
  (bus_entry (at 130.81 33.02) (size 2.54 -2.54)
    (stroke (width 0) (type default) (color 0 0 0 0))
    (uuid 148bc90a-ab5c-4c10-90ad-d4467ab3be0f)
  )
  (bus_entry (at 44.45 127) (size 2.54 -2.54)
    (stroke (width 0) (type default) (color 0 0 0 0))
    (uuid 338031e0-2649-4b2c-9390-07144361a28e)
  )
  (bus_entry (at 130.81 127) (size 2.54 -2.54)
    (stroke (width 0) (type default) (color 0 0 0 0))
    (uuid 357856bd-3d3d-4160-8d89-c953aff1cccb)
  )
  (bus_entry (at 130.81 78.74) (size 2.54 -2.54)
    (stroke (width 0) (type default) (color 0 0 0 0))
    (uuid 38291e14-51e7-4e85-ba1e-ad557de0a9bc)
  )
  (bus_entry (at 130.81 81.28) (size 2.54 -2.54)
    (stroke (width 0) (type default) (color 0 0 0 0))
    (uuid 39cb20af-4ea5-409f-ab5b-a134ec782207)
  )
  (bus_entry (at 44.45 129.54) (size 2.54 -2.54)
    (stroke (width 0) (type default) (color 0 0 0 0))
    (uuid 56d7883d-69ba-4d58-9a80-8a8b545dfc9b)
  )
  (bus_entry (at 130.81 35.56) (size 2.54 -2.54)
    (stroke (width 0) (type default) (color 0 0 0 0))
    (uuid 70fae480-b4b7-4d63-bb2b-5a565a8b4a5c)
  )
  (bus_entry (at 44.45 78.74) (size 2.54 -2.54)
    (stroke (width 0) (type default) (color 0 0 0 0))
    (uuid 7edc74b8-5166-46ac-9e8e-aa0d1577fb6c)
  )
  (bus_entry (at 130.81 129.54) (size 2.54 -2.54)
    (stroke (width 0) (type default) (color 0 0 0 0))
    (uuid 8e62e53a-50cb-4606-a861-ac07ad9b29ee)
  )
  (bus_entry (at 44.45 81.28) (size 2.54 -2.54)
    (stroke (width 0) (type default) (color 0 0 0 0))
    (uuid 8e86e928-f614-431d-bb35-803cb9bb4240)
  )

  (wire (pts (xy 87.63 35.56) (xy 88.9 35.56))
    (stroke (width 0) (type default) (color 0 0 0 0))
    (uuid 02e16d59-491c-4773-b1c1-fa28d50831d4)
  )
  (wire (pts (xy 88.9 129.54) (xy 101.6 129.54))
    (stroke (width 0) (type default) (color 0 0 0 0))
    (uuid 06ff87e4-ac63-4df8-bd76-ee3d5f26361f)
  )
  (wire (pts (xy 173.99 30.48) (xy 179.07 30.48))
    (stroke (width 0) (type default) (color 0 0 0 0))
    (uuid 0baa1c9a-2c46-442a-b70d-74fce88515f3)
  )
  (wire (pts (xy 95.25 76.2) (xy 102.87 76.2))
    (stroke (width 0) (type default) (color 0 0 0 0))
    (uuid 0d223224-c3f9-4663-9b55-43860c299a70)
  )
  (wire (pts (xy 46.99 78.74) (xy 67.31 78.74))
    (stroke (width 0) (type default) (color 0 0 0 0))
    (uuid 100ca3da-26db-418f-add3-c84cc409c65e)
  )
  (wire (pts (xy 181.61 124.46) (xy 189.23 124.46))
    (stroke (width 0) (type default) (color 0 0 0 0))
    (uuid 10644603-f43d-4792-acaf-cd1b2324c21e)
  )
  (wire (pts (xy 152.4 129.54) (xy 153.67 129.54))
    (stroke (width 0) (type default) (color 0 0 0 0))
    (uuid 12050b28-95ef-4d12-8193-c35289996e5c)
  )
  (wire (pts (xy 88.9 35.56) (xy 88.9 36.83))
    (stroke (width 0) (type default) (color 0 0 0 0))
    (uuid 176d72a2-e305-4876-9952-69792e35834c)
  )
  (wire (pts (xy 175.26 81.28) (xy 187.96 81.28))
    (stroke (width 0) (type default) (color 0 0 0 0))
    (uuid 1831ed12-1b5a-41ab-891a-bc9c092cdafe)
  )
  (wire (pts (xy 173.99 78.74) (xy 181.61 78.74))
    (stroke (width 0) (type default) (color 0 0 0 0))
    (uuid 1a68184c-76ea-426a-89fa-b312ff208268)
  )
  (bus (pts (xy 130.81 81.28) (xy 130.81 127))
    (stroke (width 0) (type default) (color 0 0 0 0))
    (uuid 1e1a7dca-8443-4127-9a4e-10a4be54c647)
  )

  (wire (pts (xy 88.9 129.54) (xy 88.9 130.81))
    (stroke (width 0) (type default) (color 0 0 0 0))
    (uuid 20ff9caa-439a-4eb5-980a-78d61bbf2007)
  )
  (wire (pts (xy 46.99 124.46) (xy 67.31 124.46))
    (stroke (width 0) (type default) (color 0 0 0 0))
    (uuid 22b9ca23-c0b8-4025-b463-484525896b8e)
  )
  (wire (pts (xy 87.63 30.48) (xy 92.71 30.48))
    (stroke (width 0) (type default) (color 0 0 0 0))
    (uuid 3461b1f6-d6e5-4859-9328-64f04adad369)
  )
  (wire (pts (xy 173.99 35.56) (xy 175.26 35.56))
    (stroke (width 0) (type default) (color 0 0 0 0))
    (uuid 34f74f88-7e43-4447-bfe6-098de21d01c5)
  )
  (wire (pts (xy 173.99 124.46) (xy 179.07 124.46))
    (stroke (width 0) (type default) (color 0 0 0 0))
    (uuid 3712acca-bc06-40f6-ac06-b70dc4b9aaa6)
  )
  (wire (pts (xy 133.35 30.48) (xy 153.67 30.48))
    (stroke (width 0) (type default) (color 0 0 0 0))
    (uuid 37facb8b-a5e8-40f0-ba12-7b3501895565)
  )
  (wire (pts (xy 175.26 35.56) (xy 175.26 36.83))
    (stroke (width 0) (type default) (color 0 0 0 0))
    (uuid 38ed3450-4636-4ee0-a388-290538d99ea7)
  )
  (wire (pts (xy 133.35 76.2) (xy 153.67 76.2))
    (stroke (width 0) (type default) (color 0 0 0 0))
    (uuid 3e83730b-c6a8-4ed8-90d4-a3b9d07a4ad8)
  )
  (wire (pts (xy 133.35 127) (xy 153.67 127))
    (stroke (width 0) (type default) (color 0 0 0 0))
    (uuid 41daf2ee-bc90-4b0e-88ad-8070ecac6d6a)
  )
  (bus (pts (xy 130.81 78.74) (xy 130.81 81.28))
    (stroke (width 0) (type default) (color 0 0 0 0))
    (uuid 4374caa2-7566-43ca-a76d-0284824025f2)
  )

  (wire (pts (xy 173.99 121.92) (xy 189.23 121.92))
    (stroke (width 0) (type default) (color 0 0 0 0))
    (uuid 43d7a62d-ce3e-4c6a-96a3-4a878ebe72fa)
  )
  (wire (pts (xy 92.71 124.46) (xy 92.71 119.38))
    (stroke (width 0) (type default) (color 0 0 0 0))
    (uuid 43f971d5-b1e0-446c-a818-91c0bbfd70ac)
  )
  (wire (pts (xy 101.6 35.56) (xy 101.6 36.83))
    (stroke (width 0) (type default) (color 0 0 0 0))
    (uuid 457cbb83-27a0-40ce-9564-83ca8b90cc35)
  )
  (wire (pts (xy 175.26 129.54) (xy 187.96 129.54))
    (stroke (width 0) (type default) (color 0 0 0 0))
    (uuid 45b516f3-6a5f-4c47-a463-8df3b425e88e)
  )
  (wire (pts (xy 187.96 35.56) (xy 187.96 36.83))
    (stroke (width 0) (type default) (color 0 0 0 0))
    (uuid 45c78087-d58e-4d47-9ce7-da3eccd1a919)
  )
  (wire (pts (xy 173.99 81.28) (xy 175.26 81.28))
    (stroke (width 0) (type default) (color 0 0 0 0))
    (uuid 4a376fdc-9ad3-426a-843a-84c879c0e253)
  )
  (wire (pts (xy 87.63 124.46) (xy 92.71 124.46))
    (stroke (width 0) (type default) (color 0 0 0 0))
    (uuid 4ae9b0af-e8b9-4b97-9d28-911aefb264c4)
  )
  (bus (pts (xy 130.81 35.56) (xy 130.81 78.74))
    (stroke (width 0) (type default) (color 0 0 0 0))
    (uuid 4bf9c548-3636-4966-ad2b-f612eb6cba54)
  )

  (wire (pts (xy 181.61 127) (xy 181.61 124.46))
    (stroke (width 0) (type default) (color 0 0 0 0))
    (uuid 4c516544-a53a-48f3-ae29-6e5455f8b1e6)
  )
  (bus (pts (xy 130.81 129.54) (xy 130.81 149.86))
    (stroke (width 0) (type default) (color 0 0 0 0))
    (uuid 4e776fc9-cde0-40d4-aa6b-d1f8bf418fd3)
  )

  (wire (pts (xy 133.35 33.02) (xy 153.67 33.02))
    (stroke (width 0) (type default) (color 0 0 0 0))
    (uuid 4f0d1c08-24bb-4bc2-96b2-bb4b7724a894)
  )
  (wire (pts (xy 92.71 76.2) (xy 92.71 71.12))
    (stroke (width 0) (type default) (color 0 0 0 0))
    (uuid 504f0f17-11fd-4263-9fbf-633ea36ec5f9)
  )
  (wire (pts (xy 66.04 81.28) (xy 67.31 81.28))
    (stroke (width 0) (type default) (color 0 0 0 0))
    (uuid 546a2275-875d-4898-9e99-6c5f77e1668c)
  )
  (wire (pts (xy 54.61 121.92) (xy 67.31 121.92))
    (stroke (width 0) (type default) (color 0 0 0 0))
    (uuid 5669897c-ec8e-4f9b-a809-05340c260247)
  )
  (wire (pts (xy 175.26 35.56) (xy 187.96 35.56))
    (stroke (width 0) (type default) (color 0 0 0 0))
    (uuid 5d3b66a1-48b2-4cb4-b13c-ee8c71552ad1)
  )
  (wire (pts (xy 133.35 124.46) (xy 153.67 124.46))
    (stroke (width 0) (type default) (color 0 0 0 0))
    (uuid 5e3a9117-7414-4678-a10d-723b7e2d0990)
  )
  (wire (pts (xy 173.99 33.02) (xy 181.61 33.02))
    (stroke (width 0) (type default) (color 0 0 0 0))
    (uuid 651555c4-1088-4d63-82ca-e41a508a977e)
  )
  (wire (pts (xy 179.07 76.2) (xy 179.07 71.12))
    (stroke (width 0) (type default) (color 0 0 0 0))
    (uuid 6720ef8c-5bdd-444e-b0f4-747869805f00)
  )
  (wire (pts (xy 46.99 33.02) (xy 67.31 33.02))
    (stroke (width 0) (type default) (color 0 0 0 0))
    (uuid 68f54485-b946-4467-aad6-959132ac364d)
  )
  (wire (pts (xy 140.97 27.94) (xy 153.67 27.94))
    (stroke (width 0) (type default) (color 0 0 0 0))
    (uuid 693e8a9c-b35d-4e53-bbb7-e74854ae5584)
  )
  (wire (pts (xy 87.63 78.74) (xy 95.25 78.74))
    (stroke (width 0) (type default) (color 0 0 0 0))
    (uuid 6efeb2dc-c5dd-4922-848d-7995298c67e7)
  )
  (wire (pts (xy 133.35 78.74) (xy 153.67 78.74))
    (stroke (width 0) (type default) (color 0 0 0 0))
    (uuid 71444d86-7339-4556-957f-35958494d84c)
  )
  (wire (pts (xy 87.63 127) (xy 95.25 127))
    (stroke (width 0) (type default) (color 0 0 0 0))
    (uuid 72552ffe-488b-497e-9845-4c5d3a126d6b)
  )
  (bus (pts (xy 44.45 149.86) (xy 44.45 156.21))
    (stroke (width 0) (type default) (color 0 0 0 0))
    (uuid 7339e1be-d9ac-4d03-ba6d-5312b2ab002b)
  )

  (wire (pts (xy 46.99 127) (xy 67.31 127))
    (stroke (width 0) (type default) (color 0 0 0 0))
    (uuid 74e8ddab-bdaa-4cee-b1fd-0a083cbc399d)
  )
  (wire (pts (xy 95.25 33.02) (xy 95.25 30.48))
    (stroke (width 0) (type default) (color 0 0 0 0))
    (uuid 7a03c1c6-87e4-42e8-8056-a497dbb0fe76)
  )
  (wire (pts (xy 87.63 73.66) (xy 102.87 73.66))
    (stroke (width 0) (type default) (color 0 0 0 0))
    (uuid 7b4cb889-cdc1-4233-8ddc-6175c925b412)
  )
  (wire (pts (xy 187.96 129.54) (xy 187.96 130.81))
    (stroke (width 0) (type default) (color 0 0 0 0))
    (uuid 7e3ebaa5-f92a-4f20-89d7-2e5cd0b93ac5)
  )
  (wire (pts (xy 87.63 81.28) (xy 88.9 81.28))
    (stroke (width 0) (type default) (color 0 0 0 0))
    (uuid 804eafd5-d210-43ad-976f-36c38d555969)
  )
  (wire (pts (xy 152.4 81.28) (xy 153.67 81.28))
    (stroke (width 0) (type default) (color 0 0 0 0))
    (uuid 875ded57-4ecf-4f27-a2c2-ceaae7ed3b52)
  )
  (wire (pts (xy 88.9 81.28) (xy 101.6 81.28))
    (stroke (width 0) (type default) (color 0 0 0 0))
    (uuid 8c43d85d-ba25-45a5-a5b8-3c575ceed1bd)
  )
  (wire (pts (xy 95.25 78.74) (xy 95.25 76.2))
    (stroke (width 0) (type default) (color 0 0 0 0))
    (uuid 8c8e3f11-2e53-466e-9e82-97da0177a6f6)
  )
  (bus (pts (xy 44.45 149.86) (xy 130.81 149.86))
    (stroke (width 0) (type default) (color 0 0 0 0))
    (uuid 8d17de5e-6431-44ad-bd68-d1dd569d9f57)
  )

  (wire (pts (xy 66.04 129.54) (xy 67.31 129.54))
    (stroke (width 0) (type default) (color 0 0 0 0))
    (uuid 8d57e306-3201-4731-8f7f-0e9f96e32a3d)
  )
  (bus (pts (xy 130.81 33.02) (xy 130.81 35.56))
    (stroke (width 0) (type default) (color 0 0 0 0))
    (uuid 8e7472a2-69e1-4f0f-822d-e90771384248)
  )

  (wire (pts (xy 88.9 35.56) (xy 101.6 35.56))
    (stroke (width 0) (type default) (color 0 0 0 0))
    (uuid 8f7de82b-a67a-4854-8369-6777af34673f)
  )
  (wire (pts (xy 175.26 129.54) (xy 175.26 130.81))
    (stroke (width 0) (type default) (color 0 0 0 0))
    (uuid 8fb3867a-9ea0-47cd-9c0a-1fbb8b970114)
  )
  (wire (pts (xy 175.26 81.28) (xy 175.26 82.55))
    (stroke (width 0) (type default) (color 0 0 0 0))
    (uuid 957d5257-6968-40fe-ace9-70eba74dcbaf)
  )
  (wire (pts (xy 173.99 27.94) (xy 189.23 27.94))
    (stroke (width 0) (type default) (color 0 0 0 0))
    (uuid 9710536d-c3c0-4ed0-ae26-03424f954e67)
  )
  (wire (pts (xy 95.25 124.46) (xy 102.87 124.46))
    (stroke (width 0) (type default) (color 0 0 0 0))
    (uuid 9a440e82-6af6-4a1f-a4a1-f90fa035fc3a)
  )
  (wire (pts (xy 101.6 129.54) (xy 101.6 130.81))
    (stroke (width 0) (type default) (color 0 0 0 0))
    (uuid 9aed5ef1-1296-4f99-9d70-d8591897e718)
  )
  (wire (pts (xy 173.99 129.54) (xy 175.26 129.54))
    (stroke (width 0) (type default) (color 0 0 0 0))
    (uuid 9fc7ac44-cb8c-4b0f-a19b-9c4d4ecd6ffd)
  )
  (wire (pts (xy 152.4 35.56) (xy 153.67 35.56))
    (stroke (width 0) (type default) (color 0 0 0 0))
    (uuid a02f62f3-ce7d-4bd9-bd59-82c482be5b31)
  )
  (wire (pts (xy 173.99 73.66) (xy 189.23 73.66))
    (stroke (width 0) (type default) (color 0 0 0 0))
    (uuid a293a541-1e5b-41d7-a916-028b7990d12f)
  )
  (wire (pts (xy 140.97 121.92) (xy 153.67 121.92))
    (stroke (width 0) (type default) (color 0 0 0 0))
    (uuid a4022b51-0570-4266-92ff-ff9100c84f7e)
  )
  (wire (pts (xy 101.6 81.28) (xy 101.6 82.55))
    (stroke (width 0) (type default) (color 0 0 0 0))
    (uuid ad5d6697-5235-41d5-a28c-5b7f60c07679)
  )
  (wire (pts (xy 46.99 30.48) (xy 67.31 30.48))
    (stroke (width 0) (type default) (color 0 0 0 0))
    (uuid aea351de-4fd8-40b0-9239-7aa6f1714ce1)
  )
  (wire (pts (xy 95.25 127) (xy 95.25 124.46))
    (stroke (width 0) (type default) (color 0 0 0 0))
    (uuid b13418d4-9494-4fc1-b885-5ae77e3a3588)
  )
  (wire (pts (xy 58.42 27.94) (xy 67.31 27.94))
    (stroke (width 0) (type default) (color 0 0 0 0))
    (uuid b2d8b077-0ef5-4976-8c43-94f82f739557)
  )
  (bus (pts (xy 44.45 127) (xy 44.45 129.54))
    (stroke (width 0) (type default) (color 0 0 0 0))
    (uuid b3105035-1f20-473c-8f26-1ec3cf0275ed)
  )

  (wire (pts (xy 87.63 121.92) (xy 102.87 121.92))
    (stroke (width 0) (type default) (color 0 0 0 0))
    (uuid b4ebad33-6fc6-477d-8136-a34ad5165843)
  )
  (wire (pts (xy 46.99 76.2) (xy 67.31 76.2))
    (stroke (width 0) (type default) (color 0 0 0 0))
    (uuid b66dc61b-afeb-4f04-984a-3f1f60c54869)
  )
  (wire (pts (xy 87.63 129.54) (xy 88.9 129.54))
    (stroke (width 0) (type default) (color 0 0 0 0))
    (uuid b6d5b83a-43e2-4861-828a-be7f2c0a2b88)
  )
  (bus (pts (xy 44.45 33.02) (xy 44.45 35.56))
    (stroke (width 0) (type default) (color 0 0 0 0))
    (uuid b9dfa7b1-72e0-41ae-9a21-df9030637df9)
  )

  (wire (pts (xy 181.61 76.2) (xy 189.23 76.2))
    (stroke (width 0) (type default) (color 0 0 0 0))
    (uuid ba239497-122f-4417-a63f-062419f0092f)
  )
  (bus (pts (xy 44.45 81.28) (xy 44.45 127))
    (stroke (width 0) (type default) (color 0 0 0 0))
    (uuid bb3550bd-2613-4ede-b592-7bdb83dccf40)
  )
  (bus (pts (xy 44.45 129.54) (xy 44.45 149.86))
    (stroke (width 0) (type default) (color 0 0 0 0))
    (uuid c21335b8-029f-41a4-950e-344112729cdb)
  )

  (wire (pts (xy 187.96 81.28) (xy 187.96 82.55))
    (stroke (width 0) (type default) (color 0 0 0 0))
    (uuid c459d2c7-7d7d-498f-875b-3cacf3e532ff)
  )
  (wire (pts (xy 173.99 76.2) (xy 179.07 76.2))
    (stroke (width 0) (type default) (color 0 0 0 0))
    (uuid c894caa8-7aa7-405a-ab6a-38abe3d15a76)
  )
  (bus (pts (xy 44.45 35.56) (xy 44.45 78.74))
    (stroke (width 0) (type default) (color 0 0 0 0))
    (uuid cdecb914-4c54-4877-ae4f-5b13537a6052)
  )

  (wire (pts (xy 87.63 27.94) (xy 102.87 27.94))
    (stroke (width 0) (type default) (color 0 0 0 0))
    (uuid d21aed38-f5d0-412d-a40c-f48b33076bdb)
  )
  (bus (pts (xy 44.45 78.74) (xy 44.45 81.28))
    (stroke (width 0) (type default) (color 0 0 0 0))
    (uuid d4b79bf7-e3c2-4002-966a-18bf888281c0)
  )

  (wire (pts (xy 88.9 81.28) (xy 88.9 82.55))
    (stroke (width 0) (type default) (color 0 0 0 0))
    (uuid d672ad6b-f8ff-43e7-8de8-790630db4989)
  )
  (wire (pts (xy 142.24 73.66) (xy 153.67 73.66))
    (stroke (width 0) (type default) (color 0 0 0 0))
    (uuid d7007eb8-25c1-4d2b-9ea6-3a41e5236003)
  )
  (wire (pts (xy 181.61 78.74) (xy 181.61 76.2))
    (stroke (width 0) (type default) (color 0 0 0 0))
    (uuid d79fea79-f006-4271-b07d-62452845e17c)
  )
  (wire (pts (xy 95.25 30.48) (xy 102.87 30.48))
    (stroke (width 0) (type default) (color 0 0 0 0))
    (uuid df2ada72-db5e-44aa-ad73-69e4df1336b6)
  )
  (wire (pts (xy 179.07 30.48) (xy 179.07 25.4))
    (stroke (width 0) (type default) (color 0 0 0 0))
    (uuid e005a904-bc02-4b6f-a5de-b5db431ce56a)
  )
  (wire (pts (xy 87.63 33.02) (xy 95.25 33.02))
    (stroke (width 0) (type default) (color 0 0 0 0))
    (uuid e0668d7b-b920-4daa-8d8f-4537542d2b2b)
  )
  (wire (pts (xy 55.88 73.66) (xy 67.31 73.66))
    (stroke (width 0) (type default) (color 0 0 0 0))
    (uuid e3ec0f45-4462-4051-8004-69eba7de0c42)
  )
  (bus (pts (xy 130.81 127) (xy 130.81 129.54))
    (stroke (width 0) (type default) (color 0 0 0 0))
    (uuid e482d328-8e85-4308-9b34-a9cc0d5843cf)
  )

  (wire (pts (xy 181.61 33.02) (xy 181.61 30.48))
    (stroke (width 0) (type default) (color 0 0 0 0))
    (uuid e5fc5e1a-68f6-4b7b-9f80-6471e872e338)
  )
  (wire (pts (xy 181.61 30.48) (xy 189.23 30.48))
    (stroke (width 0) (type default) (color 0 0 0 0))
    (uuid eae9ba74-03aa-4379-91a3-4426b13ee90e)
  )
  (wire (pts (xy 173.99 127) (xy 181.61 127))
    (stroke (width 0) (type default) (color 0 0 0 0))
    (uuid f533bc4d-bd37-44a6-9486-0f0e7c9ed863)
  )
  (wire (pts (xy 66.04 35.56) (xy 67.31 35.56))
    (stroke (width 0) (type default) (color 0 0 0 0))
    (uuid f942bd0b-9a68-4f80-a861-989a5097e4d2)
  )
  (wire (pts (xy 179.07 124.46) (xy 179.07 119.38))
    (stroke (width 0) (type default) (color 0 0 0 0))
    (uuid fa41badb-02bb-456a-a299-207b711c60d9)
  )
  (wire (pts (xy 87.63 76.2) (xy 92.71 76.2))
    (stroke (width 0) (type default) (color 0 0 0 0))
    (uuid fe0bb3b9-1547-4369-9b81-ee150362a290)
  )
  (wire (pts (xy 92.71 30.48) (xy 92.71 25.4))
    (stroke (width 0) (type default) (color 0 0 0 0))
    (uuid fe5d17b6-a712-46fc-82d7-cf4e79cb652d)
  )

  (label "MOTOR1" (at 67.31 33.02 180)
    (effects (font (size 1.27 1.27)) (justify right bottom))
    (uuid 1fac7d68-f826-4024-b92e-2a460a79f6a8)
  )
  (label "MOTOR4" (at 67.31 76.2 180)
    (effects (font (size 1.27 1.27)) (justify right bottom))
    (uuid 37eef8fa-db0f-496f-a276-801c95e2af99)
  )
  (label "MOTOR8" (at 67.31 124.46 180)
    (effects (font (size 1.27 1.27)) (justify right bottom))
    (uuid ac768611-b2f7-4b2a-8c9a-898c78320d9b)
  )
  (label "MOTOR3" (at 153.67 33.02 180)
    (effects (font (size 1.27 1.27)) (justify right bottom))
    (uuid b0479b26-ee71-47c5-8dcb-957dc1b3ef82)
  )
  (label "MOTOR9" (at 67.31 127 180)
    (effects (font (size 1.27 1.27)) (justify right bottom))
    (uuid d92faf97-4d0d-45ac-9d54-07cb2cf9e4e5)
  )
  (label "MOTOR6" (at 153.67 76.2 180)
    (effects (font (size 1.27 1.27)) (justify right bottom))
    (uuid dd9b0676-8a28-44cd-bab9-2bcd8f721222)
  )
  (label "MOTOR11" (at 153.67 127 180)
    (effects (font (size 1.27 1.27)) (justify right bottom))
    (uuid e762df38-cde6-4023-8870-6a610c00931f)
  )
  (label "MOTOR5" (at 67.31 78.74 180)
    (effects (font (size 1.27 1.27)) (justify right bottom))
    (uuid ea431570-dfff-42fe-92cc-0998b18873b4)
  )
  (label "MOTOR7" (at 153.67 78.74 180)
    (effects (font (size 1.27 1.27)) (justify right bottom))
    (uuid f64763bf-bcea-4bc2-b798-98e217228a27)
  )
  (label "MOTOR0" (at 67.31 30.48 180)
    (effects (font (size 1.27 1.27)) (justify right bottom))
    (uuid fad165c6-f9cc-4071-99bf-a745ffb3dc6e)
  )
  (label "MOTOR2" (at 153.67 30.48 180)
    (effects (font (size 1.27 1.27)) (justify right bottom))
    (uuid fee0d686-c022-49f4-a813-bdfe183926d7)
  )
  (label "MOTOR10" (at 153.67 124.46 180)
    (effects (font (size 1.27 1.27)) (justify right bottom))
    (uuid ff24894d-e87f-4715-af95-3656ce20626c)
  )

  (global_label "VL2" (shape input) (at 101.6 81.28 0) (fields_autoplaced)
    (effects (font (size 1.27 1.27)) (justify left))
    (uuid 84822627-910e-494f-ad1e-c00072c1d692)
    (property "Intersheet References" "${INTERSHEET_REFS}" (id 0) (at 107.3393 81.2006 0)
      (effects (font (size 1.27 1.27)) (justify left) hide)
    )
  )
  (global_label "VL0" (shape input) (at 101.6 35.56 0) (fields_autoplaced)
    (effects (font (size 1.27 1.27)) (justify left))
    (uuid 9746964e-aba8-4077-8b1c-104b5c796757)
    (property "Intersheet References" "${INTERSHEET_REFS}" (id 0) (at 107.3393 35.6394 0)
      (effects (font (size 1.27 1.27)) (justify left) hide)
    )
  )
  (global_label "VL4" (shape input) (at 101.6 129.54 0) (fields_autoplaced)
    (effects (font (size 1.27 1.27)) (justify left))
    (uuid aab6dee5-4f04-4534-b5ff-04a45eecd463)
    (property "Intersheet References" "${INTERSHEET_REFS}" (id 0) (at 107.3393 129.4606 0)
      (effects (font (size 1.27 1.27)) (justify left) hide)
    )
  )
  (global_label "VL1" (shape input) (at 187.96 35.56 0) (fields_autoplaced)
    (effects (font (size 1.27 1.27)) (justify left))
    (uuid d107bce9-58f1-4bfc-aeb8-38d5741a45b2)
    (property "Intersheet References" "${INTERSHEET_REFS}" (id 0) (at 193.6993 35.4806 0)
      (effects (font (size 1.27 1.27)) (justify left) hide)
    )
  )
  (global_label "VL5" (shape input) (at 187.96 129.54 0) (fields_autoplaced)
    (effects (font (size 1.27 1.27)) (justify left))
    (uuid e7566e6b-7871-4148-af7d-8106927a8b77)
    (property "Intersheet References" "${INTERSHEET_REFS}" (id 0) (at 193.6993 129.4606 0)
      (effects (font (size 1.27 1.27)) (justify left) hide)
    )
  )
  (global_label "VL3" (shape input) (at 187.96 81.28 0) (fields_autoplaced)
    (effects (font (size 1.27 1.27)) (justify left))
    (uuid fe395d3f-8430-4aef-8ec2-9781a68cc867)
    (property "Intersheet References" "${INTERSHEET_REFS}" (id 0) (at 193.6993 81.2006 0)
      (effects (font (size 1.27 1.27)) (justify left) hide)
    )
  )

  (hierarchical_label "MOTOR[0..11]" (shape input) (at 44.45 156.21 180)
    (effects (font (size 1.27 1.27)) (justify right))
    (uuid 8806de4a-e2b4-4e76-85e1-f53277739634)
  )

  (symbol (lib_id "Connector:Screw_Terminal_01x02") (at 107.95 73.66 0) (unit 1)
    (in_bom yes) (on_board yes) (fields_autoplaced)
    (uuid 0732a452-175d-4313-9391-a9018b294f9e)
    (property "Reference" "J2" (id 0) (at 110.49 73.6599 0)
      (effects (font (size 1.27 1.27)) (justify left) hide)
    )
    (property "Value" "Screw_Terminal_01x02" (id 1) (at 110.49 76.1999 0)
      (effects (font (size 1.27 1.27)) (justify left))
    )
    (property "Footprint" "TerminalBlock:TerminalBlock_bornier-2_P5.08mm" (id 2) (at 107.95 73.66 0)
      (effects (font (size 1.27 1.27)) hide)
    )
    (property "Datasheet" "~" (id 3) (at 107.95 73.66 0)
      (effects (font (size 1.27 1.27)) hide)
    )
    (pin "1" (uuid 929faf0c-ceff-4ca7-9897-35d2c8335af6))
    (pin "2" (uuid fa2ae00b-e5de-49ba-a7ca-b0e750ec47c4))
  )

  (symbol (lib_id "Device:R") (at 179.07 115.57 180) (unit 1)
    (in_bom yes) (on_board yes) (fields_autoplaced)
    (uuid 08f152a7-5dd6-40b8-86c8-5a6a84e3e7cf)
    (property "Reference" "R55" (id 0) (at 181.61 114.2999 0)
      (effects (font (size 1.27 1.27)) (justify right))
    )
    (property "Value" "0.1" (id 1) (at 181.61 116.8399 0)
      (effects (font (size 1.27 1.27)) (justify right))
    )
    (property "Footprint" "Resistor_SMD:R_1206_3216Metric_Pad1.30x1.75mm_HandSolder" (id 2) (at 180.848 115.57 90)
      (effects (font (size 1.27 1.27)) hide)
    )
    (property "Datasheet" "~" (id 3) (at 179.07 115.57 0)
      (effects (font (size 1.27 1.27)) hide)
    )
    (pin "1" (uuid c1fbcf6a-9fcf-4f91-9749-1eb6b6cca1a7))
    (pin "2" (uuid ca9250eb-6c1b-4489-a33a-5da4004263f8))
  )

  (symbol (lib_id "power:GND") (at 67.31 88.9 0) (mirror y) (unit 1)
    (in_bom yes) (on_board yes) (fields_autoplaced)
    (uuid 0c3fd3c0-f526-4210-95b1-f626f23c578e)
    (property "Reference" "#PWR0150" (id 0) (at 67.31 95.25 0)
      (effects (font (size 1.27 1.27)) hide)
    )
    (property "Value" "GND" (id 1) (at 69.85 90.1701 0)
      (effects (font (size 1.27 1.27)) (justify right))
    )
    (property "Footprint" "" (id 2) (at 67.31 88.9 0)
      (effects (font (size 1.27 1.27)) hide)
    )
    (property "Datasheet" "" (id 3) (at 67.31 88.9 0)
      (effects (font (size 1.27 1.27)) hide)
    )
    (pin "1" (uuid ee64e2b8-12fe-43a4-a6b0-eb06fefa4d53))
  )

  (symbol (lib_id "power:GND") (at 88.9 44.45 0) (unit 1)
    (in_bom yes) (on_board yes) (fields_autoplaced)
    (uuid 0c56ad89-20b9-4dc9-ba1a-7966feaf4501)
    (property "Reference" "#PWR0126" (id 0) (at 88.9 50.8 0)
      (effects (font (size 1.27 1.27)) hide)
    )
    (property "Value" "GND" (id 1) (at 91.44 45.7199 0)
      (effects (font (size 1.27 1.27)) (justify left))
    )
    (property "Footprint" "" (id 2) (at 88.9 44.45 0)
      (effects (font (size 1.27 1.27)) hide)
    )
    (property "Datasheet" "" (id 3) (at 88.9 44.45 0)
      (effects (font (size 1.27 1.27)) hide)
    )
    (pin "1" (uuid fb969955-fae6-482b-9901-b0f3291792cf))
  )

  (symbol (lib_id "power:GND") (at 153.67 137.16 0) (mirror y) (unit 1)
    (in_bom yes) (on_board yes) (fields_autoplaced)
    (uuid 0ef3391c-448f-4046-9390-a1228c05017a)
    (property "Reference" "#PWR0246" (id 0) (at 153.67 143.51 0)
      (effects (font (size 1.27 1.27)) hide)
    )
    (property "Value" "GND" (id 1) (at 156.21 138.4301 0)
      (effects (font (size 1.27 1.27)) (justify right))
    )
    (property "Footprint" "" (id 2) (at 153.67 137.16 0)
      (effects (font (size 1.27 1.27)) hide)
    )
    (property "Datasheet" "" (id 3) (at 153.67 137.16 0)
      (effects (font (size 1.27 1.27)) hide)
    )
    (pin "1" (uuid 85c3ea95-603d-4ae6-98a3-b0832d0ceb7f))
  )

  (symbol (lib_id "power:GND") (at 140.97 27.94 0) (unit 1)
    (in_bom yes) (on_board yes)
    (uuid 1775a28c-5e93-4237-9114-70555dd8e04a)
    (property "Reference" "#PWR0141" (id 0) (at 140.97 34.29 0)
      (effects (font (size 1.27 1.27)) hide)
    )
    (property "Value" "GND" (id 1) (at 134.62 27.94 0)
      (effects (font (size 1.27 1.27)) (justify left))
    )
    (property "Footprint" "" (id 2) (at 140.97 27.94 0)
      (effects (font (size 1.27 1.27)) hide)
    )
    (property "Datasheet" "" (id 3) (at 140.97 27.94 0)
      (effects (font (size 1.27 1.27)) hide)
    )
    (pin "1" (uuid 1ad3c23d-fb8b-4143-8694-19f3b32b307d))
  )

  (symbol (lib_id "power:GND") (at 187.96 90.17 0) (unit 1)
    (in_bom yes) (on_board yes) (fields_autoplaced)
    (uuid 17eb964f-6993-47ea-9227-3d2aee00e342)
    (property "Reference" "#PWR0132" (id 0) (at 187.96 96.52 0)
      (effects (font (size 1.27 1.27)) hide)
    )
    (property "Value" "GND" (id 1) (at 190.5 91.4399 0)
      (effects (font (size 1.27 1.27)) (justify left))
    )
    (property "Footprint" "" (id 2) (at 187.96 90.17 0)
      (effects (font (size 1.27 1.27)) hide)
    )
    (property "Datasheet" "" (id 3) (at 187.96 90.17 0)
      (effects (font (size 1.27 1.27)) hide)
    )
    (pin "1" (uuid 17de854b-1a65-48e1-9061-f9a0a81e93a9))
  )

  (symbol (lib_id "Device:C") (at 67.31 39.37 180) (unit 1)
    (in_bom yes) (on_board yes) (fields_autoplaced)
    (uuid 18291427-2365-4ea5-924a-3f922dd9dd7f)
    (property "Reference" "C12" (id 0) (at 71.12 40.6401 0)
      (effects (font (size 1.27 1.27)) (justify right))
    )
    (property "Value" "100nF" (id 1) (at 71.12 38.1001 0)
      (effects (font (size 1.27 1.27)) (justify right))
    )
    (property "Footprint" "Capacitor_SMD:C_0402_1005Metric" (id 2) (at 66.3448 35.56 0)
      (effects (font (size 1.27 1.27)) hide)
    )
    (property "Datasheet" "~" (id 3) (at 67.31 39.37 0)
      (effects (font (size 1.27 1.27)) hide)
    )
    (pin "1" (uuid f7770c87-2577-4a8a-9fb0-515b4cfc5e20))
    (pin "2" (uuid 40bc7522-b17d-4622-bebe-f463b738c3a8))
  )

  (symbol (lib_id "Device:C_Polarized_US") (at 101.6 134.62 0) (unit 1)
    (in_bom yes) (on_board yes) (fields_autoplaced)
    (uuid 1a5fc22e-3110-452d-bd88-6affd9908b29)
    (property "Reference" "C20" (id 0) (at 105.41 132.7149 0)
      (effects (font (size 1.27 1.27)) (justify left))
    )
    (property "Value" "120u" (id 1) (at 105.41 135.2549 0)
      (effects (font (size 1.27 1.27)) (justify left))
    )
    (property "Footprint" "Capacitor_THT:CP_Radial_D5.0mm_P2.50mm" (id 2) (at 101.6 134.62 0)
      (effects (font (size 1.27 1.27)) hide)
    )
    (property "Datasheet" "~" (id 3) (at 101.6 134.62 0)
      (effects (font (size 1.27 1.27)) hide)
    )
    (pin "1" (uuid 2ba72092-c47d-4682-ae4d-f81c09fa8698))
    (pin "2" (uuid c9589181-b6ac-4697-9d8b-54e2cf2a1d8b))
  )

  (symbol (lib_id "power:GND") (at 187.96 44.45 0) (unit 1)
    (in_bom yes) (on_board yes) (fields_autoplaced)
    (uuid 1d8ebaa2-88af-40e3-9c58-ae3664c98c32)
    (property "Reference" "#PWR0144" (id 0) (at 187.96 50.8 0)
      (effects (font (size 1.27 1.27)) hide)
    )
    (property "Value" "GND" (id 1) (at 190.5 45.7199 0)
      (effects (font (size 1.27 1.27)) (justify left))
    )
    (property "Footprint" "" (id 2) (at 187.96 44.45 0)
      (effects (font (size 1.27 1.27)) hide)
    )
    (property "Datasheet" "" (id 3) (at 187.96 44.45 0)
      (effects (font (size 1.27 1.27)) hide)
    )
    (pin "1" (uuid 0992cd67-d420-4b2b-87f4-9909d656ac84))
  )

  (symbol (lib_id "mylib:AT8870") (at 77.47 35.56 0) (unit 1)
    (in_bom yes) (on_board yes)
    (uuid 1fe45b04-0f11-4a65-9022-14d1da75276e)
    (property "Reference" "U9" (id 0) (at 77.47 40.64 0))
    (property "Value" "AT8870" (id 1) (at 77.47 43.18 0))
    (property "Footprint" "Package_SO:Diodes_PSOP-8" (id 2) (at 77.47 49.53 0))
    (property "Datasheet" "https://lcsc.com/product-detail/Motor-Driver-ICs_Jiaxing-Heroic-Elec-Tech-AT8870_C191458.html" (id 3) (at 77.47 20.32 0)
      (effects (font (size 1.27 1.27)) hide)
    )
    (pin "8" (uuid 0b00bd61-938e-4907-a414-14472c232899))
    (pin "1" (uuid 417b7a45-3185-477a-90cc-839c8eed0436))
    (pin "2" (uuid e021eebb-881e-4907-b8b9-66001bee1546))
    (pin "3" (uuid c25acc5d-3085-400e-b572-c65aaa8b34e5))
    (pin "4" (uuid f5c585fa-459a-4d91-a573-b0f999232cd8))
    (pin "5" (uuid 04f95f4a-17d1-440f-a15d-04890a61fc2f))
    (pin "6" (uuid f1057476-91b2-4c10-a848-6c5bc2403fb6))
    (pin "7" (uuid f94c5ee5-acba-4417-bbd4-0872336f5008))
    (pin "9" (uuid ae91a29e-3ea0-47e5-a87b-3e034768ab13))
  )

  (symbol (lib_id "Device:C") (at 88.9 86.36 180) (unit 1)
    (in_bom yes) (on_board yes) (fields_autoplaced)
    (uuid 2846dfe6-157e-4c2b-8277-e5055fe47cbd)
    (property "Reference" "C16" (id 0) (at 92.71 85.0899 0)
      (effects (font (size 1.27 1.27)) (justify right))
    )
    (property "Value" "100nF" (id 1) (at 92.71 87.6299 0)
      (effects (font (size 1.27 1.27)) (justify right))
    )
    (property "Footprint" "Capacitor_SMD:C_0402_1005Metric" (id 2) (at 87.9348 82.55 0)
      (effects (font (size 1.27 1.27)) hide)
    )
    (property "Datasheet" "~" (id 3) (at 88.9 86.36 0)
      (effects (font (size 1.27 1.27)) hide)
    )
    (pin "1" (uuid 901bcf74-ac9b-4b6e-b01e-2332060bf1b2))
    (pin "2" (uuid 85430b86-0ec0-4264-846f-a768c15a0f85))
  )

  (symbol (lib_id "Connector:Screw_Terminal_01x02") (at 194.31 73.66 0) (unit 1)
    (in_bom yes) (on_board yes) (fields_autoplaced)
    (uuid 2862e14a-cb2c-40d6-bb1d-8b6cdfa3b08b)
    (property "Reference" "J5" (id 0) (at 196.85 73.6599 0)
      (effects (font (size 1.27 1.27)) (justify left) hide)
    )
    (property "Value" "Screw_Terminal_01x02" (id 1) (at 196.85 76.1999 0)
      (effects (font (size 1.27 1.27)) (justify left))
    )
    (property "Footprint" "TerminalBlock:TerminalBlock_bornier-2_P5.08mm" (id 2) (at 194.31 73.66 0)
      (effects (font (size 1.27 1.27)) hide)
    )
    (property "Datasheet" "~" (id 3) (at 194.31 73.66 0)
      (effects (font (size 1.27 1.27)) hide)
    )
    (pin "1" (uuid 5413acfb-304b-4361-8105-c4d7a45dde4b))
    (pin "2" (uuid 61f8140f-d3bb-463a-8016-ba1adb4fa1fa))
  )

  (symbol (lib_id "power:+3V3") (at 66.04 81.28 90) (unit 1)
    (in_bom yes) (on_board yes) (fields_autoplaced)
    (uuid 28ed2833-fdf9-4d9c-a610-abf8316b23cc)
    (property "Reference" "#PWR0239" (id 0) (at 69.85 81.28 0)
      (effects (font (size 1.27 1.27)) hide)
    )
    (property "Value" "+3V3" (id 1) (at 62.23 81.2799 90)
      (effects (font (size 1.27 1.27)) (justify left))
    )
    (property "Footprint" "" (id 2) (at 66.04 81.28 0)
      (effects (font (size 1.27 1.27)) hide)
    )
    (property "Datasheet" "" (id 3) (at 66.04 81.28 0)
      (effects (font (size 1.27 1.27)) hide)
    )
    (pin "1" (uuid 1158181e-bf58-40a7-9259-0370f99bac8c))
  )

  (symbol (lib_id "power:GND") (at 140.97 121.92 0) (unit 1)
    (in_bom yes) (on_board yes)
    (uuid 2a38ac1a-d81c-483d-ad7a-b9b1b9098892)
    (property "Reference" "#PWR0257" (id 0) (at 140.97 128.27 0)
      (effects (font (size 1.27 1.27)) hide)
    )
    (property "Value" "GND" (id 1) (at 134.62 121.92 0)
      (effects (font (size 1.27 1.27)) (justify left))
    )
    (property "Footprint" "" (id 2) (at 140.97 121.92 0)
      (effects (font (size 1.27 1.27)) hide)
    )
    (property "Datasheet" "" (id 3) (at 140.97 121.92 0)
      (effects (font (size 1.27 1.27)) hide)
    )
    (pin "1" (uuid 71b193cf-7907-43af-a847-3af7ed730497))
  )

  (symbol (lib_id "Connector:Screw_Terminal_01x02") (at 107.95 27.94 0) (unit 1)
    (in_bom yes) (on_board yes) (fields_autoplaced)
    (uuid 2f64bb6c-dfc8-4206-85c2-60698ac1dea4)
    (property "Reference" "J1" (id 0) (at 110.49 27.9399 0)
      (effects (font (size 1.27 1.27)) (justify left) hide)
    )
    (property "Value" "Screw_Terminal_01x02" (id 1) (at 110.49 30.4799 0)
      (effects (font (size 1.27 1.27)) (justify left))
    )
    (property "Footprint" "TerminalBlock:TerminalBlock_bornier-2_P5.08mm" (id 2) (at 107.95 27.94 0)
      (effects (font (size 1.27 1.27)) hide)
    )
    (property "Datasheet" "~" (id 3) (at 107.95 27.94 0)
      (effects (font (size 1.27 1.27)) hide)
    )
    (pin "1" (uuid fbcb378e-5516-491d-a071-2143909480a6))
    (pin "2" (uuid 770a146c-2402-4685-891d-05481ffe2326))
  )

  (symbol (lib_id "power:GND") (at 92.71 63.5 180) (unit 1)
    (in_bom yes) (on_board yes) (fields_autoplaced)
    (uuid 2fc087c4-af55-4e2f-9561-87aae50ff013)
    (property "Reference" "#PWR0123" (id 0) (at 92.71 57.15 0)
      (effects (font (size 1.27 1.27)) hide)
    )
    (property "Value" "GND" (id 1) (at 95.25 62.2299 0)
      (effects (font (size 1.27 1.27)) (justify right))
    )
    (property "Footprint" "" (id 2) (at 92.71 63.5 0)
      (effects (font (size 1.27 1.27)) hide)
    )
    (property "Datasheet" "" (id 3) (at 92.71 63.5 0)
      (effects (font (size 1.27 1.27)) hide)
    )
    (pin "1" (uuid 7570c8b4-7211-41af-a849-be73f5a9c9fd))
  )

  (symbol (lib_id "mylib:AT8870") (at 77.47 81.28 0) (unit 1)
    (in_bom yes) (on_board yes)
    (uuid 32243060-bf5d-42db-ad3b-643c10c26437)
    (property "Reference" "U10" (id 0) (at 77.47 86.36 0))
    (property "Value" "AT8870" (id 1) (at 77.47 88.9 0))
    (property "Footprint" "Package_SO:Diodes_PSOP-8" (id 2) (at 77.47 95.25 0))
    (property "Datasheet" "https://lcsc.com/product-detail/Motor-Driver-ICs_Jiaxing-Heroic-Elec-Tech-AT8870_C191458.html" (id 3) (at 77.47 66.04 0)
      (effects (font (size 1.27 1.27)) hide)
    )
    (pin "8" (uuid d8c6e794-38ef-40fd-91f8-be0689ed7916))
    (pin "1" (uuid b514a696-d1b6-4f6a-b933-898c9ba688fc))
    (pin "2" (uuid 95ccec6e-fe0b-49c9-955e-873269198ce6))
    (pin "3" (uuid 91df01b3-ff34-4de4-8947-ecd1391d3ee9))
    (pin "4" (uuid f3c2bfa8-bd87-43ba-9538-17b93ce64af2))
    (pin "5" (uuid fa36cf10-83d3-46a3-a8a8-ff8a86cb1a69))
    (pin "6" (uuid 5c96bd30-bf73-4c5a-ab3f-cd1d9bff62f6))
    (pin "7" (uuid 480d2016-354e-48aa-a248-101bbc6261a4))
    (pin "9" (uuid 7e7a998c-f378-4a0f-b62e-60070e48ff55))
  )

  (symbol (lib_id "power:GND") (at 54.61 121.92 0) (unit 1)
    (in_bom yes) (on_board yes)
    (uuid 32ec46d5-9b0a-41aa-9696-e43ef2eba054)
    (property "Reference" "#PWR0136" (id 0) (at 54.61 128.27 0)
      (effects (font (size 1.27 1.27)) hide)
    )
    (property "Value" "GND" (id 1) (at 48.26 121.92 0)
      (effects (font (size 1.27 1.27)) (justify left))
    )
    (property "Footprint" "" (id 2) (at 54.61 121.92 0)
      (effects (font (size 1.27 1.27)) hide)
    )
    (property "Datasheet" "" (id 3) (at 54.61 121.92 0)
      (effects (font (size 1.27 1.27)) hide)
    )
    (pin "1" (uuid 2fa59f1c-0f53-405a-93eb-0385289e6d4c))
  )

  (symbol (lib_id "mylib:AT8870") (at 77.47 129.54 0) (unit 1)
    (in_bom yes) (on_board yes)
    (uuid 36832cf4-0a89-4bba-bbcf-e6ed1d9841fe)
    (property "Reference" "U11" (id 0) (at 77.47 134.62 0))
    (property "Value" "AT8870" (id 1) (at 77.47 137.16 0))
    (property "Footprint" "Package_SO:Diodes_PSOP-8" (id 2) (at 77.47 143.51 0))
    (property "Datasheet" "https://lcsc.com/product-detail/Motor-Driver-ICs_Jiaxing-Heroic-Elec-Tech-AT8870_C191458.html" (id 3) (at 77.47 114.3 0)
      (effects (font (size 1.27 1.27)) hide)
    )
    (pin "8" (uuid f1aa70aa-64f0-4f8d-b8af-9222dc58682d))
    (pin "1" (uuid f2e31525-6784-4a9c-b9a7-c0e641564793))
    (pin "2" (uuid 35e2d8f7-d2c4-4f22-bd33-8a1bbf92d829))
    (pin "3" (uuid d546ac01-c0a2-49ca-8a7a-68615358bfe3))
    (pin "4" (uuid b692b7a7-c208-4465-a433-6ab9bb67b561))
    (pin "5" (uuid cfc69da9-0d8c-4e2e-9da1-bcd08e6e2e5f))
    (pin "6" (uuid 57e3fb89-f592-424f-acc9-68bf833d75ba))
    (pin "7" (uuid 4d528462-501a-4f04-a9db-f578614bc084))
    (pin "9" (uuid 7e54d313-9ca4-43d7-9fd0-67e5e1133600))
  )

  (symbol (lib_id "Device:C_Polarized_US") (at 187.96 86.36 0) (unit 1)
    (in_bom yes) (on_board yes) (fields_autoplaced)
    (uuid 38bd84a5-6003-43d9-8b3e-e73b62ed2a38)
    (property "Reference" "C26" (id 0) (at 191.77 84.4549 0)
      (effects (font (size 1.27 1.27)) (justify left))
    )
    (property "Value" "120u" (id 1) (at 191.77 86.9949 0)
      (effects (font (size 1.27 1.27)) (justify left))
    )
    (property "Footprint" "Capacitor_THT:CP_Radial_D5.0mm_P2.50mm" (id 2) (at 187.96 86.36 0)
      (effects (font (size 1.27 1.27)) hide)
    )
    (property "Datasheet" "~" (id 3) (at 187.96 86.36 0)
      (effects (font (size 1.27 1.27)) hide)
    )
    (pin "1" (uuid a2df0051-58e5-43de-8fa5-03a2f655e99a))
    (pin "2" (uuid f3bd45c7-bdac-4389-bf95-9fcdac24ea02))
  )

  (symbol (lib_id "power:GND") (at 175.26 90.17 0) (unit 1)
    (in_bom yes) (on_board yes) (fields_autoplaced)
    (uuid 3a63a5f2-bab3-49b9-888c-b86712972e88)
    (property "Reference" "#PWR0131" (id 0) (at 175.26 96.52 0)
      (effects (font (size 1.27 1.27)) hide)
    )
    (property "Value" "GND" (id 1) (at 177.8 91.4399 0)
      (effects (font (size 1.27 1.27)) (justify left))
    )
    (property "Footprint" "" (id 2) (at 175.26 90.17 0)
      (effects (font (size 1.27 1.27)) hide)
    )
    (property "Datasheet" "" (id 3) (at 175.26 90.17 0)
      (effects (font (size 1.27 1.27)) hide)
    )
    (pin "1" (uuid ba994c6c-72cc-4f44-af92-9912ba3bbcaa))
  )

  (symbol (lib_id "power:GND") (at 88.9 90.17 0) (unit 1)
    (in_bom yes) (on_board yes) (fields_autoplaced)
    (uuid 3c7ec9ba-4288-4f43-92b8-c4f7b4672f43)
    (property "Reference" "#PWR0148" (id 0) (at 88.9 96.52 0)
      (effects (font (size 1.27 1.27)) hide)
    )
    (property "Value" "GND" (id 1) (at 91.44 91.4399 0)
      (effects (font (size 1.27 1.27)) (justify left))
    )
    (property "Footprint" "" (id 2) (at 88.9 90.17 0)
      (effects (font (size 1.27 1.27)) hide)
    )
    (property "Datasheet" "" (id 3) (at 88.9 90.17 0)
      (effects (font (size 1.27 1.27)) hide)
    )
    (pin "1" (uuid 471675df-20bd-49b8-91db-0f6a64d770be))
  )

  (symbol (lib_id "power:+3V3") (at 66.04 129.54 90) (unit 1)
    (in_bom yes) (on_board yes) (fields_autoplaced)
    (uuid 424cf156-dd16-437e-9973-03fc4b4b8d11)
    (property "Reference" "#PWR0240" (id 0) (at 69.85 129.54 0)
      (effects (font (size 1.27 1.27)) hide)
    )
    (property "Value" "+3V3" (id 1) (at 62.23 129.5399 90)
      (effects (font (size 1.27 1.27)) (justify left))
    )
    (property "Footprint" "" (id 2) (at 66.04 129.54 0)
      (effects (font (size 1.27 1.27)) hide)
    )
    (property "Datasheet" "" (id 3) (at 66.04 129.54 0)
      (effects (font (size 1.27 1.27)) hide)
    )
    (pin "1" (uuid 9fa6e0e2-39e4-4ee4-86a8-2efbb3655706))
  )

  (symbol (lib_id "power:GND") (at 92.71 111.76 180) (unit 1)
    (in_bom yes) (on_board yes) (fields_autoplaced)
    (uuid 461154aa-7b37-4525-be17-b5178c0ca877)
    (property "Reference" "#PWR0147" (id 0) (at 92.71 105.41 0)
      (effects (font (size 1.27 1.27)) hide)
    )
    (property "Value" "GND" (id 1) (at 95.25 110.4899 0)
      (effects (font (size 1.27 1.27)) (justify right))
    )
    (property "Footprint" "" (id 2) (at 92.71 111.76 0)
      (effects (font (size 1.27 1.27)) hide)
    )
    (property "Datasheet" "" (id 3) (at 92.71 111.76 0)
      (effects (font (size 1.27 1.27)) hide)
    )
    (pin "1" (uuid 7334a434-1aa3-4b1a-ab62-67106cbfb475))
  )

  (symbol (lib_id "Device:C_Polarized_US") (at 101.6 40.64 0) (unit 1)
    (in_bom yes) (on_board yes) (fields_autoplaced)
    (uuid 4f878bc2-65f6-41f1-9060-bc121fcfa814)
    (property "Reference" "C18" (id 0) (at 105.41 38.7349 0)
      (effects (font (size 1.27 1.27)) (justify left))
    )
    (property "Value" "120u" (id 1) (at 105.41 41.2749 0)
      (effects (font (size 1.27 1.27)) (justify left))
    )
    (property "Footprint" "Capacitor_THT:CP_Radial_D5.0mm_P2.50mm" (id 2) (at 101.6 40.64 0)
      (effects (font (size 1.27 1.27)) hide)
    )
    (property "Datasheet" "~" (id 3) (at 101.6 40.64 0)
      (effects (font (size 1.27 1.27)) hide)
    )
    (pin "1" (uuid 5593a9e5-ca07-469b-96e3-4700de92968e))
    (pin "2" (uuid 80e74d16-46ff-42ee-9acd-3629fe1a0469))
  )

  (symbol (lib_id "power:GND") (at 179.07 111.76 180) (unit 1)
    (in_bom yes) (on_board yes) (fields_autoplaced)
    (uuid 55113079-323a-40f0-bc94-4aaf48f78a5b)
    (property "Reference" "#PWR0245" (id 0) (at 179.07 105.41 0)
      (effects (font (size 1.27 1.27)) hide)
    )
    (property "Value" "GND" (id 1) (at 181.61 110.4899 0)
      (effects (font (size 1.27 1.27)) (justify right))
    )
    (property "Footprint" "" (id 2) (at 179.07 111.76 0)
      (effects (font (size 1.27 1.27)) hide)
    )
    (property "Datasheet" "" (id 3) (at 179.07 111.76 0)
      (effects (font (size 1.27 1.27)) hide)
    )
    (pin "1" (uuid 7c81396b-1113-44e5-9b93-cf598be195e0))
  )

  (symbol (lib_id "power:GND") (at 187.96 138.43 0) (unit 1)
    (in_bom yes) (on_board yes) (fields_autoplaced)
    (uuid 55353944-8c11-49be-be3d-d07e829aa29a)
    (property "Reference" "#PWR0255" (id 0) (at 187.96 144.78 0)
      (effects (font (size 1.27 1.27)) hide)
    )
    (property "Value" "GND" (id 1) (at 190.5 139.6999 0)
      (effects (font (size 1.27 1.27)) (justify left))
    )
    (property "Footprint" "" (id 2) (at 187.96 138.43 0)
      (effects (font (size 1.27 1.27)) hide)
    )
    (property "Datasheet" "" (id 3) (at 187.96 138.43 0)
      (effects (font (size 1.27 1.27)) hide)
    )
    (pin "1" (uuid e74c7ddc-33c3-45ac-9a20-6eb13c0fb732))
  )

  (symbol (lib_id "Device:R") (at 92.71 67.31 180) (unit 1)
    (in_bom yes) (on_board yes) (fields_autoplaced)
    (uuid 58c7217f-8754-4d45-815f-775ef1f5e906)
    (property "Reference" "R10" (id 0) (at 95.25 66.0399 0)
      (effects (font (size 1.27 1.27)) (justify right))
    )
    (property "Value" "0.1" (id 1) (at 95.25 68.5799 0)
      (effects (font (size 1.27 1.27)) (justify right))
    )
    (property "Footprint" "Resistor_SMD:R_1206_3216Metric_Pad1.30x1.75mm_HandSolder" (id 2) (at 94.488 67.31 90)
      (effects (font (size 1.27 1.27)) hide)
    )
    (property "Datasheet" "~" (id 3) (at 92.71 67.31 0)
      (effects (font (size 1.27 1.27)) hide)
    )
    (pin "1" (uuid 70ce9539-793c-45f3-b14e-9ffbaccc8806))
    (pin "2" (uuid 3a3865d2-4617-410a-b689-87e2cc82f5e4))
  )

  (symbol (lib_id "Device:C") (at 67.31 133.35 180) (unit 1)
    (in_bom yes) (on_board yes) (fields_autoplaced)
    (uuid 5b32dac1-1891-466b-94d5-285807d47258)
    (property "Reference" "C14" (id 0) (at 71.12 134.6201 0)
      (effects (font (size 1.27 1.27)) (justify right))
    )
    (property "Value" "100nF" (id 1) (at 71.12 132.0801 0)
      (effects (font (size 1.27 1.27)) (justify right))
    )
    (property "Footprint" "Capacitor_SMD:C_0402_1005Metric" (id 2) (at 66.3448 129.54 0)
      (effects (font (size 1.27 1.27)) hide)
    )
    (property "Datasheet" "~" (id 3) (at 67.31 133.35 0)
      (effects (font (size 1.27 1.27)) hide)
    )
    (pin "1" (uuid 58787c60-b78c-4021-849e-09099a0b1822))
    (pin "2" (uuid 38cf90d0-6a4d-40ca-859a-7abf55a9f622))
  )

  (symbol (lib_id "power:GND") (at 77.47 116.84 180) (unit 1)
    (in_bom yes) (on_board yes) (fields_autoplaced)
    (uuid 5c1fbd5f-b606-404b-8562-2ef18c88bc96)
    (property "Reference" "#PWR0146" (id 0) (at 77.47 110.49 0)
      (effects (font (size 1.27 1.27)) hide)
    )
    (property "Value" "GND" (id 1) (at 80.01 115.5699 0)
      (effects (font (size 1.27 1.27)) (justify right))
    )
    (property "Footprint" "" (id 2) (at 77.47 116.84 0)
      (effects (font (size 1.27 1.27)) hide)
    )
    (property "Datasheet" "" (id 3) (at 77.47 116.84 0)
      (effects (font (size 1.27 1.27)) hide)
    )
    (pin "1" (uuid 8eb95d95-0683-44c7-bcd2-34d807bcdfa2))
  )

  (symbol (lib_id "power:GND") (at 163.83 116.84 180) (unit 1)
    (in_bom yes) (on_board yes) (fields_autoplaced)
    (uuid 63c0c257-b237-44b1-8be5-c99ab2879bf9)
    (property "Reference" "#PWR0249" (id 0) (at 163.83 110.49 0)
      (effects (font (size 1.27 1.27)) hide)
    )
    (property "Value" "GND" (id 1) (at 166.37 115.5699 0)
      (effects (font (size 1.27 1.27)) (justify right))
    )
    (property "Footprint" "" (id 2) (at 163.83 116.84 0)
      (effects (font (size 1.27 1.27)) hide)
    )
    (property "Datasheet" "" (id 3) (at 163.83 116.84 0)
      (effects (font (size 1.27 1.27)) hide)
    )
    (pin "1" (uuid 55283f11-4a28-4e5b-a18a-93cb2a5a7003))
  )

  (symbol (lib_id "power:GND") (at 77.47 22.86 180) (unit 1)
    (in_bom yes) (on_board yes) (fields_autoplaced)
    (uuid 63dc309c-5004-4c44-bfba-29b89261f0c9)
    (property "Reference" "#PWR0154" (id 0) (at 77.47 16.51 0)
      (effects (font (size 1.27 1.27)) hide)
    )
    (property "Value" "GND" (id 1) (at 80.01 21.5899 0)
      (effects (font (size 1.27 1.27)) (justify right))
    )
    (property "Footprint" "" (id 2) (at 77.47 22.86 0)
      (effects (font (size 1.27 1.27)) hide)
    )
    (property "Datasheet" "" (id 3) (at 77.47 22.86 0)
      (effects (font (size 1.27 1.27)) hide)
    )
    (pin "1" (uuid aa7aec69-26d5-49c4-aa8f-2811432a1bd2))
  )

  (symbol (lib_id "power:GND") (at 101.6 90.17 0) (unit 1)
    (in_bom yes) (on_board yes) (fields_autoplaced)
    (uuid 655fa8f4-4880-4fce-9b4b-96d189b28e1f)
    (property "Reference" "#PWR0149" (id 0) (at 101.6 96.52 0)
      (effects (font (size 1.27 1.27)) hide)
    )
    (property "Value" "GND" (id 1) (at 104.14 91.4399 0)
      (effects (font (size 1.27 1.27)) (justify left))
    )
    (property "Footprint" "" (id 2) (at 101.6 90.17 0)
      (effects (font (size 1.27 1.27)) hide)
    )
    (property "Datasheet" "" (id 3) (at 101.6 90.17 0)
      (effects (font (size 1.27 1.27)) hide)
    )
    (pin "1" (uuid 568c0986-9b06-4587-86f5-fcb3c2e2a43c))
  )

  (symbol (lib_id "Device:C") (at 153.67 133.35 180) (unit 1)
    (in_bom yes) (on_board yes) (fields_autoplaced)
    (uuid 75797fbd-3c76-4f01-b161-b4edb486c6bf)
    (property "Reference" "C56" (id 0) (at 157.48 134.6201 0)
      (effects (font (size 1.27 1.27)) (justify right))
    )
    (property "Value" "100nF" (id 1) (at 157.48 132.0801 0)
      (effects (font (size 1.27 1.27)) (justify right))
    )
    (property "Footprint" "Capacitor_SMD:C_0402_1005Metric" (id 2) (at 152.7048 129.54 0)
      (effects (font (size 1.27 1.27)) hide)
    )
    (property "Datasheet" "~" (id 3) (at 153.67 133.35 0)
      (effects (font (size 1.27 1.27)) hide)
    )
    (pin "1" (uuid 911e095e-8926-48ad-844e-151fd6fadf2f))
    (pin "2" (uuid 09cfa228-3f8f-4855-8832-13de3de3c2ef))
  )

  (symbol (lib_id "Device:C") (at 88.9 134.62 180) (unit 1)
    (in_bom yes) (on_board yes) (fields_autoplaced)
    (uuid 7e5aeaab-bd6a-4a62-9068-9f1077c86c6c)
    (property "Reference" "C17" (id 0) (at 92.71 133.3499 0)
      (effects (font (size 1.27 1.27)) (justify right))
    )
    (property "Value" "100nF" (id 1) (at 92.71 135.8899 0)
      (effects (font (size 1.27 1.27)) (justify right))
    )
    (property "Footprint" "Capacitor_SMD:C_0402_1005Metric" (id 2) (at 87.9348 130.81 0)
      (effects (font (size 1.27 1.27)) hide)
    )
    (property "Datasheet" "~" (id 3) (at 88.9 134.62 0)
      (effects (font (size 1.27 1.27)) hide)
    )
    (pin "1" (uuid 64e59bdb-bbd2-49a2-aab8-9c46a0df6bce))
    (pin "2" (uuid 485b6d26-abe3-4abc-a26d-5a92cc22cbf3))
  )

  (symbol (lib_id "Device:C") (at 175.26 40.64 180) (unit 1)
    (in_bom yes) (on_board yes) (fields_autoplaced)
    (uuid 7f9c1cd1-e54e-4228-9e4c-85e5fc972316)
    (property "Reference" "C23" (id 0) (at 179.07 39.3699 0)
      (effects (font (size 1.27 1.27)) (justify right))
    )
    (property "Value" "100nF" (id 1) (at 179.07 41.9099 0)
      (effects (font (size 1.27 1.27)) (justify right))
    )
    (property "Footprint" "Capacitor_SMD:C_0402_1005Metric" (id 2) (at 174.2948 36.83 0)
      (effects (font (size 1.27 1.27)) hide)
    )
    (property "Datasheet" "~" (id 3) (at 175.26 40.64 0)
      (effects (font (size 1.27 1.27)) hide)
    )
    (pin "1" (uuid 79b3ba22-5986-46b5-b082-10a4f79f2c44))
    (pin "2" (uuid b5d53146-d2a9-4729-beab-f9cd5aa87f7a))
  )

  (symbol (lib_id "power:+3V3") (at 152.4 81.28 90) (unit 1)
    (in_bom yes) (on_board yes) (fields_autoplaced)
    (uuid 8b43f0a2-18e1-4e34-b7d7-92f4dff0bce5)
    (property "Reference" "#PWR0236" (id 0) (at 156.21 81.28 0)
      (effects (font (size 1.27 1.27)) hide)
    )
    (property "Value" "+3V3" (id 1) (at 148.59 81.2799 90)
      (effects (font (size 1.27 1.27)) (justify left))
    )
    (property "Footprint" "" (id 2) (at 152.4 81.28 0)
      (effects (font (size 1.27 1.27)) hide)
    )
    (property "Datasheet" "" (id 3) (at 152.4 81.28 0)
      (effects (font (size 1.27 1.27)) hide)
    )
    (pin "1" (uuid 5e737bb7-9ff1-43d7-bb29-d92d56c2e82e))
  )

  (symbol (lib_id "power:GND") (at 67.31 43.18 0) (mirror y) (unit 1)
    (in_bom yes) (on_board yes) (fields_autoplaced)
    (uuid 8b826ac2-fe55-4c3a-962b-d4aeb7b070d1)
    (property "Reference" "#PWR0155" (id 0) (at 67.31 49.53 0)
      (effects (font (size 1.27 1.27)) hide)
    )
    (property "Value" "GND" (id 1) (at 69.85 44.4501 0)
      (effects (font (size 1.27 1.27)) (justify right))
    )
    (property "Footprint" "" (id 2) (at 67.31 43.18 0)
      (effects (font (size 1.27 1.27)) hide)
    )
    (property "Datasheet" "" (id 3) (at 67.31 43.18 0)
      (effects (font (size 1.27 1.27)) hide)
    )
    (pin "1" (uuid 7920b3ce-8bb5-4d09-b1f6-e0316b22de2f))
  )

  (symbol (lib_id "power:GND") (at 142.24 73.66 0) (unit 1)
    (in_bom yes) (on_board yes)
    (uuid 8ba3967e-0a78-43e0-8070-e6404513f09c)
    (property "Reference" "#PWR0139" (id 0) (at 142.24 80.01 0)
      (effects (font (size 1.27 1.27)) hide)
    )
    (property "Value" "GND" (id 1) (at 135.89 73.66 0)
      (effects (font (size 1.27 1.27)) (justify left))
    )
    (property "Footprint" "" (id 2) (at 142.24 73.66 0)
      (effects (font (size 1.27 1.27)) hide)
    )
    (property "Datasheet" "" (id 3) (at 142.24 73.66 0)
      (effects (font (size 1.27 1.27)) hide)
    )
    (pin "1" (uuid f63b3ca9-ebf7-4686-93ea-aefef20382ad))
  )

  (symbol (lib_id "power:+3V3") (at 66.04 35.56 90) (unit 1)
    (in_bom yes) (on_board yes) (fields_autoplaced)
    (uuid 8d184cc2-cd24-446e-8413-e7d65d7f2671)
    (property "Reference" "#PWR0244" (id 0) (at 69.85 35.56 0)
      (effects (font (size 1.27 1.27)) hide)
    )
    (property "Value" "+3V3" (id 1) (at 62.23 35.5599 90)
      (effects (font (size 1.27 1.27)) (justify left))
    )
    (property "Footprint" "" (id 2) (at 66.04 35.56 0)
      (effects (font (size 1.27 1.27)) hide)
    )
    (property "Datasheet" "" (id 3) (at 66.04 35.56 0)
      (effects (font (size 1.27 1.27)) hide)
    )
    (pin "1" (uuid 481aa697-d87a-44a6-ace7-2ac4561cf197))
  )

  (symbol (lib_id "power:GND") (at 179.07 17.78 180) (unit 1)
    (in_bom yes) (on_board yes) (fields_autoplaced)
    (uuid 8d7d4c95-5e2a-4e9c-a92a-fc492e1c937b)
    (property "Reference" "#PWR0142" (id 0) (at 179.07 11.43 0)
      (effects (font (size 1.27 1.27)) hide)
    )
    (property "Value" "GND" (id 1) (at 181.61 16.5099 0)
      (effects (font (size 1.27 1.27)) (justify right))
    )
    (property "Footprint" "" (id 2) (at 179.07 17.78 0)
      (effects (font (size 1.27 1.27)) hide)
    )
    (property "Datasheet" "" (id 3) (at 179.07 17.78 0)
      (effects (font (size 1.27 1.27)) hide)
    )
    (pin "1" (uuid 5ac27c3b-4807-4d5a-a421-cf43f86d6c42))
  )

  (symbol (lib_id "Device:C") (at 153.67 39.37 180) (unit 1)
    (in_bom yes) (on_board yes) (fields_autoplaced)
    (uuid 9324a98b-2c41-4c96-bfa3-e171c5dca820)
    (property "Reference" "C21" (id 0) (at 157.48 40.6401 0)
      (effects (font (size 1.27 1.27)) (justify right))
    )
    (property "Value" "100nF" (id 1) (at 157.48 38.1001 0)
      (effects (font (size 1.27 1.27)) (justify right))
    )
    (property "Footprint" "Capacitor_SMD:C_0402_1005Metric" (id 2) (at 152.7048 35.56 0)
      (effects (font (size 1.27 1.27)) hide)
    )
    (property "Datasheet" "~" (id 3) (at 153.67 39.37 0)
      (effects (font (size 1.27 1.27)) hide)
    )
    (pin "1" (uuid 7f787ccf-c66d-4cfe-903b-42157ef13fbe))
    (pin "2" (uuid 62135b6d-181e-41d9-a5fe-262ced7d7c17))
  )

  (symbol (lib_id "power:GND") (at 58.42 27.94 0) (unit 1)
    (in_bom yes) (on_board yes)
    (uuid 94169c42-43cb-4e9a-bf61-31a62c1e156c)
    (property "Reference" "#PWR0158" (id 0) (at 58.42 34.29 0)
      (effects (font (size 1.27 1.27)) hide)
    )
    (property "Value" "GND" (id 1) (at 53.34 29.21 0)
      (effects (font (size 1.27 1.27)) (justify left))
    )
    (property "Footprint" "" (id 2) (at 58.42 27.94 0)
      (effects (font (size 1.27 1.27)) hide)
    )
    (property "Datasheet" "" (id 3) (at 58.42 27.94 0)
      (effects (font (size 1.27 1.27)) hide)
    )
    (pin "1" (uuid 8fe9d492-42f5-421c-ad8c-8bef59ab92b8))
  )

  (symbol (lib_id "mylib:AT8870") (at 163.83 129.54 0) (unit 1)
    (in_bom yes) (on_board yes)
    (uuid 946b8964-465e-4fe4-adac-47e599719e07)
    (property "Reference" "U16" (id 0) (at 163.83 134.62 0))
    (property "Value" "AT8870" (id 1) (at 163.83 137.16 0))
    (property "Footprint" "Package_SO:Diodes_PSOP-8" (id 2) (at 163.83 143.51 0))
    (property "Datasheet" "https://lcsc.com/product-detail/Motor-Driver-ICs_Jiaxing-Heroic-Elec-Tech-AT8870_C191458.html" (id 3) (at 163.83 114.3 0)
      (effects (font (size 1.27 1.27)) hide)
    )
    (pin "8" (uuid d89e2580-b022-4d48-a37e-c7e9e38b0bcb))
    (pin "1" (uuid c13d1029-7553-4c24-ad81-124b15c90075))
    (pin "2" (uuid 1d6f22d6-14ad-40e9-a327-52c9670022bb))
    (pin "3" (uuid 2d642cec-096e-4d25-b953-3b36678bb2f3))
    (pin "4" (uuid 1a272e5b-a7af-4640-9942-35b134758b57))
    (pin "5" (uuid e36e61ee-5b0c-4237-b1f7-c36e16ba1ff4))
    (pin "6" (uuid c57d209c-616e-4250-b805-12b085e17364))
    (pin "7" (uuid d3117acb-6d37-4d47-adad-d6ddb8ec4b01))
    (pin "9" (uuid eb75ee71-6d06-4e03-9484-29b8afde8e1d))
  )

  (symbol (lib_id "power:GND") (at 163.83 68.58 180) (unit 1)
    (in_bom yes) (on_board yes) (fields_autoplaced)
    (uuid 98c914a6-c8a2-4565-9c93-5376c73ac13e)
    (property "Reference" "#PWR0140" (id 0) (at 163.83 62.23 0)
      (effects (font (size 1.27 1.27)) hide)
    )
    (property "Value" "GND" (id 1) (at 166.37 67.3099 0)
      (effects (font (size 1.27 1.27)) (justify right))
    )
    (property "Footprint" "" (id 2) (at 163.83 68.58 0)
      (effects (font (size 1.27 1.27)) hide)
    )
    (property "Datasheet" "" (id 3) (at 163.83 68.58 0)
      (effects (font (size 1.27 1.27)) hide)
    )
    (pin "1" (uuid 2b03bc10-07d4-4338-8af9-d8f114bc257a))
  )

  (symbol (lib_id "power:GND") (at 88.9 138.43 0) (unit 1)
    (in_bom yes) (on_board yes) (fields_autoplaced)
    (uuid 9a54bebf-4da2-47f4-865b-85f4accafebf)
    (property "Reference" "#PWR0133" (id 0) (at 88.9 144.78 0)
      (effects (font (size 1.27 1.27)) hide)
    )
    (property "Value" "GND" (id 1) (at 91.44 139.6999 0)
      (effects (font (size 1.27 1.27)) (justify left))
    )
    (property "Footprint" "" (id 2) (at 88.9 138.43 0)
      (effects (font (size 1.27 1.27)) hide)
    )
    (property "Datasheet" "" (id 3) (at 88.9 138.43 0)
      (effects (font (size 1.27 1.27)) hide)
    )
    (pin "1" (uuid 109a1b0f-dbb9-4c65-bd6f-1a4199a1fc6b))
  )

  (symbol (lib_id "Device:C_Polarized_US") (at 187.96 40.64 0) (unit 1)
    (in_bom yes) (on_board yes) (fields_autoplaced)
    (uuid 9ad1ad91-c009-4198-a11d-b93f34aca989)
    (property "Reference" "C25" (id 0) (at 191.77 38.7349 0)
      (effects (font (size 1.27 1.27)) (justify left))
    )
    (property "Value" "120u" (id 1) (at 191.77 41.2749 0)
      (effects (font (size 1.27 1.27)) (justify left))
    )
    (property "Footprint" "Capacitor_THT:CP_Radial_D5.0mm_P2.50mm" (id 2) (at 187.96 40.64 0)
      (effects (font (size 1.27 1.27)) hide)
    )
    (property "Datasheet" "~" (id 3) (at 187.96 40.64 0)
      (effects (font (size 1.27 1.27)) hide)
    )
    (pin "1" (uuid fece6082-5ea7-42d6-ac74-20fe80615862))
    (pin "2" (uuid 917e398a-ed34-47e5-b647-cc62789423cb))
  )

  (symbol (lib_id "Device:C") (at 88.9 40.64 180) (unit 1)
    (in_bom yes) (on_board yes) (fields_autoplaced)
    (uuid 9da434be-a59f-45c6-b7fe-50ed7a20b8a9)
    (property "Reference" "C15" (id 0) (at 92.71 39.3699 0)
      (effects (font (size 1.27 1.27)) (justify right))
    )
    (property "Value" "100nF" (id 1) (at 92.71 41.9099 0)
      (effects (font (size 1.27 1.27)) (justify right))
    )
    (property "Footprint" "Capacitor_SMD:C_0402_1005Metric" (id 2) (at 87.9348 36.83 0)
      (effects (font (size 1.27 1.27)) hide)
    )
    (property "Datasheet" "~" (id 3) (at 88.9 40.64 0)
      (effects (font (size 1.27 1.27)) hide)
    )
    (pin "1" (uuid 711bc5ff-c50e-4003-9335-c3eb3552818f))
    (pin "2" (uuid cb41e5c0-e828-4e6b-95bf-6213e93af3d6))
  )

  (symbol (lib_id "Device:C") (at 67.31 85.09 180) (unit 1)
    (in_bom yes) (on_board yes) (fields_autoplaced)
    (uuid 9eb12eff-6a97-4ac1-b6d2-53f863488f02)
    (property "Reference" "C13" (id 0) (at 71.12 86.3601 0)
      (effects (font (size 1.27 1.27)) (justify right))
    )
    (property "Value" "100nF" (id 1) (at 71.12 83.8201 0)
      (effects (font (size 1.27 1.27)) (justify right))
    )
    (property "Footprint" "Capacitor_SMD:C_0402_1005Metric" (id 2) (at 66.3448 81.28 0)
      (effects (font (size 1.27 1.27)) hide)
    )
    (property "Datasheet" "~" (id 3) (at 67.31 85.09 0)
      (effects (font (size 1.27 1.27)) hide)
    )
    (pin "1" (uuid ce9ad802-cedc-4034-9f1f-ce418e14b07b))
    (pin "2" (uuid 81357b47-511d-4866-a8e5-854a6fe62799))
  )

  (symbol (lib_id "power:GND") (at 153.67 43.18 0) (mirror y) (unit 1)
    (in_bom yes) (on_board yes) (fields_autoplaced)
    (uuid 9f9df34d-3fd8-4505-81dd-f8f2119bdb62)
    (property "Reference" "#PWR0137" (id 0) (at 153.67 49.53 0)
      (effects (font (size 1.27 1.27)) hide)
    )
    (property "Value" "GND" (id 1) (at 156.21 44.4501 0)
      (effects (font (size 1.27 1.27)) (justify right))
    )
    (property "Footprint" "" (id 2) (at 153.67 43.18 0)
      (effects (font (size 1.27 1.27)) hide)
    )
    (property "Datasheet" "" (id 3) (at 153.67 43.18 0)
      (effects (font (size 1.27 1.27)) hide)
    )
    (pin "1" (uuid 8e296fb2-7b77-4667-8d77-065e20752342))
  )

  (symbol (lib_id "power:+3V3") (at 152.4 129.54 90) (unit 1)
    (in_bom yes) (on_board yes) (fields_autoplaced)
    (uuid a16ea363-07ef-4986-8f97-4e5827bfc40a)
    (property "Reference" "#PWR0248" (id 0) (at 156.21 129.54 0)
      (effects (font (size 1.27 1.27)) hide)
    )
    (property "Value" "+3V3" (id 1) (at 148.59 129.5399 90)
      (effects (font (size 1.27 1.27)) (justify left))
    )
    (property "Footprint" "" (id 2) (at 152.4 129.54 0)
      (effects (font (size 1.27 1.27)) hide)
    )
    (property "Datasheet" "" (id 3) (at 152.4 129.54 0)
      (effects (font (size 1.27 1.27)) hide)
    )
    (pin "1" (uuid c6522ffa-6188-4fc7-b203-bacdba141f1f))
  )

  (symbol (lib_id "Device:R") (at 92.71 115.57 180) (unit 1)
    (in_bom yes) (on_board yes) (fields_autoplaced)
    (uuid a3146865-b3ba-40be-b592-8d915320410e)
    (property "Reference" "R11" (id 0) (at 95.25 114.2999 0)
      (effects (font (size 1.27 1.27)) (justify right))
    )
    (property "Value" "0.1" (id 1) (at 95.25 116.8399 0)
      (effects (font (size 1.27 1.27)) (justify right))
    )
    (property "Footprint" "Resistor_SMD:R_1206_3216Metric_Pad1.30x1.75mm_HandSolder" (id 2) (at 94.488 115.57 90)
      (effects (font (size 1.27 1.27)) hide)
    )
    (property "Datasheet" "~" (id 3) (at 92.71 115.57 0)
      (effects (font (size 1.27 1.27)) hide)
    )
    (pin "1" (uuid f0e3fe01-3cf2-4ee1-abd7-3d4de4eb4f9e))
    (pin "2" (uuid a21b669d-b6a0-4480-a252-d44b501c5cbe))
  )

  (symbol (lib_id "power:GND") (at 153.67 88.9 0) (mirror y) (unit 1)
    (in_bom yes) (on_board yes) (fields_autoplaced)
    (uuid a902ef74-2962-4db7-8e0f-ea8cb53f2bcc)
    (property "Reference" "#PWR0151" (id 0) (at 153.67 95.25 0)
      (effects (font (size 1.27 1.27)) hide)
    )
    (property "Value" "GND" (id 1) (at 156.21 90.1701 0)
      (effects (font (size 1.27 1.27)) (justify right))
    )
    (property "Footprint" "" (id 2) (at 153.67 88.9 0)
      (effects (font (size 1.27 1.27)) hide)
    )
    (property "Datasheet" "" (id 3) (at 153.67 88.9 0)
      (effects (font (size 1.27 1.27)) hide)
    )
    (pin "1" (uuid f9f18840-d275-40dc-8629-a83ee04de778))
  )

  (symbol (lib_id "power:GND") (at 175.26 44.45 0) (unit 1)
    (in_bom yes) (on_board yes) (fields_autoplaced)
    (uuid a997d02e-cded-486a-9b33-880c36fbfeec)
    (property "Reference" "#PWR0145" (id 0) (at 175.26 50.8 0)
      (effects (font (size 1.27 1.27)) hide)
    )
    (property "Value" "GND" (id 1) (at 177.8 45.7199 0)
      (effects (font (size 1.27 1.27)) (justify left))
    )
    (property "Footprint" "" (id 2) (at 175.26 44.45 0)
      (effects (font (size 1.27 1.27)) hide)
    )
    (property "Datasheet" "" (id 3) (at 175.26 44.45 0)
      (effects (font (size 1.27 1.27)) hide)
    )
    (pin "1" (uuid f8cd9d37-b283-4069-be6e-aeedf929a815))
  )

  (symbol (lib_id "power:GND") (at 101.6 138.43 0) (unit 1)
    (in_bom yes) (on_board yes) (fields_autoplaced)
    (uuid ad073c91-e509-4fe5-a9a9-56553ee8c5f1)
    (property "Reference" "#PWR0134" (id 0) (at 101.6 144.78 0)
      (effects (font (size 1.27 1.27)) hide)
    )
    (property "Value" "GND" (id 1) (at 104.14 139.6999 0)
      (effects (font (size 1.27 1.27)) (justify left))
    )
    (property "Footprint" "" (id 2) (at 101.6 138.43 0)
      (effects (font (size 1.27 1.27)) hide)
    )
    (property "Datasheet" "" (id 3) (at 101.6 138.43 0)
      (effects (font (size 1.27 1.27)) hide)
    )
    (pin "1" (uuid 623138b5-882e-4281-9773-5c163390d394))
  )

  (symbol (lib_id "Device:C") (at 153.67 85.09 180) (unit 1)
    (in_bom yes) (on_board yes) (fields_autoplaced)
    (uuid b220281d-af17-4746-81ce-6e0c9e99072a)
    (property "Reference" "C22" (id 0) (at 157.48 86.3601 0)
      (effects (font (size 1.27 1.27)) (justify right))
    )
    (property "Value" "100nF" (id 1) (at 157.48 83.8201 0)
      (effects (font (size 1.27 1.27)) (justify right))
    )
    (property "Footprint" "Capacitor_SMD:C_0402_1005Metric" (id 2) (at 152.7048 81.28 0)
      (effects (font (size 1.27 1.27)) hide)
    )
    (property "Datasheet" "~" (id 3) (at 153.67 85.09 0)
      (effects (font (size 1.27 1.27)) hide)
    )
    (pin "1" (uuid e0d022e7-60d4-4cfc-a9e8-b48ee9a592f2))
    (pin "2" (uuid 054c1136-e092-4976-a66b-a9038d6a32e9))
  )

  (symbol (lib_id "power:GND") (at 55.88 73.66 0) (unit 1)
    (in_bom yes) (on_board yes)
    (uuid b2b49da2-549c-46d4-972e-ac43ae4ce6b7)
    (property "Reference" "#PWR0157" (id 0) (at 55.88 80.01 0)
      (effects (font (size 1.27 1.27)) hide)
    )
    (property "Value" "GND" (id 1) (at 49.53 73.66 0)
      (effects (font (size 1.27 1.27)) (justify left))
    )
    (property "Footprint" "" (id 2) (at 55.88 73.66 0)
      (effects (font (size 1.27 1.27)) hide)
    )
    (property "Datasheet" "" (id 3) (at 55.88 73.66 0)
      (effects (font (size 1.27 1.27)) hide)
    )
    (pin "1" (uuid 0f653745-07e6-4f0e-8ae5-bdacf20218c2))
  )

  (symbol (lib_id "power:GND") (at 77.47 68.58 180) (unit 1)
    (in_bom yes) (on_board yes) (fields_autoplaced)
    (uuid b85123cd-7e7f-43d2-8972-75bd5cf91002)
    (property "Reference" "#PWR0156" (id 0) (at 77.47 62.23 0)
      (effects (font (size 1.27 1.27)) hide)
    )
    (property "Value" "GND" (id 1) (at 80.01 67.3099 0)
      (effects (font (size 1.27 1.27)) (justify right))
    )
    (property "Footprint" "" (id 2) (at 77.47 68.58 0)
      (effects (font (size 1.27 1.27)) hide)
    )
    (property "Datasheet" "" (id 3) (at 77.47 68.58 0)
      (effects (font (size 1.27 1.27)) hide)
    )
    (pin "1" (uuid 5237ab62-e664-440d-b632-36d9c73b7474))
  )

  (symbol (lib_id "Connector:Screw_Terminal_01x02") (at 107.95 121.92 0) (unit 1)
    (in_bom yes) (on_board yes) (fields_autoplaced)
    (uuid ba59df08-8377-4f95-91a7-77a8ec978cf6)
    (property "Reference" "J3" (id 0) (at 110.49 121.9199 0)
      (effects (font (size 1.27 1.27)) (justify left) hide)
    )
    (property "Value" "Screw_Terminal_01x02" (id 1) (at 110.49 124.4599 0)
      (effects (font (size 1.27 1.27)) (justify left))
    )
    (property "Footprint" "TerminalBlock:TerminalBlock_bornier-2_P5.08mm" (id 2) (at 107.95 121.92 0)
      (effects (font (size 1.27 1.27)) hide)
    )
    (property "Datasheet" "~" (id 3) (at 107.95 121.92 0)
      (effects (font (size 1.27 1.27)) hide)
    )
    (pin "1" (uuid 77b3c15f-2a7d-489b-a375-48b62abf7a02))
    (pin "2" (uuid 67601985-ccdf-4d53-842b-7a858c51f42d))
  )

  (symbol (lib_id "Device:R") (at 179.07 21.59 180) (unit 1)
    (in_bom yes) (on_board yes) (fields_autoplaced)
    (uuid c0f9b847-d113-426b-9595-fed6f69ea417)
    (property "Reference" "R12" (id 0) (at 181.61 20.3199 0)
      (effects (font (size 1.27 1.27)) (justify right))
    )
    (property "Value" "0.1" (id 1) (at 181.61 22.8599 0)
      (effects (font (size 1.27 1.27)) (justify right))
    )
    (property "Footprint" "Resistor_SMD:R_1206_3216Metric_Pad1.30x1.75mm_HandSolder" (id 2) (at 180.848 21.59 90)
      (effects (font (size 1.27 1.27)) hide)
    )
    (property "Datasheet" "~" (id 3) (at 179.07 21.59 0)
      (effects (font (size 1.27 1.27)) hide)
    )
    (pin "1" (uuid ebec240e-bf83-409b-a175-684e49c37a9f))
    (pin "2" (uuid e76b4227-1b65-4c37-8ba0-247b6957540b))
  )

  (symbol (lib_id "Device:C") (at 175.26 86.36 180) (unit 1)
    (in_bom yes) (on_board yes) (fields_autoplaced)
    (uuid c4afd35a-db96-498b-9768-2360b1544318)
    (property "Reference" "C24" (id 0) (at 179.07 85.0899 0)
      (effects (font (size 1.27 1.27)) (justify right))
    )
    (property "Value" "100nF" (id 1) (at 179.07 87.6299 0)
      (effects (font (size 1.27 1.27)) (justify right))
    )
    (property "Footprint" "Capacitor_SMD:C_0402_1005Metric" (id 2) (at 174.2948 82.55 0)
      (effects (font (size 1.27 1.27)) hide)
    )
    (property "Datasheet" "~" (id 3) (at 175.26 86.36 0)
      (effects (font (size 1.27 1.27)) hide)
    )
    (pin "1" (uuid 688ac639-00fc-4ac8-adf3-07f16d38668d))
    (pin "2" (uuid 664f17a8-0f00-4cb2-a73d-0ceecb2db903))
  )

  (symbol (lib_id "power:GND") (at 175.26 138.43 0) (unit 1)
    (in_bom yes) (on_board yes) (fields_autoplaced)
    (uuid c85bdaed-a095-4db8-982c-7b9bbb91d0c7)
    (property "Reference" "#PWR0256" (id 0) (at 175.26 144.78 0)
      (effects (font (size 1.27 1.27)) hide)
    )
    (property "Value" "GND" (id 1) (at 177.8 139.6999 0)
      (effects (font (size 1.27 1.27)) (justify left))
    )
    (property "Footprint" "" (id 2) (at 175.26 138.43 0)
      (effects (font (size 1.27 1.27)) hide)
    )
    (property "Datasheet" "" (id 3) (at 175.26 138.43 0)
      (effects (font (size 1.27 1.27)) hide)
    )
    (pin "1" (uuid d32b7061-575b-4e35-b5c0-0a0f382d9f10))
  )

  (symbol (lib_id "Device:C_Polarized_US") (at 101.6 86.36 0) (unit 1)
    (in_bom yes) (on_board yes) (fields_autoplaced)
    (uuid c907ac66-0b9a-4dae-9e46-24b1a24465c0)
    (property "Reference" "C19" (id 0) (at 105.41 84.4549 0)
      (effects (font (size 1.27 1.27)) (justify left))
    )
    (property "Value" "120u" (id 1) (at 105.41 86.9949 0)
      (effects (font (size 1.27 1.27)) (justify left))
    )
    (property "Footprint" "Capacitor_THT:CP_Radial_D5.0mm_P2.50mm" (id 2) (at 101.6 86.36 0)
      (effects (font (size 1.27 1.27)) hide)
    )
    (property "Datasheet" "~" (id 3) (at 101.6 86.36 0)
      (effects (font (size 1.27 1.27)) hide)
    )
    (pin "1" (uuid 4c4c9072-25b8-438c-8ccb-422f7c4c4534))
    (pin "2" (uuid f5f70eb8-14bf-49e5-96af-df0f52001c32))
  )

  (symbol (lib_id "Device:C") (at 175.26 134.62 180) (unit 1)
    (in_bom yes) (on_board yes) (fields_autoplaced)
    (uuid c99b461b-5705-482f-b300-1f6081eb9a73)
    (property "Reference" "C57" (id 0) (at 179.07 133.3499 0)
      (effects (font (size 1.27 1.27)) (justify right))
    )
    (property "Value" "100nF" (id 1) (at 179.07 135.8899 0)
      (effects (font (size 1.27 1.27)) (justify right))
    )
    (property "Footprint" "Capacitor_SMD:C_0402_1005Metric" (id 2) (at 174.2948 130.81 0)
      (effects (font (size 1.27 1.27)) hide)
    )
    (property "Datasheet" "~" (id 3) (at 175.26 134.62 0)
      (effects (font (size 1.27 1.27)) hide)
    )
    (pin "1" (uuid 038d95f3-a692-43d7-b473-8316d4bda3aa))
    (pin "2" (uuid c129b3e7-c088-425a-af57-9a80104e1035))
  )

  (symbol (lib_id "power:GND") (at 101.6 44.45 0) (unit 1)
    (in_bom yes) (on_board yes) (fields_autoplaced)
    (uuid ce94a0db-cbe6-46f6-a251-701c5e777ae0)
    (property "Reference" "#PWR0125" (id 0) (at 101.6 50.8 0)
      (effects (font (size 1.27 1.27)) hide)
    )
    (property "Value" "GND" (id 1) (at 104.14 45.7199 0)
      (effects (font (size 1.27 1.27)) (justify left))
    )
    (property "Footprint" "" (id 2) (at 101.6 44.45 0)
      (effects (font (size 1.27 1.27)) hide)
    )
    (property "Datasheet" "" (id 3) (at 101.6 44.45 0)
      (effects (font (size 1.27 1.27)) hide)
    )
    (pin "1" (uuid 128c8e34-5fe7-4b10-b84a-01479c17dc0e))
  )

  (symbol (lib_id "power:+3V3") (at 152.4 35.56 90) (unit 1)
    (in_bom yes) (on_board yes) (fields_autoplaced)
    (uuid ce94b8f9-26bd-466d-b82a-193e071ba5f4)
    (property "Reference" "#PWR0237" (id 0) (at 156.21 35.56 0)
      (effects (font (size 1.27 1.27)) hide)
    )
    (property "Value" "+3V3" (id 1) (at 148.59 35.5599 90)
      (effects (font (size 1.27 1.27)) (justify left))
    )
    (property "Footprint" "" (id 2) (at 152.4 35.56 0)
      (effects (font (size 1.27 1.27)) hide)
    )
    (property "Datasheet" "" (id 3) (at 152.4 35.56 0)
      (effects (font (size 1.27 1.27)) hide)
    )
    (pin "1" (uuid 3fcf5849-f035-4ef6-a904-5771bc1e4db0))
  )

  (symbol (lib_id "Device:C_Polarized_US") (at 187.96 134.62 0) (unit 1)
    (in_bom yes) (on_board yes) (fields_autoplaced)
    (uuid e53a1afb-1269-4ccc-9d39-72635457c7f7)
    (property "Reference" "C58" (id 0) (at 191.77 132.7149 0)
      (effects (font (size 1.27 1.27)) (justify left))
    )
    (property "Value" "120u" (id 1) (at 191.77 135.2549 0)
      (effects (font (size 1.27 1.27)) (justify left))
    )
    (property "Footprint" "Capacitor_THT:CP_Radial_D5.0mm_P2.50mm" (id 2) (at 187.96 134.62 0)
      (effects (font (size 1.27 1.27)) hide)
    )
    (property "Datasheet" "~" (id 3) (at 187.96 134.62 0)
      (effects (font (size 1.27 1.27)) hide)
    )
    (pin "1" (uuid 682f831f-86df-46fc-a154-faded75835c0))
    (pin "2" (uuid 3f06ceca-2295-4774-9307-7bda35753381))
  )

  (symbol (lib_id "power:GND") (at 163.83 22.86 180) (unit 1)
    (in_bom yes) (on_board yes) (fields_autoplaced)
    (uuid eb0806c5-c45a-4118-8af7-e5b803fcc588)
    (property "Reference" "#PWR0138" (id 0) (at 163.83 16.51 0)
      (effects (font (size 1.27 1.27)) hide)
    )
    (property "Value" "GND" (id 1) (at 166.37 21.5899 0)
      (effects (font (size 1.27 1.27)) (justify right))
    )
    (property "Footprint" "" (id 2) (at 163.83 22.86 0)
      (effects (font (size 1.27 1.27)) hide)
    )
    (property "Datasheet" "" (id 3) (at 163.83 22.86 0)
      (effects (font (size 1.27 1.27)) hide)
    )
    (pin "1" (uuid 274f11c3-feb7-40b3-bcfe-836a30d0d5f0))
  )

  (symbol (lib_id "power:GND") (at 67.31 137.16 0) (mirror y) (unit 1)
    (in_bom yes) (on_board yes) (fields_autoplaced)
    (uuid eecde87c-a226-4b42-8a3f-b42fa10f9830)
    (property "Reference" "#PWR0135" (id 0) (at 67.31 143.51 0)
      (effects (font (size 1.27 1.27)) hide)
    )
    (property "Value" "GND" (id 1) (at 69.85 138.4301 0)
      (effects (font (size 1.27 1.27)) (justify right))
    )
    (property "Footprint" "" (id 2) (at 67.31 137.16 0)
      (effects (font (size 1.27 1.27)) hide)
    )
    (property "Datasheet" "" (id 3) (at 67.31 137.16 0)
      (effects (font (size 1.27 1.27)) hide)
    )
    (pin "1" (uuid 94f1eec1-878a-474f-b868-6588e0ccbb9a))
  )

  (symbol (lib_id "mylib:AT8870") (at 163.83 81.28 0) (unit 1)
    (in_bom yes) (on_board yes)
    (uuid f018831d-a740-43a1-8de5-5d9b97a4c22a)
    (property "Reference" "U13" (id 0) (at 163.83 86.36 0))
    (property "Value" "AT8870" (id 1) (at 163.83 88.9 0))
    (property "Footprint" "Package_SO:Diodes_PSOP-8" (id 2) (at 163.83 95.25 0))
    (property "Datasheet" "https://lcsc.com/product-detail/Motor-Driver-ICs_Jiaxing-Heroic-Elec-Tech-AT8870_C191458.html" (id 3) (at 163.83 66.04 0)
      (effects (font (size 1.27 1.27)) hide)
    )
    (pin "8" (uuid 8b1a96a9-4701-4d4b-8fb4-2d17aa474425))
    (pin "1" (uuid cd149ffc-4664-4b9b-8bbd-916e19843007))
    (pin "2" (uuid 841ccb18-b037-4c51-87ad-aa12e914fb48))
    (pin "3" (uuid a2c44189-3d5f-461b-aba2-6162f21dea1f))
    (pin "4" (uuid c8a1d312-abbc-4441-93fd-7668f17d132a))
    (pin "5" (uuid ea76d00c-1569-4a72-bdf1-48a9774969e4))
    (pin "6" (uuid 4785f690-743a-41cc-b50e-00fd817fdf9c))
    (pin "7" (uuid 4f2acc3d-efb7-460e-8483-515dff672a77))
    (pin "9" (uuid eed801e0-33c6-42f6-a002-44b697070777))
  )

  (symbol (lib_id "Connector:Screw_Terminal_01x02") (at 194.31 121.92 0) (unit 1)
    (in_bom yes) (on_board yes) (fields_autoplaced)
    (uuid f13a4bf9-fd9a-4160-84e8-bedf765609ee)
    (property "Reference" "J9" (id 0) (at 196.85 121.9199 0)
      (effects (font (size 1.27 1.27)) (justify left) hide)
    )
    (property "Value" "Screw_Terminal_01x02" (id 1) (at 196.85 124.4599 0)
      (effects (font (size 1.27 1.27)) (justify left))
    )
    (property "Footprint" "TerminalBlock:TerminalBlock_bornier-2_P5.08mm" (id 2) (at 194.31 121.92 0)
      (effects (font (size 1.27 1.27)) hide)
    )
    (property "Datasheet" "~" (id 3) (at 194.31 121.92 0)
      (effects (font (size 1.27 1.27)) hide)
    )
    (pin "1" (uuid 2e617963-fa0f-46aa-920b-9111fc46083a))
    (pin "2" (uuid 74b5b296-9fe7-44d8-86e8-7daabc6561b1))
  )

  (symbol (lib_id "power:GND") (at 92.71 17.78 180) (unit 1)
    (in_bom yes) (on_board yes) (fields_autoplaced)
    (uuid f2b887c8-52db-432b-8e35-1dea0a3cd773)
    (property "Reference" "#PWR0124" (id 0) (at 92.71 11.43 0)
      (effects (font (size 1.27 1.27)) hide)
    )
    (property "Value" "GND" (id 1) (at 95.25 16.5099 0)
      (effects (font (size 1.27 1.27)) (justify right))
    )
    (property "Footprint" "" (id 2) (at 92.71 17.78 0)
      (effects (font (size 1.27 1.27)) hide)
    )
    (property "Datasheet" "" (id 3) (at 92.71 17.78 0)
      (effects (font (size 1.27 1.27)) hide)
    )
    (pin "1" (uuid e1b03475-753f-47fa-aae7-f4ba123db993))
  )

  (symbol (lib_id "power:GND") (at 179.07 63.5 180) (unit 1)
    (in_bom yes) (on_board yes) (fields_autoplaced)
    (uuid f31bcc1f-b47d-4e64-b2aa-703af7f43030)
    (property "Reference" "#PWR0143" (id 0) (at 179.07 57.15 0)
      (effects (font (size 1.27 1.27)) hide)
    )
    (property "Value" "GND" (id 1) (at 181.61 62.2299 0)
      (effects (font (size 1.27 1.27)) (justify right))
    )
    (property "Footprint" "" (id 2) (at 179.07 63.5 0)
      (effects (font (size 1.27 1.27)) hide)
    )
    (property "Datasheet" "" (id 3) (at 179.07 63.5 0)
      (effects (font (size 1.27 1.27)) hide)
    )
    (pin "1" (uuid c2b9ff9c-7148-4456-9bf9-f40a85e0bcb3))
  )

  (symbol (lib_id "Connector:Screw_Terminal_01x02") (at 194.31 27.94 0) (unit 1)
    (in_bom yes) (on_board yes) (fields_autoplaced)
    (uuid f3879066-a91b-415e-b241-18f9d05de4a2)
    (property "Reference" "J4" (id 0) (at 196.85 27.9399 0)
      (effects (font (size 1.27 1.27)) (justify left) hide)
    )
    (property "Value" "Screw_Terminal_01x02" (id 1) (at 196.85 30.4799 0)
      (effects (font (size 1.27 1.27)) (justify left))
    )
    (property "Footprint" "TerminalBlock:TerminalBlock_bornier-2_P5.08mm" (id 2) (at 194.31 27.94 0)
      (effects (font (size 1.27 1.27)) hide)
    )
    (property "Datasheet" "~" (id 3) (at 194.31 27.94 0)
      (effects (font (size 1.27 1.27)) hide)
    )
    (pin "1" (uuid 3b4e2108-2f0a-4d18-bd35-f967ca89b066))
    (pin "2" (uuid b94160f4-6c2c-4a4d-ba5c-6d5a53d5d5f9))
  )

  (symbol (lib_id "mylib:AT8870") (at 163.83 35.56 0) (unit 1)
    (in_bom yes) (on_board yes)
    (uuid f5ddb397-39ab-4fbf-9fd3-c48b6fed8346)
    (property "Reference" "U12" (id 0) (at 163.83 40.64 0))
    (property "Value" "AT8870" (id 1) (at 163.83 43.18 0))
    (property "Footprint" "Package_SO:Diodes_PSOP-8" (id 2) (at 163.83 49.53 0))
    (property "Datasheet" "https://lcsc.com/product-detail/Motor-Driver-ICs_Jiaxing-Heroic-Elec-Tech-AT8870_C191458.html" (id 3) (at 163.83 20.32 0)
      (effects (font (size 1.27 1.27)) hide)
    )
    (pin "8" (uuid 3dcb9fae-2428-4d1a-bdee-bdf720d24129))
    (pin "1" (uuid 1a2d8230-3a15-49a7-a979-928fc5031e54))
    (pin "2" (uuid 83ad6b07-7d87-458d-847c-8d5723789631))
    (pin "3" (uuid ffcd3244-2b77-411b-94fa-55d6ae3485ad))
    (pin "4" (uuid a47e2aa9-d776-4e17-9485-33b8869efda0))
    (pin "5" (uuid edb8fefe-5030-4e16-8edd-d43e16f83969))
    (pin "6" (uuid 381e83a4-6574-4f67-bd65-7616f649673f))
    (pin "7" (uuid 90d8f0c0-0616-4df1-9735-031772137716))
    (pin "9" (uuid 21fbd516-28c1-4a6b-bf66-af38a5c723c9))
  )

  (symbol (lib_id "Device:R") (at 92.71 21.59 180) (unit 1)
    (in_bom yes) (on_board yes) (fields_autoplaced)
    (uuid f5fe4bcc-e357-4c86-b809-3d59756ce258)
    (property "Reference" "R9" (id 0) (at 95.25 20.3199 0)
      (effects (font (size 1.27 1.27)) (justify right))
    )
    (property "Value" "0.1" (id 1) (at 95.25 22.8599 0)
      (effects (font (size 1.27 1.27)) (justify right))
    )
    (property "Footprint" "Resistor_SMD:R_1206_3216Metric_Pad1.30x1.75mm_HandSolder" (id 2) (at 94.488 21.59 90)
      (effects (font (size 1.27 1.27)) hide)
    )
    (property "Datasheet" "~" (id 3) (at 92.71 21.59 0)
      (effects (font (size 1.27 1.27)) hide)
    )
    (pin "1" (uuid ba6b0cd9-6ab1-4529-a008-b86582eb1b28))
    (pin "2" (uuid de7a41e5-d62b-4a2e-b76c-5c15e88268c2))
  )

  (symbol (lib_id "Device:R") (at 179.07 67.31 180) (unit 1)
    (in_bom yes) (on_board yes) (fields_autoplaced)
    (uuid f612172d-782b-4bb9-86c2-d586acb93a28)
    (property "Reference" "R13" (id 0) (at 181.61 66.0399 0)
      (effects (font (size 1.27 1.27)) (justify right))
    )
    (property "Value" "0.1" (id 1) (at 181.61 68.5799 0)
      (effects (font (size 1.27 1.27)) (justify right))
    )
    (property "Footprint" "Resistor_SMD:R_1206_3216Metric_Pad1.30x1.75mm_HandSolder" (id 2) (at 180.848 67.31 90)
      (effects (font (size 1.27 1.27)) hide)
    )
    (property "Datasheet" "~" (id 3) (at 179.07 67.31 0)
      (effects (font (size 1.27 1.27)) hide)
    )
    (pin "1" (uuid 96184dab-fbe2-4287-b622-30957ec4ae59))
    (pin "2" (uuid 55ca7721-a3ac-4da2-b6ab-bc83b6771ca6))
  )
)
