(kicad_sch (version 20211123) (generator eeschema)

  (uuid 9831930e-90f9-45e1-8e7d-0d317a34d05e)

  (paper "A4")

  (lib_symbols
    (symbol "Device:C" (pin_numbers hide) (pin_names (offset 0.254)) (in_bom yes) (on_board yes)
      (property "Reference" "C" (id 0) (at 0.635 2.54 0)
        (effects (font (size 1.27 1.27)) (justify left))
      )
      (property "Value" "C" (id 1) (at 0.635 -2.54 0)
        (effects (font (size 1.27 1.27)) (justify left))
      )
      (property "Footprint" "" (id 2) (at 0.9652 -3.81 0)
        (effects (font (size 1.27 1.27)) hide)
      )
      (property "Datasheet" "~" (id 3) (at 0 0 0)
        (effects (font (size 1.27 1.27)) hide)
      )
      (property "ki_keywords" "cap capacitor" (id 4) (at 0 0 0)
        (effects (font (size 1.27 1.27)) hide)
      )
      (property "ki_description" "Unpolarized capacitor" (id 5) (at 0 0 0)
        (effects (font (size 1.27 1.27)) hide)
      )
      (property "ki_fp_filters" "C_*" (id 6) (at 0 0 0)
        (effects (font (size 1.27 1.27)) hide)
      )
      (symbol "C_0_1"
        (polyline
          (pts
            (xy -2.032 -0.762)
            (xy 2.032 -0.762)
          )
          (stroke (width 0.508) (type default) (color 0 0 0 0))
          (fill (type none))
        )
        (polyline
          (pts
            (xy -2.032 0.762)
            (xy 2.032 0.762)
          )
          (stroke (width 0.508) (type default) (color 0 0 0 0))
          (fill (type none))
        )
      )
      (symbol "C_1_1"
        (pin passive line (at 0 3.81 270) (length 2.794)
          (name "~" (effects (font (size 1.27 1.27))))
          (number "1" (effects (font (size 1.27 1.27))))
        )
        (pin passive line (at 0 -3.81 90) (length 2.794)
          (name "~" (effects (font (size 1.27 1.27))))
          (number "2" (effects (font (size 1.27 1.27))))
        )
      )
    )
    (symbol "Device:R" (pin_numbers hide) (pin_names (offset 0)) (in_bom yes) (on_board yes)
      (property "Reference" "R" (id 0) (at 2.032 0 90)
        (effects (font (size 1.27 1.27)))
      )
      (property "Value" "R" (id 1) (at 0 0 90)
        (effects (font (size 1.27 1.27)))
      )
      (property "Footprint" "" (id 2) (at -1.778 0 90)
        (effects (font (size 1.27 1.27)) hide)
      )
      (property "Datasheet" "~" (id 3) (at 0 0 0)
        (effects (font (size 1.27 1.27)) hide)
      )
      (property "ki_keywords" "R res resistor" (id 4) (at 0 0 0)
        (effects (font (size 1.27 1.27)) hide)
      )
      (property "ki_description" "Resistor" (id 5) (at 0 0 0)
        (effects (font (size 1.27 1.27)) hide)
      )
      (property "ki_fp_filters" "R_*" (id 6) (at 0 0 0)
        (effects (font (size 1.27 1.27)) hide)
      )
      (symbol "R_0_1"
        (rectangle (start -1.016 -2.54) (end 1.016 2.54)
          (stroke (width 0.254) (type default) (color 0 0 0 0))
          (fill (type none))
        )
      )
      (symbol "R_1_1"
        (pin passive line (at 0 3.81 270) (length 1.27)
          (name "~" (effects (font (size 1.27 1.27))))
          (number "1" (effects (font (size 1.27 1.27))))
        )
        (pin passive line (at 0 -3.81 90) (length 1.27)
          (name "~" (effects (font (size 1.27 1.27))))
          (number "2" (effects (font (size 1.27 1.27))))
        )
      )
    )
    (symbol "Sensor_Motion:MPU-6050" (in_bom yes) (on_board yes)
      (property "Reference" "U" (id 0) (at -11.43 13.97 0)
        (effects (font (size 1.27 1.27)))
      )
      (property "Value" "MPU-6050" (id 1) (at 7.62 -13.97 0)
        (effects (font (size 1.27 1.27)))
      )
      (property "Footprint" "Sensor_Motion:InvenSense_QFN-24_4x4mm_P0.5mm" (id 2) (at 0 -20.32 0)
        (effects (font (size 1.27 1.27)) hide)
      )
      (property "Datasheet" "https://store.invensense.com/datasheets/invensense/MPU-6050_DataSheet_V3%204.pdf" (id 3) (at 0 -3.81 0)
        (effects (font (size 1.27 1.27)) hide)
      )
      (property "ki_keywords" "mems" (id 4) (at 0 0 0)
        (effects (font (size 1.27 1.27)) hide)
      )
      (property "ki_description" "InvenSense 6-Axis Motion Sensor, Gyroscope, Accelerometer, I2C" (id 5) (at 0 0 0)
        (effects (font (size 1.27 1.27)) hide)
      )
      (property "ki_fp_filters" "*QFN-24*4x4mm*P0.5mm*" (id 6) (at 0 0 0)
        (effects (font (size 1.27 1.27)) hide)
      )
      (symbol "MPU-6050_0_1"
        (rectangle (start -12.7 12.7) (end 12.7 -12.7)
          (stroke (width 0.254) (type default) (color 0 0 0 0))
          (fill (type background))
        )
      )
      (symbol "MPU-6050_1_1"
        (pin input clock (at -17.78 -7.62 0) (length 5.08)
          (name "CLKIN" (effects (font (size 1.27 1.27))))
          (number "1" (effects (font (size 1.27 1.27))))
        )
        (pin passive line (at 17.78 -7.62 180) (length 5.08)
          (name "REGOUT" (effects (font (size 1.27 1.27))))
          (number "10" (effects (font (size 1.27 1.27))))
        )
        (pin input line (at -17.78 -5.08 0) (length 5.08)
          (name "FSYNC" (effects (font (size 1.27 1.27))))
          (number "11" (effects (font (size 1.27 1.27))))
        )
        (pin output line (at 17.78 7.62 180) (length 5.08)
          (name "INT" (effects (font (size 1.27 1.27))))
          (number "12" (effects (font (size 1.27 1.27))))
        )
        (pin power_in line (at 2.54 17.78 270) (length 5.08)
          (name "VDD" (effects (font (size 1.27 1.27))))
          (number "13" (effects (font (size 1.27 1.27))))
        )
        (pin power_in line (at 0 -17.78 90) (length 5.08)
          (name "GND" (effects (font (size 1.27 1.27))))
          (number "18" (effects (font (size 1.27 1.27))))
        )
        (pin passive line (at 17.78 -5.08 180) (length 5.08)
          (name "CPOUT" (effects (font (size 1.27 1.27))))
          (number "20" (effects (font (size 1.27 1.27))))
        )
        (pin input line (at -17.78 5.08 0) (length 5.08)
          (name "SCL" (effects (font (size 1.27 1.27))))
          (number "23" (effects (font (size 1.27 1.27))))
        )
        (pin bidirectional line (at -17.78 7.62 0) (length 5.08)
          (name "SDA" (effects (font (size 1.27 1.27))))
          (number "24" (effects (font (size 1.27 1.27))))
        )
        (pin bidirectional line (at 17.78 2.54 180) (length 5.08)
          (name "AUX_SDA" (effects (font (size 1.27 1.27))))
          (number "6" (effects (font (size 1.27 1.27))))
        )
        (pin output clock (at 17.78 0 180) (length 5.08)
          (name "AUX_SCL" (effects (font (size 1.27 1.27))))
          (number "7" (effects (font (size 1.27 1.27))))
        )
        (pin power_in line (at -2.54 17.78 270) (length 5.08)
          (name "VDDIO" (effects (font (size 1.27 1.27))))
          (number "8" (effects (font (size 1.27 1.27))))
        )
        (pin input line (at -17.78 2.54 0) (length 5.08)
          (name "AD0" (effects (font (size 1.27 1.27))))
          (number "9" (effects (font (size 1.27 1.27))))
        )
      )
    )
    (symbol "power:+3.3V" (power) (pin_names (offset 0)) (in_bom yes) (on_board yes)
      (property "Reference" "#PWR" (id 0) (at 0 -3.81 0)
        (effects (font (size 1.27 1.27)) hide)
      )
      (property "Value" "+3.3V" (id 1) (at 0 3.556 0)
        (effects (font (size 1.27 1.27)))
      )
      (property "Footprint" "" (id 2) (at 0 0 0)
        (effects (font (size 1.27 1.27)) hide)
      )
      (property "Datasheet" "" (id 3) (at 0 0 0)
        (effects (font (size 1.27 1.27)) hide)
      )
      (property "ki_keywords" "power-flag" (id 4) (at 0 0 0)
        (effects (font (size 1.27 1.27)) hide)
      )
      (property "ki_description" "Power symbol creates a global label with name \"+3.3V\"" (id 5) (at 0 0 0)
        (effects (font (size 1.27 1.27)) hide)
      )
      (symbol "+3.3V_0_1"
        (polyline
          (pts
            (xy -0.762 1.27)
            (xy 0 2.54)
          )
          (stroke (width 0) (type default) (color 0 0 0 0))
          (fill (type none))
        )
        (polyline
          (pts
            (xy 0 0)
            (xy 0 2.54)
          )
          (stroke (width 0) (type default) (color 0 0 0 0))
          (fill (type none))
        )
        (polyline
          (pts
            (xy 0 2.54)
            (xy 0.762 1.27)
          )
          (stroke (width 0) (type default) (color 0 0 0 0))
          (fill (type none))
        )
      )
      (symbol "+3.3V_1_1"
        (pin power_in line (at 0 0 90) (length 0) hide
          (name "+3V3" (effects (font (size 1.27 1.27))))
          (number "1" (effects (font (size 1.27 1.27))))
        )
      )
    )
    (symbol "power:GND" (power) (pin_names (offset 0)) (in_bom yes) (on_board yes)
      (property "Reference" "#PWR" (id 0) (at 0 -6.35 0)
        (effects (font (size 1.27 1.27)) hide)
      )
      (property "Value" "GND" (id 1) (at 0 -3.81 0)
        (effects (font (size 1.27 1.27)))
      )
      (property "Footprint" "" (id 2) (at 0 0 0)
        (effects (font (size 1.27 1.27)) hide)
      )
      (property "Datasheet" "" (id 3) (at 0 0 0)
        (effects (font (size 1.27 1.27)) hide)
      )
      (property "ki_keywords" "power-flag" (id 4) (at 0 0 0)
        (effects (font (size 1.27 1.27)) hide)
      )
      (property "ki_description" "Power symbol creates a global label with name \"GND\" , ground" (id 5) (at 0 0 0)
        (effects (font (size 1.27 1.27)) hide)
      )
      (symbol "GND_0_1"
        (polyline
          (pts
            (xy 0 0)
            (xy 0 -1.27)
            (xy 1.27 -1.27)
            (xy 0 -2.54)
            (xy -1.27 -1.27)
            (xy 0 -1.27)
          )
          (stroke (width 0) (type default) (color 0 0 0 0))
          (fill (type none))
        )
      )
      (symbol "GND_1_1"
        (pin power_in line (at 0 0 270) (length 0) hide
          (name "GND" (effects (font (size 1.27 1.27))))
          (number "1" (effects (font (size 1.27 1.27))))
        )
      )
    )
  )

  (junction (at 157.48 69.85) (diameter 0) (color 0 0 0 0)
    (uuid 0b539453-fdcf-4d96-a655-e06a9fc15c24)
  )
  (junction (at 135.89 71.12) (diameter 0) (color 0 0 0 0)
    (uuid 3c70dee1-9664-4d68-9e46-2890a0d7d1e7)
  )
  (junction (at 162.56 69.85) (diameter 0) (color 0 0 0 0)
    (uuid 9ab94644-1c61-4cb2-ac5f-f369d7a15905)
  )
  (junction (at 139.7 83.82) (diameter 0) (color 0 0 0 0)
    (uuid bc4cee09-3e7b-4dae-814a-f8e1a5d27a71)
  )
  (junction (at 132.08 81.28) (diameter 0) (color 0 0 0 0)
    (uuid d8bc2fe2-fba0-446d-a620-fb6b33636492)
  )
  (junction (at 130.81 86.36) (diameter 0) (color 0 0 0 0)
    (uuid db42ed81-ee0b-4c07-be19-9c851ee43f61)
  )

  (no_connect (at 171.45 86.36) (uuid 301a89fb-4746-4a4b-8477-1377649a1e46))
  (no_connect (at 177.8 81.28) (uuid 301a89fb-4746-4a4b-8477-1377649a1e47))
  (no_connect (at 142.24 93.98) (uuid b9958e5a-a886-4425-97c3-75c8dc65b137))
  (no_connect (at 142.24 96.52) (uuid b9958e5a-a886-4425-97c3-75c8dc65b138))
  (no_connect (at 177.8 86.36) (uuid b9958e5a-a886-4425-97c3-75c8dc65b139))
  (no_connect (at 177.8 88.9) (uuid b9958e5a-a886-4425-97c3-75c8dc65b13a))

  (wire (pts (xy 132.08 78.74) (xy 132.08 81.28))
    (stroke (width 0) (type default) (color 0 0 0 0))
    (uuid 0dc13efc-5e8e-4e56-aeb1-465da3847f3a)
  )
  (wire (pts (xy 129.54 83.82) (xy 139.7 83.82))
    (stroke (width 0) (type default) (color 0 0 0 0))
    (uuid 13ab0e34-f487-46e3-a972-007949a41aa5)
  )
  (wire (pts (xy 132.08 71.12) (xy 135.89 71.12))
    (stroke (width 0) (type default) (color 0 0 0 0))
    (uuid 1c3ce0ac-9fa0-446e-ab24-b8ec9da6a371)
  )
  (wire (pts (xy 157.48 69.85) (xy 157.48 71.12))
    (stroke (width 0) (type default) (color 0 0 0 0))
    (uuid 2d801d1e-a38d-41c8-af30-40e98ff8a79a)
  )
  (wire (pts (xy 135.89 68.58) (xy 135.89 71.12))
    (stroke (width 0) (type default) (color 0 0 0 0))
    (uuid 2db8df86-1062-446b-9531-cb2985ffef06)
  )
  (wire (pts (xy 157.48 69.85) (xy 162.56 69.85))
    (stroke (width 0) (type default) (color 0 0 0 0))
    (uuid 31a355b7-b81e-487e-b521-e984b30da8f2)
  )
  (wire (pts (xy 139.7 83.82) (xy 142.24 83.82))
    (stroke (width 0) (type default) (color 0 0 0 0))
    (uuid 3f1423f5-180a-4b41-8525-085a0e3ba396)
  )
  (wire (pts (xy 139.7 78.74) (xy 139.7 83.82))
    (stroke (width 0) (type default) (color 0 0 0 0))
    (uuid 491fcc44-25c8-47d1-aaca-26f5edf31fc2)
  )
  (wire (pts (xy 157.48 68.58) (xy 157.48 69.85))
    (stroke (width 0) (type default) (color 0 0 0 0))
    (uuid 4e7ddcc9-83b1-4612-9921-de8a4c2c9ae2)
  )
  (wire (pts (xy 135.89 71.12) (xy 139.7 71.12))
    (stroke (width 0) (type default) (color 0 0 0 0))
    (uuid 5946d17a-6d30-42c7-bf95-061ef09ccfda)
  )
  (wire (pts (xy 177.8 93.98) (xy 180.34 93.98))
    (stroke (width 0) (type default) (color 0 0 0 0))
    (uuid 6a6a31df-2724-40bd-a260-bb4a5557a690)
  )
  (wire (pts (xy 130.81 96.52) (xy 124.46 96.52))
    (stroke (width 0) (type default) (color 0 0 0 0))
    (uuid 70c43cc4-553c-437f-9319-f8c506d2360c)
  )
  (wire (pts (xy 162.56 71.12) (xy 162.56 69.85))
    (stroke (width 0) (type default) (color 0 0 0 0))
    (uuid 7ed07029-c0fb-474c-8836-7706a7a7be28)
  )
  (wire (pts (xy 132.08 81.28) (xy 129.54 81.28))
    (stroke (width 0) (type default) (color 0 0 0 0))
    (uuid 83fff0e8-9552-4305-be01-8f94c87f1434)
  )
  (wire (pts (xy 130.81 93.98) (xy 130.81 96.52))
    (stroke (width 0) (type default) (color 0 0 0 0))
    (uuid 85e45079-cdd5-4bdf-9482-7c0eaa46ca23)
  )
  (wire (pts (xy 121.92 86.36) (xy 130.81 86.36))
    (stroke (width 0) (type default) (color 0 0 0 0))
    (uuid 86cf3425-d8fa-4d4c-a5c7-5a893a015e95)
  )
  (wire (pts (xy 132.08 81.28) (xy 142.24 81.28))
    (stroke (width 0) (type default) (color 0 0 0 0))
    (uuid a39df865-14b6-4d90-a8df-a00061f3c4e0)
  )
  (wire (pts (xy 130.81 86.36) (xy 142.24 86.36))
    (stroke (width 0) (type default) (color 0 0 0 0))
    (uuid e3760479-0a57-413a-a85d-581fad0f8c75)
  )

  (hierarchical_label "IMU_SCL" (shape input) (at 129.54 83.82 180)
    (effects (font (size 1.27 1.27)) (justify right))
    (uuid a3704b45-941e-4ca7-9f5a-547991b07322)
  )
  (hierarchical_label "IMU_SDA" (shape bidirectional) (at 129.54 81.28 180)
    (effects (font (size 1.27 1.27)) (justify right))
    (uuid e60e0e07-68d4-4abd-a9b9-1abd635ea95d)
  )

  (symbol (lib_id "power:+3.3V") (at 135.89 68.58 0) (unit 1)
    (in_bom yes) (on_board yes) (fields_autoplaced)
    (uuid 0e2e9aae-aee6-45c4-8ebb-cf862991b335)
    (property "Reference" "#PWR?" (id 0) (at 135.89 72.39 0)
      (effects (font (size 1.27 1.27)) hide)
    )
    (property "Value" "+3.3V" (id 1) (at 135.89 63.5 0))
    (property "Footprint" "" (id 2) (at 135.89 68.58 0)
      (effects (font (size 1.27 1.27)) hide)
    )
    (property "Datasheet" "" (id 3) (at 135.89 68.58 0)
      (effects (font (size 1.27 1.27)) hide)
    )
    (pin "1" (uuid c4da6f29-9df1-4250-bd6a-eaf30d6a0c29))
  )

  (symbol (lib_id "power:GND") (at 162.56 62.23 180) (unit 1)
    (in_bom yes) (on_board yes) (fields_autoplaced)
    (uuid 0fd0dc87-5821-495a-9f9a-dad5f665e1dc)
    (property "Reference" "#PWR?" (id 0) (at 162.56 55.88 0)
      (effects (font (size 1.27 1.27)) hide)
    )
    (property "Value" "GND" (id 1) (at 165.1 60.9599 0)
      (effects (font (size 1.27 1.27)) (justify right))
    )
    (property "Footprint" "" (id 2) (at 162.56 62.23 0)
      (effects (font (size 1.27 1.27)) hide)
    )
    (property "Datasheet" "" (id 3) (at 162.56 62.23 0)
      (effects (font (size 1.27 1.27)) hide)
    )
    (pin "1" (uuid 4a37d9e8-81c2-4d17-9486-6000725ad52f))
  )

  (symbol (lib_id "power:GND") (at 160.02 106.68 0) (unit 1)
    (in_bom yes) (on_board yes) (fields_autoplaced)
    (uuid 17fa89aa-4479-4ee8-a048-ec829bdd8c6a)
    (property "Reference" "#PWR?" (id 0) (at 160.02 113.03 0)
      (effects (font (size 1.27 1.27)) hide)
    )
    (property "Value" "GND" (id 1) (at 160.02 111.76 0))
    (property "Footprint" "" (id 2) (at 160.02 106.68 0)
      (effects (font (size 1.27 1.27)) hide)
    )
    (property "Datasheet" "" (id 3) (at 160.02 106.68 0)
      (effects (font (size 1.27 1.27)) hide)
    )
    (pin "1" (uuid 3b6785ba-b0db-4d17-919c-b9daca6dc284))
  )

  (symbol (lib_id "power:GND") (at 121.92 86.36 270) (unit 1)
    (in_bom yes) (on_board yes) (fields_autoplaced)
    (uuid 39343e59-1d4f-46d8-a55f-665e5cd7e2f7)
    (property "Reference" "#PWR?" (id 0) (at 115.57 86.36 0)
      (effects (font (size 1.27 1.27)) hide)
    )
    (property "Value" "GND" (id 1) (at 123.19 86.3599 90)
      (effects (font (size 1.27 1.27)) (justify left))
    )
    (property "Footprint" "" (id 2) (at 121.92 86.36 0)
      (effects (font (size 1.27 1.27)) hide)
    )
    (property "Datasheet" "" (id 3) (at 121.92 86.36 0)
      (effects (font (size 1.27 1.27)) hide)
    )
    (pin "1" (uuid 3060d34f-282b-4e2e-b643-89ff682f0aeb))
  )

  (symbol (lib_id "power:GND") (at 187.96 93.98 0) (unit 1)
    (in_bom yes) (on_board yes) (fields_autoplaced)
    (uuid 513d7f16-67e8-4ce3-8a49-0197a301a62a)
    (property "Reference" "#PWR?" (id 0) (at 187.96 100.33 0)
      (effects (font (size 1.27 1.27)) hide)
    )
    (property "Value" "GND" (id 1) (at 187.96 99.06 0))
    (property "Footprint" "" (id 2) (at 187.96 93.98 0)
      (effects (font (size 1.27 1.27)) hide)
    )
    (property "Datasheet" "" (id 3) (at 187.96 93.98 0)
      (effects (font (size 1.27 1.27)) hide)
    )
    (pin "1" (uuid f6285e61-b2c7-4b62-bd20-3f0e64d064c9))
  )

  (symbol (lib_id "Device:C") (at 130.81 90.17 0) (mirror y) (unit 1)
    (in_bom yes) (on_board yes) (fields_autoplaced)
    (uuid 6183f13a-e63d-4669-b48c-ea76f633dd46)
    (property "Reference" "C?" (id 0) (at 134.62 88.8999 0)
      (effects (font (size 1.27 1.27)) (justify right))
    )
    (property "Value" "10nF" (id 1) (at 134.62 91.4399 0)
      (effects (font (size 1.27 1.27)) (justify right))
    )
    (property "Footprint" "Capacitor_SMD:C_0402_1005Metric_Pad0.74x0.62mm_HandSolder" (id 2) (at 129.8448 93.98 0)
      (effects (font (size 1.27 1.27)) hide)
    )
    (property "Datasheet" "~" (id 3) (at 130.81 90.17 0)
      (effects (font (size 1.27 1.27)) hide)
    )
    (pin "1" (uuid 31b934e1-46c8-4312-8547-4df8dd52719b))
    (pin "2" (uuid b7842966-8df3-4cf3-9777-c4e60f800cac))
  )

  (symbol (lib_id "power:GND") (at 177.8 104.14 0) (unit 1)
    (in_bom yes) (on_board yes) (fields_autoplaced)
    (uuid 63812413-76bf-4b7d-b018-8548186ce2f8)
    (property "Reference" "#PWR?" (id 0) (at 177.8 110.49 0)
      (effects (font (size 1.27 1.27)) hide)
    )
    (property "Value" "GND" (id 1) (at 177.8 109.22 0))
    (property "Footprint" "" (id 2) (at 177.8 104.14 0)
      (effects (font (size 1.27 1.27)) hide)
    )
    (property "Datasheet" "" (id 3) (at 177.8 104.14 0)
      (effects (font (size 1.27 1.27)) hide)
    )
    (pin "1" (uuid 8453800e-f0e6-427b-b293-3b35f5beedf4))
  )

  (symbol (lib_id "Device:R") (at 132.08 74.93 180) (unit 1)
    (in_bom yes) (on_board yes) (fields_autoplaced)
    (uuid 905f56d1-8aff-4e24-9f25-dbbe83a2ea84)
    (property "Reference" "R?" (id 0) (at 134.62 73.6599 0)
      (effects (font (size 1.27 1.27)) (justify right))
    )
    (property "Value" "2.7k" (id 1) (at 134.62 76.1999 0)
      (effects (font (size 1.27 1.27)) (justify right))
    )
    (property "Footprint" "Resistor_SMD:R_0603_1608Metric_Pad0.98x0.95mm_HandSolder" (id 2) (at 133.858 74.93 90)
      (effects (font (size 1.27 1.27)) hide)
    )
    (property "Datasheet" "~" (id 3) (at 132.08 74.93 0)
      (effects (font (size 1.27 1.27)) hide)
    )
    (pin "1" (uuid 66a0b098-45dc-488a-a413-589370bd6e72))
    (pin "2" (uuid 0b62c742-c4c5-421a-91d4-7c10acdf0162))
  )

  (symbol (lib_id "Device:C") (at 184.15 93.98 90) (mirror x) (unit 1)
    (in_bom yes) (on_board yes) (fields_autoplaced)
    (uuid c1d4cce4-9fc8-49e7-8c15-24df5623c3cb)
    (property "Reference" "C?" (id 0) (at 184.15 86.36 90))
    (property "Value" "2.2nF" (id 1) (at 184.15 88.9 90))
    (property "Footprint" "Capacitor_SMD:C_0402_1005Metric_Pad0.74x0.62mm_HandSolder" (id 2) (at 187.96 94.9452 0)
      (effects (font (size 1.27 1.27)) hide)
    )
    (property "Datasheet" "~" (id 3) (at 184.15 93.98 0)
      (effects (font (size 1.27 1.27)) hide)
    )
    (pin "1" (uuid 3b17c6ec-9313-4611-bb9c-c266303ce2ac))
    (pin "2" (uuid f1291c19-e6f7-4daa-a114-d6b52b720fd2))
  )

  (symbol (lib_id "Device:C") (at 177.8 100.33 180) (unit 1)
    (in_bom yes) (on_board yes) (fields_autoplaced)
    (uuid c7ec9769-4fef-44cb-946c-62be59a54b29)
    (property "Reference" "C?" (id 0) (at 181.61 99.0599 0)
      (effects (font (size 1.27 1.27)) (justify right))
    )
    (property "Value" "100nF" (id 1) (at 181.61 101.5999 0)
      (effects (font (size 1.27 1.27)) (justify right))
    )
    (property "Footprint" "Capacitor_SMD:C_0402_1005Metric_Pad0.74x0.62mm_HandSolder" (id 2) (at 176.8348 96.52 0)
      (effects (font (size 1.27 1.27)) hide)
    )
    (property "Datasheet" "~" (id 3) (at 177.8 100.33 0)
      (effects (font (size 1.27 1.27)) hide)
    )
    (pin "1" (uuid e21e62ab-14aa-47e1-8e1a-ee2dadb7af00))
    (pin "2" (uuid 3ea9b17b-e755-496c-b648-afdb7ba73cb1))
  )

  (symbol (lib_id "Device:R") (at 139.7 74.93 180) (unit 1)
    (in_bom yes) (on_board yes) (fields_autoplaced)
    (uuid c83f16b9-46bf-4912-a2a7-9f23bd722eed)
    (property "Reference" "R?" (id 0) (at 142.24 73.6599 0)
      (effects (font (size 1.27 1.27)) (justify right))
    )
    (property "Value" "2.7k" (id 1) (at 142.24 76.1999 0)
      (effects (font (size 1.27 1.27)) (justify right))
    )
    (property "Footprint" "Resistor_SMD:R_0603_1608Metric_Pad0.98x0.95mm_HandSolder" (id 2) (at 141.478 74.93 90)
      (effects (font (size 1.27 1.27)) hide)
    )
    (property "Datasheet" "~" (id 3) (at 139.7 74.93 0)
      (effects (font (size 1.27 1.27)) hide)
    )
    (pin "1" (uuid 436c0143-4769-409c-b859-0f411140d9a7))
    (pin "2" (uuid b076bfca-9ea3-4259-9da1-efe42ed5037f))
  )

  (symbol (lib_id "Device:C") (at 162.56 66.04 180) (unit 1)
    (in_bom yes) (on_board yes) (fields_autoplaced)
    (uuid cb1b7f22-7cf1-4a76-879a-a72e8a64b9a2)
    (property "Reference" "C?" (id 0) (at 166.37 64.7699 0)
      (effects (font (size 1.27 1.27)) (justify right))
    )
    (property "Value" "100nF" (id 1) (at 166.37 67.3099 0)
      (effects (font (size 1.27 1.27)) (justify right))
    )
    (property "Footprint" "Capacitor_SMD:C_0402_1005Metric_Pad0.74x0.62mm_HandSolder" (id 2) (at 161.5948 62.23 0)
      (effects (font (size 1.27 1.27)) hide)
    )
    (property "Datasheet" "~" (id 3) (at 162.56 66.04 0)
      (effects (font (size 1.27 1.27)) hide)
    )
    (pin "1" (uuid 13976974-1292-4d60-a28d-34536c893b60))
    (pin "2" (uuid 8389107a-3790-487c-a35d-b10b81b2e942))
  )

  (symbol (lib_id "power:+3.3V") (at 124.46 96.52 90) (unit 1)
    (in_bom yes) (on_board yes) (fields_autoplaced)
    (uuid d7ae9e85-4805-47c4-824b-881da2edab4d)
    (property "Reference" "#PWR?" (id 0) (at 128.27 96.52 0)
      (effects (font (size 1.27 1.27)) hide)
    )
    (property "Value" "+3.3V" (id 1) (at 125.73 96.5199 90)
      (effects (font (size 1.27 1.27)) (justify right))
    )
    (property "Footprint" "" (id 2) (at 124.46 96.52 0)
      (effects (font (size 1.27 1.27)) hide)
    )
    (property "Datasheet" "" (id 3) (at 124.46 96.52 0)
      (effects (font (size 1.27 1.27)) hide)
    )
    (pin "1" (uuid c7579d66-79f5-415e-abfe-44917ddeebf0))
  )

  (symbol (lib_id "Sensor_Motion:MPU-6050") (at 160.02 88.9 0) (unit 1)
    (in_bom yes) (on_board yes) (fields_autoplaced)
    (uuid df93d791-8a79-437a-b5ea-e96d471e8093)
    (property "Reference" "U?" (id 0) (at 162.0394 104.14 0)
      (effects (font (size 1.27 1.27)) (justify left))
    )
    (property "Value" "MPU-6050" (id 1) (at 162.0394 106.68 0)
      (effects (font (size 1.27 1.27)) (justify left))
    )
    (property "Footprint" "Sensor_Motion:InvenSense_QFN-24_4x4mm_P0.5mm" (id 2) (at 160.02 109.22 0)
      (effects (font (size 1.27 1.27)) hide)
    )
    (property "Datasheet" "https://store.invensense.com/datasheets/invensense/MPU-6050_DataSheet_V3%204.pdf" (id 3) (at 160.02 92.71 0)
      (effects (font (size 1.27 1.27)) hide)
    )
    (pin "1" (uuid 233a4b12-75f8-4e6b-bef8-914a0a26e0cb))
    (pin "10" (uuid 9e7b24eb-f1b1-49fc-8e4a-221a18c1e299))
    (pin "11" (uuid 77e5169f-0ea3-4de8-adfb-6176e496a736))
    (pin "12" (uuid fe9155f7-7886-4354-aff3-85fd3939a5be))
    (pin "13" (uuid 48f2c4d4-a567-441b-b093-907f4fd625ab))
    (pin "18" (uuid d05848d9-b703-4f33-927a-33e1dbd422f2))
    (pin "20" (uuid 0b083b81-d81d-43f5-b3f4-a3870e333b98))
    (pin "23" (uuid a60e152a-038a-4c86-b990-c6a6bac42343))
    (pin "24" (uuid 9f468633-90a8-4dba-a0e3-9cf1b962b37d))
    (pin "6" (uuid 703624fe-b513-41fe-8f55-1fe8de97703d))
    (pin "7" (uuid f930a182-b2d5-4c81-81c9-905795e16964))
    (pin "8" (uuid b74ff2d5-0e87-4f47-9d91-491558cfecf5))
    (pin "9" (uuid 2e8b0c18-e4dc-4e55-ae79-2a9f266398d1))
  )

  (symbol (lib_id "power:+3.3V") (at 157.48 68.58 0) (unit 1)
    (in_bom yes) (on_board yes) (fields_autoplaced)
    (uuid ff57a491-485b-4862-8bf1-76dfe201cc07)
    (property "Reference" "#PWR?" (id 0) (at 157.48 72.39 0)
      (effects (font (size 1.27 1.27)) hide)
    )
    (property "Value" "+3.3V" (id 1) (at 157.48 63.5 0))
    (property "Footprint" "" (id 2) (at 157.48 68.58 0)
      (effects (font (size 1.27 1.27)) hide)
    )
    (property "Datasheet" "" (id 3) (at 157.48 68.58 0)
      (effects (font (size 1.27 1.27)) hide)
    )
    (pin "1" (uuid fecceda7-75f9-4740-8dec-49f0847712ff))
  )
)
