(kicad_sch (version 20211123) (generator eeschema)

  (uuid e63e39d7-6ac0-4ffd-8aa3-1841a4541b55)

  (paper "A4")

  (lib_symbols
  )


  (wire (pts (xy 195.58 73.66) (xy 190.5 73.66))
    (stroke (width 0) (type default) (color 0 0 0 0))
    (uuid 0ba19606-665d-463b-9ccd-cc2bb039cad5)
  )
  (wire (pts (xy 190.5 73.66) (xy 190.5 86.36))
    (stroke (width 0) (type default) (color 0 0 0 0))
    (uuid 2de0ce8b-9066-4edb-9dd2-1641f0f63420)
  )
  (wire (pts (xy 86.36 90.17) (xy 125.73 90.17))
    (stroke (width 0) (type default) (color 0 0 0 0))
    (uuid 36e2523e-2fcc-452c-ba86-db28a849a79f)
  )
  (wire (pts (xy 184.15 67.31) (xy 195.58 67.31))
    (stroke (width 0) (type default) (color 0 0 0 0))
    (uuid 4db90e58-9a66-44c5-9a8e-26c8a0a65602)
  )
  (wire (pts (xy 184.15 62.23) (xy 195.58 62.23))
    (stroke (width 0) (type default) (color 0 0 0 0))
    (uuid 9ae2ed49-cf57-4ca5-a1e7-850c5d5e046f)
  )
  (wire (pts (xy 184.15 64.77) (xy 195.58 64.77))
    (stroke (width 0) (type default) (color 0 0 0 0))
    (uuid a2470ccf-45f6-418f-bc83-0f27f1e52d07)
  )
  (wire (pts (xy 185.42 86.36) (xy 190.5 86.36))
    (stroke (width 0) (type default) (color 0 0 0 0))
    (uuid e1ade554-f181-47c7-ae88-f9a7dc1f68a4)
  )

  (sheet (at 125.73 83.82) (size 59.69 33.02) (fields_autoplaced)
    (stroke (width 0.1524) (type solid) (color 0 0 0 0))
    (fill (color 0 0 0 0.0000))
    (uuid 1d6f22d6-14ad-40e9-a327-52c9670022bb)
    (property "Sheet name" "RPI Low Speed" (id 0) (at 125.73 83.1084 0)
      (effects (font (size 1.27 1.27)) (justify left bottom))
    )
    (property "Sheet file" "rpilospd.kicad_sch" (id 1) (at 125.73 117.4246 0)
      (effects (font (size 1.27 1.27)) (justify left top))
    )
    (pin "EXTRST" output (at 185.42 86.36 0)
      (effects (font (size 1.27 1.27)) (justify right))
      (uuid 31845257-bd99-4a67-ac66-e53af07f371d)
    )
    (pin "RPI_TX>MOT0_RX" output (at 125.73 90.17 180)
      (effects (font (size 1.27 1.27)) (justify left))
      (uuid c53809d5-acda-4d9b-9aed-95bb6d340195)
    )
  )

  (sheet (at 36.83 83.82) (size 49.53 33.02) (fields_autoplaced)
    (stroke (width 0.1524) (type solid) (color 0 0 0 0))
    (fill (color 0 0 0 0.0000))
    (uuid 96699991-74c6-4e9f-9d25-097a9a29feee)
    (property "Sheet name" "STM32" (id 0) (at 36.83 83.1084 0)
      (effects (font (size 1.27 1.27)) (justify left bottom))
    )
    (property "Sheet file" "stm32.kicad_sch" (id 1) (at 36.83 117.4246 0)
      (effects (font (size 1.27 1.27)) (justify left top))
    )
    (pin "SOM>~{MCU_RESET}" input (at 86.36 90.17 0)
      (effects (font (size 1.27 1.27)) (justify right))
      (uuid c202bc93-4515-44db-8036-3d0d939d1c81)
    )
  )

  (sheet (at 125.73 33.02) (size 58.42 36.83) (fields_autoplaced)
    (stroke (width 0.1524) (type solid) (color 0 0 0 0))
    (fill (color 0 0 0 0.0000))
    (uuid bb7251a8-9c6f-490e-a604-fe4b34be3d98)
    (property "Sheet name" "RPI High Speed" (id 0) (at 125.73 32.3084 0)
      (effects (font (size 1.27 1.27)) (justify left bottom))
    )
    (property "Sheet file" "rpihispd.kicad_sch" (id 1) (at 125.73 70.4346 0)
      (effects (font (size 1.27 1.27)) (justify left top))
    )
    (pin "USB2_N" bidirectional (at 184.15 64.77 0)
      (effects (font (size 1.27 1.27)) (justify right))
      (uuid 40f2eebb-a24c-48c4-b40f-9b4ed6edcf87)
    )
    (pin "USB2_P" bidirectional (at 184.15 67.31 0)
      (effects (font (size 1.27 1.27)) (justify right))
      (uuid 1fe0a425-49de-41eb-bb4f-73980c154fef)
    )
    (pin "USB_OTG" input (at 184.15 62.23 0)
      (effects (font (size 1.27 1.27)) (justify right))
      (uuid f358d258-8e1b-4fbc-9047-a4c7adb1ed81)
    )
  )

  (sheet (at 195.58 59.69) (size 20.32 17.78) (fields_autoplaced)
    (stroke (width 0.1524) (type solid) (color 0 0 0 0))
    (fill (color 0 0 0 0.0000))
    (uuid c884ff7b-98f4-480e-8742-a70a597f8c7c)
    (property "Sheet name" "USB" (id 0) (at 195.58 58.9784 0)
      (effects (font (size 1.27 1.27)) (justify left bottom))
    )
    (property "Sheet file" "usb.kicad_sch" (id 1) (at 195.58 78.0546 0)
      (effects (font (size 1.27 1.27)) (justify left top))
    )
    (pin "USB_OTG" output (at 195.58 62.23 180)
      (effects (font (size 1.27 1.27)) (justify left))
      (uuid 97688706-c7e2-4529-bb68-d7f2c720a3e3)
    )
    (pin "USB_P" bidirectional (at 195.58 67.31 180)
      (effects (font (size 1.27 1.27)) (justify left))
      (uuid 9839ffc5-0a2f-483b-97ac-7a2189e76bb1)
    )
    (pin "USB_N" bidirectional (at 195.58 64.77 180)
      (effects (font (size 1.27 1.27)) (justify left))
      (uuid 63145182-8aaf-4f02-ac1f-4b250e9d8460)
    )
    (pin "RESET" input (at 195.58 73.66 180)
      (effects (font (size 1.27 1.27)) (justify left))
      (uuid 20be5902-4353-492f-9a22-606aa1729aea)
    )
  )

  (sheet_instances
    (path "/" (page "1"))
    (path "/bb7251a8-9c6f-490e-a604-fe4b34be3d98" (page "2"))
    (path "/1d6f22d6-14ad-40e9-a327-52c9670022bb" (page "3"))
    (path "/96699991-74c6-4e9f-9d25-097a9a29feee" (page "4"))
    (path "/96699991-74c6-4e9f-9d25-097a9a29feee/683494ab-83e3-4e0e-9f47-9b1d32dcbe51" (page "5"))
    (path "/1d6f22d6-14ad-40e9-a327-52c9670022bb/6e33aeeb-1b7e-46d7-8f44-ec30e8201196" (page "6"))
    (path "/c884ff7b-98f4-480e-8742-a70a597f8c7c" (page "7"))
    (path "/96699991-74c6-4e9f-9d25-097a9a29feee/9709cf58-516d-4e24-bb04-454b00a1284f" (page "8"))
    (path "/96699991-74c6-4e9f-9d25-097a9a29feee/832d1e59-b8be-441f-a77f-2cc1a3c6953f" (page "9"))
  )

  (symbol_instances
    (path "/c884ff7b-98f4-480e-8742-a70a597f8c7c/03876462-6e72-4b03-a40a-bf73d429b19c"
      (reference "#PWR?") (unit 1) (value "GND") (footprint "")
    )
    (path "/c884ff7b-98f4-480e-8742-a70a597f8c7c/09e87d8b-4817-419f-ac86-006919cfa3eb"
      (reference "#PWR?") (unit 1) (value "GND") (footprint "")
    )
    (path "/c884ff7b-98f4-480e-8742-a70a597f8c7c/0ac59ec9-f84b-4350-87e7-948612180aba"
      (reference "#PWR?") (unit 1) (value "GND") (footprint "")
    )
    (path "/1d6f22d6-14ad-40e9-a327-52c9670022bb/6e33aeeb-1b7e-46d7-8f44-ec30e8201196/0e2e9aae-aee6-45c4-8ebb-cf862991b335"
      (reference "#PWR?") (unit 1) (value "+3.3V") (footprint "")
    )
    (path "/bb7251a8-9c6f-490e-a604-fe4b34be3d98/0e45b1b9-08b6-4ebb-8e56-1a3183cef664"
      (reference "#PWR?") (unit 1) (value "+12V") (footprint "")
    )
    (path "/96699991-74c6-4e9f-9d25-097a9a29feee/0ecb243e-2cbe-4124-829e-d247e62691d7"
      (reference "#PWR?") (unit 1) (value "GND") (footprint "")
    )
    (path "/1d6f22d6-14ad-40e9-a327-52c9670022bb/6e33aeeb-1b7e-46d7-8f44-ec30e8201196/0fd0dc87-5821-495a-9f9a-dad5f665e1dc"
      (reference "#PWR?") (unit 1) (value "GND") (footprint "")
    )
    (path "/c884ff7b-98f4-480e-8742-a70a597f8c7c/13347d3d-9bd7-4e3b-9cd9-0688e82aba76"
      (reference "#PWR?") (unit 1) (value "+3V3") (footprint "")
    )
    (path "/1d6f22d6-14ad-40e9-a327-52c9670022bb/6e33aeeb-1b7e-46d7-8f44-ec30e8201196/17fa89aa-4479-4ee8-a048-ec829bdd8c6a"
      (reference "#PWR?") (unit 1) (value "GND") (footprint "")
    )
    (path "/96699991-74c6-4e9f-9d25-097a9a29feee/2208cedd-52b1-4065-af80-08df08515045"
      (reference "#PWR?") (unit 1) (value "GND") (footprint "")
    )
    (path "/bb7251a8-9c6f-490e-a604-fe4b34be3d98/2a9a198b-a7e1-4c77-9698-0c92b6e2be52"
      (reference "#PWR?") (unit 1) (value "GND") (footprint "")
    )
    (path "/96699991-74c6-4e9f-9d25-097a9a29feee/832d1e59-b8be-441f-a77f-2cc1a3c6953f/2b5afe32-fb88-4aea-8e94-3633f4df8424"
      (reference "#PWR?") (unit 1) (value "GND") (footprint "")
    )
    (path "/bb7251a8-9c6f-490e-a604-fe4b34be3d98/2d0d9bd8-da37-4ef6-8777-a66a67c1caaf"
      (reference "#PWR?") (unit 1) (value "GND") (footprint "")
    )
    (path "/c884ff7b-98f4-480e-8742-a70a597f8c7c/2d74bb8d-de77-4958-a1db-56a01f938d3b"
      (reference "#PWR?") (unit 1) (value "GND") (footprint "")
    )
    (path "/1d6f22d6-14ad-40e9-a327-52c9670022bb/2e7f3049-3a42-47aa-9499-0c9ae7417234"
      (reference "#PWR?") (unit 1) (value "GND") (footprint "")
    )
    (path "/c884ff7b-98f4-480e-8742-a70a597f8c7c/346bb396-bad1-4375-8d24-5c421ad8ed7b"
      (reference "#PWR?") (unit 1) (value "GND") (footprint "")
    )
    (path "/96699991-74c6-4e9f-9d25-097a9a29feee/368ebe28-686c-40c8-b219-8295ca218c67"
      (reference "#PWR?") (unit 1) (value "+3.3V") (footprint "")
    )
    (path "/1d6f22d6-14ad-40e9-a327-52c9670022bb/6e33aeeb-1b7e-46d7-8f44-ec30e8201196/39343e59-1d4f-46d8-a55f-665e5cd7e2f7"
      (reference "#PWR?") (unit 1) (value "GND") (footprint "")
    )
    (path "/96699991-74c6-4e9f-9d25-097a9a29feee/683494ab-83e3-4e0e-9f47-9b1d32dcbe51/411ab2da-b84f-4a85-883d-1c0ede8ec4a9"
      (reference "#PWR?") (unit 1) (value "GND") (footprint "")
    )
    (path "/c884ff7b-98f4-480e-8742-a70a597f8c7c/4366e4ac-3054-49f5-862e-60d474615fbc"
      (reference "#PWR?") (unit 1) (value "GND") (footprint "")
    )
    (path "/96699991-74c6-4e9f-9d25-097a9a29feee/4abc0d09-572e-4816-bca4-ba4212f9905b"
      (reference "#PWR?") (unit 1) (value "+3.3VADC") (footprint "")
    )
    (path "/1d6f22d6-14ad-40e9-a327-52c9670022bb/6e33aeeb-1b7e-46d7-8f44-ec30e8201196/513d7f16-67e8-4ce3-8a49-0197a301a62a"
      (reference "#PWR?") (unit 1) (value "GND") (footprint "")
    )
    (path "/96699991-74c6-4e9f-9d25-097a9a29feee/683494ab-83e3-4e0e-9f47-9b1d32dcbe51/521452e6-3fbe-404d-81b4-805de74e007f"
      (reference "#PWR?") (unit 1) (value "GND") (footprint "")
    )
    (path "/c884ff7b-98f4-480e-8742-a70a597f8c7c/55031538-85c1-4081-bcca-e6ae77e948fd"
      (reference "#PWR?") (unit 1) (value "GND") (footprint "")
    )
    (path "/1d6f22d6-14ad-40e9-a327-52c9670022bb/58aed428-b3bb-42eb-93c4-975ef032a176"
      (reference "#PWR?") (unit 1) (value "GND") (footprint "")
    )
    (path "/1d6f22d6-14ad-40e9-a327-52c9670022bb/6e33aeeb-1b7e-46d7-8f44-ec30e8201196/63812413-76bf-4b7d-b018-8548186ce2f8"
      (reference "#PWR?") (unit 1) (value "GND") (footprint "")
    )
    (path "/96699991-74c6-4e9f-9d25-097a9a29feee/64036b0f-e4a5-431b-86c2-94d1df6345da"
      (reference "#PWR?") (unit 1) (value "GND") (footprint "")
    )
    (path "/c884ff7b-98f4-480e-8742-a70a597f8c7c/670d398b-a026-4319-88ef-354daf94f43b"
      (reference "#PWR?") (unit 1) (value "GND") (footprint "")
    )
    (path "/c884ff7b-98f4-480e-8742-a70a597f8c7c/6bba85fd-586d-488d-9a9f-bd350fc84ea2"
      (reference "#PWR?") (unit 1) (value "GND") (footprint "")
    )
    (path "/96699991-74c6-4e9f-9d25-097a9a29feee/702032fd-ba4d-4ac5-8c15-e082293a86ef"
      (reference "#PWR?") (unit 1) (value "GND") (footprint "")
    )
    (path "/c884ff7b-98f4-480e-8742-a70a597f8c7c/75e974a9-635d-422a-a2df-d3b549bb1a1a"
      (reference "#PWR?") (unit 1) (value "GND") (footprint "")
    )
    (path "/96699991-74c6-4e9f-9d25-097a9a29feee/75ebcaaf-8f91-4bce-95da-35daf284b36b"
      (reference "#PWR?") (unit 1) (value "GND") (footprint "")
    )
    (path "/96699991-74c6-4e9f-9d25-097a9a29feee/77a39290-cbef-4417-92dd-bd19a64a03da"
      (reference "#PWR?") (unit 1) (value "GND") (footprint "")
    )
    (path "/96699991-74c6-4e9f-9d25-097a9a29feee/78480b16-929b-4eb3-af9a-f9852b270f2a"
      (reference "#PWR?") (unit 1) (value "+3.3VADC") (footprint "")
    )
    (path "/bb7251a8-9c6f-490e-a604-fe4b34be3d98/7ab72266-8e20-42aa-b4eb-1049da8c9be7"
      (reference "#PWR?") (unit 1) (value "GND") (footprint "")
    )
    (path "/c884ff7b-98f4-480e-8742-a70a597f8c7c/7b967791-0f40-4fbf-b968-1468ecc9dd52"
      (reference "#PWR?") (unit 1) (value "GND") (footprint "")
    )
    (path "/c884ff7b-98f4-480e-8742-a70a597f8c7c/7cfb90f0-a8a0-4b62-9d7a-2864c9a31928"
      (reference "#PWR?") (unit 1) (value "GND") (footprint "")
    )
    (path "/c884ff7b-98f4-480e-8742-a70a597f8c7c/7dc2e59d-84c1-4673-a0c3-d287d43e80c1"
      (reference "#PWR?") (unit 1) (value "GND") (footprint "")
    )
    (path "/96699991-74c6-4e9f-9d25-097a9a29feee/7dfc6478-57f4-47ac-8a3f-dbe3d9ff5e59"
      (reference "#PWR?") (unit 1) (value "GND") (footprint "")
    )
    (path "/c884ff7b-98f4-480e-8742-a70a597f8c7c/80ac69ae-bcca-4138-b229-f20c4815cbea"
      (reference "#PWR?") (unit 1) (value "GND") (footprint "")
    )
    (path "/bb7251a8-9c6f-490e-a604-fe4b34be3d98/81b6099c-2282-47ae-aeeb-438b37d9f91f"
      (reference "#PWR?") (unit 1) (value "GND") (footprint "")
    )
    (path "/bb7251a8-9c6f-490e-a604-fe4b34be3d98/83a2f57c-d448-4d47-86dd-4b0061c34403"
      (reference "#PWR?") (unit 1) (value "GND") (footprint "")
    )
    (path "/96699991-74c6-4e9f-9d25-097a9a29feee/832d1e59-b8be-441f-a77f-2cc1a3c6953f/84edc70c-f9b8-44ad-a28c-eb22f04170ac"
      (reference "#PWR?") (unit 1) (value "GND") (footprint "")
    )
    (path "/c884ff7b-98f4-480e-8742-a70a597f8c7c/91c12d3b-6582-426f-831c-db14107bc431"
      (reference "#PWR?") (unit 1) (value "GND") (footprint "")
    )
    (path "/96699991-74c6-4e9f-9d25-097a9a29feee/92b42b7f-5eef-49cc-9bd2-e8db9b316e02"
      (reference "#PWR?") (unit 1) (value "+3.3V") (footprint "")
    )
    (path "/bb7251a8-9c6f-490e-a604-fe4b34be3d98/9c2b828e-4b31-4288-a111-5c98b6a96235"
      (reference "#PWR?") (unit 1) (value "GND") (footprint "")
    )
    (path "/96699991-74c6-4e9f-9d25-097a9a29feee/a06271d8-2f9d-42af-9c9b-86cb8009aedc"
      (reference "#PWR?") (unit 1) (value "+3.3V") (footprint "")
    )
    (path "/c884ff7b-98f4-480e-8742-a70a597f8c7c/a587f8ff-aeca-45c3-b3eb-9e6a8f5a9191"
      (reference "#PWR?") (unit 1) (value "GND") (footprint "")
    )
    (path "/c884ff7b-98f4-480e-8742-a70a597f8c7c/acf31146-a461-4766-b3e1-06ecf0affc1e"
      (reference "#PWR?") (unit 1) (value "+3V3") (footprint "")
    )
    (path "/96699991-74c6-4e9f-9d25-097a9a29feee/683494ab-83e3-4e0e-9f47-9b1d32dcbe51/acf70189-c77f-412a-8211-978f64f7f483"
      (reference "#PWR?") (unit 1) (value "+3.3V") (footprint "")
    )
    (path "/96699991-74c6-4e9f-9d25-097a9a29feee/adaae62b-6265-4960-b84c-bdca2d3ea0d1"
      (reference "#PWR?") (unit 1) (value "+3.3V") (footprint "")
    )
    (path "/96699991-74c6-4e9f-9d25-097a9a29feee/aeb5e5e0-9645-4b34-8850-c37cfc8e9231"
      (reference "#PWR?") (unit 1) (value "GND") (footprint "")
    )
    (path "/bb7251a8-9c6f-490e-a604-fe4b34be3d98/b1c3fc8d-4899-42bf-b600-fd1cb186c33c"
      (reference "#PWR?") (unit 1) (value "GND") (footprint "")
    )
    (path "/96699991-74c6-4e9f-9d25-097a9a29feee/b34dc6ff-1aa7-46bb-a6de-a88fbd693f57"
      (reference "#PWR?") (unit 1) (value "+3.3V") (footprint "")
    )
    (path "/bb7251a8-9c6f-490e-a604-fe4b34be3d98/b44b23f0-bd88-4300-979d-37f303b9f6a0"
      (reference "#PWR?") (unit 1) (value "GND") (footprint "")
    )
    (path "/c884ff7b-98f4-480e-8742-a70a597f8c7c/bd1c86d3-40da-4c0d-b304-32389f5d9825"
      (reference "#PWR?") (unit 1) (value "GND") (footprint "")
    )
    (path "/c884ff7b-98f4-480e-8742-a70a597f8c7c/c04c900a-ba8f-461e-86a2-2bebbbf1474e"
      (reference "#PWR?") (unit 1) (value "GND") (footprint "")
    )
    (path "/c884ff7b-98f4-480e-8742-a70a597f8c7c/c42cd153-e7b0-4862-ad17-cad5209f6481"
      (reference "#PWR?") (unit 1) (value "GND") (footprint "")
    )
    (path "/bb7251a8-9c6f-490e-a604-fe4b34be3d98/c861cf8a-31e4-47f9-9d70-ba48e4f39ce1"
      (reference "#PWR?") (unit 1) (value "GND") (footprint "")
    )
    (path "/bb7251a8-9c6f-490e-a604-fe4b34be3d98/c9e1fbd4-340f-432f-92fa-4d68728b6677"
      (reference "#PWR?") (unit 1) (value "GND") (footprint "")
    )
    (path "/96699991-74c6-4e9f-9d25-097a9a29feee/683494ab-83e3-4e0e-9f47-9b1d32dcbe51/cdd2f9ca-4a41-4858-a08e-8122acd6e151"
      (reference "#PWR?") (unit 1) (value "GND") (footprint "")
    )
    (path "/1d6f22d6-14ad-40e9-a327-52c9670022bb/6e33aeeb-1b7e-46d7-8f44-ec30e8201196/d7ae9e85-4805-47c4-824b-881da2edab4d"
      (reference "#PWR?") (unit 1) (value "+3.3V") (footprint "")
    )
    (path "/bb7251a8-9c6f-490e-a604-fe4b34be3d98/d86c1e91-2844-41b1-b7e4-0eed169600b5"
      (reference "#PWR?") (unit 1) (value "GND") (footprint "")
    )
    (path "/96699991-74c6-4e9f-9d25-097a9a29feee/683494ab-83e3-4e0e-9f47-9b1d32dcbe51/d903a213-a129-4e36-ba35-e88906be9ec0"
      (reference "#PWR?") (unit 1) (value "+3.3V") (footprint "")
    )
    (path "/96699991-74c6-4e9f-9d25-097a9a29feee/683494ab-83e3-4e0e-9f47-9b1d32dcbe51/db685522-afd1-48c4-8871-1749230b072d"
      (reference "#PWR?") (unit 1) (value "GND") (footprint "")
    )
    (path "/96699991-74c6-4e9f-9d25-097a9a29feee/683494ab-83e3-4e0e-9f47-9b1d32dcbe51/df2bed51-5abe-4bc0-95ab-ce6258839653"
      (reference "#PWR?") (unit 1) (value "GND") (footprint "")
    )
    (path "/c884ff7b-98f4-480e-8742-a70a597f8c7c/df5d76e2-ff36-4202-9147-739b0f873780"
      (reference "#PWR?") (unit 1) (value "GND") (footprint "")
    )
    (path "/c884ff7b-98f4-480e-8742-a70a597f8c7c/e77d755b-331b-4e59-a2f7-118f854dc0a5"
      (reference "#PWR?") (unit 1) (value "GND") (footprint "")
    )
    (path "/96699991-74c6-4e9f-9d25-097a9a29feee/e96557f2-c1a9-4fec-b509-4ed1952a1f96"
      (reference "#PWR?") (unit 1) (value "+3.3V") (footprint "")
    )
    (path "/c884ff7b-98f4-480e-8742-a70a597f8c7c/eae702f2-a3a5-4192-aff1-872732583904"
      (reference "#PWR?") (unit 1) (value "GND") (footprint "")
    )
    (path "/bb7251a8-9c6f-490e-a604-fe4b34be3d98/ee737e09-c622-45af-bfe6-b2882f4c573f"
      (reference "#PWR?") (unit 1) (value "GND") (footprint "")
    )
    (path "/bb7251a8-9c6f-490e-a604-fe4b34be3d98/eef67442-6f71-4f7a-94a4-cf92e6b69738"
      (reference "#PWR?") (unit 1) (value "+12V") (footprint "")
    )
    (path "/96699991-74c6-4e9f-9d25-097a9a29feee/eef897cf-79eb-4dbb-8862-25d9dded4186"
      (reference "#PWR?") (unit 1) (value "+3.3V") (footprint "")
    )
    (path "/c884ff7b-98f4-480e-8742-a70a597f8c7c/ef73cb19-2cdc-446c-8bdf-f79a5a7f4d93"
      (reference "#PWR?") (unit 1) (value "GND") (footprint "")
    )
    (path "/c884ff7b-98f4-480e-8742-a70a597f8c7c/f35e3404-ef52-42a8-b3f6-f227b971fc9c"
      (reference "#PWR?") (unit 1) (value "GND") (footprint "")
    )
    (path "/96699991-74c6-4e9f-9d25-097a9a29feee/832d1e59-b8be-441f-a77f-2cc1a3c6953f/f3daef59-e1a9-4a9b-9b34-17c715a7d545"
      (reference "#PWR?") (unit 1) (value "GND") (footprint "")
    )
    (path "/96699991-74c6-4e9f-9d25-097a9a29feee/f3f21c11-bf86-4001-9670-3d334c2c2a8e"
      (reference "#PWR?") (unit 1) (value "GND") (footprint "")
    )
    (path "/bb7251a8-9c6f-490e-a604-fe4b34be3d98/f4077211-e2b9-4e29-b066-b7867371809f"
      (reference "#PWR?") (unit 1) (value "GND") (footprint "")
    )
    (path "/c884ff7b-98f4-480e-8742-a70a597f8c7c/f94802d7-b31d-4d1a-be98-fc6a42c4b2a4"
      (reference "#PWR?") (unit 1) (value "GND") (footprint "")
    )
    (path "/c884ff7b-98f4-480e-8742-a70a597f8c7c/f9862670-16c7-4d4b-b8ef-21061d26e5c3"
      (reference "#PWR?") (unit 1) (value "GND") (footprint "")
    )
    (path "/c884ff7b-98f4-480e-8742-a70a597f8c7c/fe7d1119-2cd8-45d5-987e-b317f5f9e9e0"
      (reference "#PWR?") (unit 1) (value "GND") (footprint "")
    )
    (path "/1d6f22d6-14ad-40e9-a327-52c9670022bb/6e33aeeb-1b7e-46d7-8f44-ec30e8201196/ff57a491-485b-4862-8bf1-76dfe201cc07"
      (reference "#PWR?") (unit 1) (value "+3.3V") (footprint "")
    )
    (path "/96699991-74c6-4e9f-9d25-097a9a29feee/02dbd44a-a974-4874-a0ea-ace65efee201"
      (reference "C?") (unit 1) (value "1uF") (footprint "Capacitor_SMD:C_0402_1005Metric")
    )
    (path "/96699991-74c6-4e9f-9d25-097a9a29feee/1fae0455-9a5b-4137-a9f0-1519d4cddaf9"
      (reference "C?") (unit 1) (value "100nF") (footprint "Capacitor_SMD:C_0402_1005Metric")
    )
    (path "/96699991-74c6-4e9f-9d25-097a9a29feee/683494ab-83e3-4e0e-9f47-9b1d32dcbe51/2033d16c-df05-41ec-8f3c-1086174509c6"
      (reference "C?") (unit 1) (value "100nF") (footprint "Capacitor_SMD:C_0402_1005Metric")
    )
    (path "/96699991-74c6-4e9f-9d25-097a9a29feee/683494ab-83e3-4e0e-9f47-9b1d32dcbe51/31ad0f3d-3343-4618-8336-b89a78b83b1e"
      (reference "C?") (unit 1) (value "100nF") (footprint "Capacitor_SMD:C_0402_1005Metric")
    )
    (path "/96699991-74c6-4e9f-9d25-097a9a29feee/683494ab-83e3-4e0e-9f47-9b1d32dcbe51/3566cbfb-19b1-4d55-8ade-c9f7c33a9fc0"
      (reference "C?") (unit 1) (value "100nF") (footprint "Capacitor_SMD:C_0402_1005Metric")
    )
    (path "/96699991-74c6-4e9f-9d25-097a9a29feee/36e783d5-9ae1-4da1-b87d-c4c3d6925974"
      (reference "C?") (unit 1) (value "1uF") (footprint "Capacitor_SMD:C_0402_1005Metric")
    )
    (path "/96699991-74c6-4e9f-9d25-097a9a29feee/3fc3f1e0-bafe-4f2a-a688-2cab5ab918f6"
      (reference "C?") (unit 1) (value "100nF") (footprint "Capacitor_SMD:C_0402_1005Metric")
    )
    (path "/96699991-74c6-4e9f-9d25-097a9a29feee/5a00e098-5192-4540-9073-e27d5447e879"
      (reference "C?") (unit 1) (value "100nF") (footprint "Capacitor_SMD:C_0402_1005Metric")
    )
    (path "/1d6f22d6-14ad-40e9-a327-52c9670022bb/6e33aeeb-1b7e-46d7-8f44-ec30e8201196/6183f13a-e63d-4669-b48c-ea76f633dd46"
      (reference "C?") (unit 1) (value "10nF") (footprint "Capacitor_SMD:C_0402_1005Metric_Pad0.74x0.62mm_HandSolder")
    )
    (path "/96699991-74c6-4e9f-9d25-097a9a29feee/6af3f13f-ca21-4abd-b08e-b02ad8fd5e33"
      (reference "C?") (unit 1) (value "100nF") (footprint "Capacitor_SMD:C_0402_1005Metric")
    )
    (path "/96699991-74c6-4e9f-9d25-097a9a29feee/683494ab-83e3-4e0e-9f47-9b1d32dcbe51/a0d6f602-5c14-4815-a245-ed9dd5d615b1"
      (reference "C?") (unit 1) (value "100nF") (footprint "Capacitor_SMD:C_0402_1005Metric")
    )
    (path "/96699991-74c6-4e9f-9d25-097a9a29feee/ac43196b-a040-40a2-b26c-1e083d9e0ef1"
      (reference "C?") (unit 1) (value "12p") (footprint "Capacitor_SMD:C_0402_1005Metric")
    )
    (path "/96699991-74c6-4e9f-9d25-097a9a29feee/b1ba87be-0969-4bc5-8075-efb83dcbac03"
      (reference "C?") (unit 1) (value "12p") (footprint "Capacitor_SMD:C_0402_1005Metric")
    )
    (path "/96699991-74c6-4e9f-9d25-097a9a29feee/683494ab-83e3-4e0e-9f47-9b1d32dcbe51/ba553e0c-4400-427e-b4da-72e713ec376f"
      (reference "C?") (unit 1) (value "100nF") (footprint "Capacitor_SMD:C_0402_1005Metric")
    )
    (path "/1d6f22d6-14ad-40e9-a327-52c9670022bb/6e33aeeb-1b7e-46d7-8f44-ec30e8201196/c1d4cce4-9fc8-49e7-8c15-24df5623c3cb"
      (reference "C?") (unit 1) (value "2.2nF") (footprint "Capacitor_SMD:C_0402_1005Metric_Pad0.74x0.62mm_HandSolder")
    )
    (path "/1d6f22d6-14ad-40e9-a327-52c9670022bb/6e33aeeb-1b7e-46d7-8f44-ec30e8201196/c7ec9769-4fef-44cb-946c-62be59a54b29"
      (reference "C?") (unit 1) (value "100nF") (footprint "Capacitor_SMD:C_0402_1005Metric_Pad0.74x0.62mm_HandSolder")
    )
    (path "/1d6f22d6-14ad-40e9-a327-52c9670022bb/6e33aeeb-1b7e-46d7-8f44-ec30e8201196/cb1b7f22-7cf1-4a76-879a-a72e8a64b9a2"
      (reference "C?") (unit 1) (value "100nF") (footprint "Capacitor_SMD:C_0402_1005Metric_Pad0.74x0.62mm_HandSolder")
    )
    (path "/96699991-74c6-4e9f-9d25-097a9a29feee/d7a74c62-5b0d-427d-a01e-d27c49e88596"
      (reference "C?") (unit 1) (value "100nF") (footprint "Capacitor_SMD:C_0402_1005Metric")
    )
    (path "/96699991-74c6-4e9f-9d25-097a9a29feee/fa1503a0-19c0-4e06-a1de-65c87d9f3046"
      (reference "C?") (unit 1) (value "100nF") (footprint "Capacitor_SMD:C_0402_1005Metric")
    )
    (path "/96699991-74c6-4e9f-9d25-097a9a29feee/0d8bb38a-7c04-4b72-853d-7341d637c40b"
      (reference "D?") (unit 1) (value "D_Schottky") (footprint "Diode_SMD:D_SOD-323")
    )
    (path "/96699991-74c6-4e9f-9d25-097a9a29feee/195a583e-1551-4328-b9a9-d6baed6540a4"
      (reference "D?") (unit 1) (value "D_Schottky") (footprint "Diode_SMD:D_SOD-323")
    )
    (path "/c884ff7b-98f4-480e-8742-a70a597f8c7c/197dd0bd-3a87-46fe-9698-b0b1dc989e4b"
      (reference "D?") (unit 1) (value "LED") (footprint "LED_SMD:LED_0805_2012Metric_Pad1.15x1.40mm_HandSolder")
    )
    (path "/96699991-74c6-4e9f-9d25-097a9a29feee/1d9f6ec6-e3bc-4477-a158-fdb4e35456c7"
      (reference "D?") (unit 1) (value "RED LED") (footprint "LED_SMD:LED_0805_2012Metric")
    )
    (path "/c884ff7b-98f4-480e-8742-a70a597f8c7c/24bf3afb-19e1-42de-b0e3-4755cb5378ca"
      (reference "D?") (unit 1) (value "LED") (footprint "LED_SMD:LED_0805_2012Metric_Pad1.15x1.40mm_HandSolder")
    )
    (path "/c884ff7b-98f4-480e-8742-a70a597f8c7c/2805150f-603c-4ecc-a821-601102df5318"
      (reference "D?") (unit 1) (value "LED") (footprint "LED_SMD:LED_0805_2012Metric_Pad1.15x1.40mm_HandSolder")
    )
    (path "/96699991-74c6-4e9f-9d25-097a9a29feee/2faf6c83-62cd-40cc-8355-8d54c35aab8a"
      (reference "D?") (unit 1) (value "D_Schottky") (footprint "Diode_SMD:D_SOD-323")
    )
    (path "/c884ff7b-98f4-480e-8742-a70a597f8c7c/334d2aea-23a6-47a1-8548-51ea33472ce4"
      (reference "D?") (unit 1) (value "LED") (footprint "LED_SMD:LED_0805_2012Metric_Pad1.15x1.40mm_HandSolder")
    )
    (path "/c884ff7b-98f4-480e-8742-a70a597f8c7c/4401844c-d56a-4683-9c80-22e37ab1bfcc"
      (reference "D?") (unit 1) (value "LED") (footprint "LED_SMD:LED_0805_2012Metric_Pad1.15x1.40mm_HandSolder")
    )
    (path "/c884ff7b-98f4-480e-8742-a70a597f8c7c/58cc7be8-3e05-4fa8-9617-5c2c9a7cb63a"
      (reference "D?") (unit 1) (value "RCLAMP0524PATCT") (footprint "RCLAMP0524PATCT")
    )
    (path "/c884ff7b-98f4-480e-8742-a70a597f8c7c/6b41202c-9017-4555-8823-836bda0ce6bf"
      (reference "D?") (unit 1) (value "LED") (footprint "LED_SMD:LED_0805_2012Metric_Pad1.15x1.40mm_HandSolder")
    )
    (path "/c884ff7b-98f4-480e-8742-a70a597f8c7c/6fc77fe5-79e6-450e-b23d-5030c1d9462e"
      (reference "D?") (unit 1) (value "LED") (footprint "LED_SMD:LED_0805_2012Metric_Pad1.15x1.40mm_HandSolder")
    )
    (path "/c884ff7b-98f4-480e-8742-a70a597f8c7c/7ec119d9-9cd1-4e53-8ad0-bc8cee5fc3fd"
      (reference "D?") (unit 1) (value "LED") (footprint "LED_SMD:LED_0805_2012Metric_Pad1.15x1.40mm_HandSolder")
    )
    (path "/c884ff7b-98f4-480e-8742-a70a597f8c7c/7fb03ecf-13dc-40e1-973b-2e2bad4ef15d"
      (reference "D?") (unit 1) (value "RCLAMP0524PATCT") (footprint "RCLAMP0524PATCT")
    )
    (path "/c884ff7b-98f4-480e-8742-a70a597f8c7c/86090040-b365-4d11-b739-ee1850f341f6"
      (reference "D?") (unit 1) (value "LED") (footprint "LED_SMD:LED_0805_2012Metric_Pad1.15x1.40mm_HandSolder")
    )
    (path "/c884ff7b-98f4-480e-8742-a70a597f8c7c/a3d30bdf-c68b-4ea0-97c2-1ef75d6f7f78"
      (reference "D?") (unit 1) (value "LED") (footprint "LED_SMD:LED_0805_2012Metric_Pad1.15x1.40mm_HandSolder")
    )
    (path "/96699991-74c6-4e9f-9d25-097a9a29feee/683494ab-83e3-4e0e-9f47-9b1d32dcbe51/af841cc7-411b-4fa7-bf12-b2b6bf90990e"
      (reference "D?") (unit 1) (value "PSM712-LF-T7") (footprint "")
    )
    (path "/c884ff7b-98f4-480e-8742-a70a597f8c7c/c41f6407-8adc-4c40-b777-d1220528ff49"
      (reference "D?") (unit 1) (value "RCLAMP0524PATCT") (footprint "RCLAMP0524PATCT")
    )
    (path "/c884ff7b-98f4-480e-8742-a70a597f8c7c/c5dc3d9d-6ef1-42e1-836d-66cbce4896de"
      (reference "D?") (unit 1) (value "LED") (footprint "LED_SMD:LED_0805_2012Metric_Pad1.15x1.40mm_HandSolder")
    )
    (path "/c884ff7b-98f4-480e-8742-a70a597f8c7c/cb4da48e-e02c-44c1-82c9-1a37e9e67eeb"
      (reference "D?") (unit 1) (value "LED") (footprint "LED_SMD:LED_0805_2012Metric_Pad1.15x1.40mm_HandSolder")
    )
    (path "/c884ff7b-98f4-480e-8742-a70a597f8c7c/d4b4f1c6-f9f0-4c00-8754-53e7b5e5e549"
      (reference "D?") (unit 1) (value "LED") (footprint "LED_SMD:LED_0805_2012Metric_Pad1.15x1.40mm_HandSolder")
    )
    (path "/96699991-74c6-4e9f-9d25-097a9a29feee/ff10a540-c78d-4882-a674-b277aa25339e"
      (reference "FB?") (unit 1) (value "120R") (footprint "Resistor_SMD:R_0805_2012Metric")
    )
    (path "/c884ff7b-98f4-480e-8742-a70a597f8c7c/2d21f937-a61b-48d5-b6f6-bb321f2ca84e"
      (reference "IC?") (unit 1) (value "FSUSB30MUX") (footprint "SOP50P490X110-10N")
    )
    (path "/c884ff7b-98f4-480e-8742-a70a597f8c7c/30cc1bc8-edfc-411b-a620-55f3e52d1442"
      (reference "IC?") (unit 1) (value "FE2.1_QFP") (footprint "QFP50P900X900X160-48N")
    )
    (path "/bb7251a8-9c6f-490e-a604-fe4b34be3d98/02ab9e83-b6ac-4ce5-9d19-df0ae2667345"
      (reference "J?") (unit 1) (value "HDMI_A_1.4") (footprint "CM4IO:EDAC 690-019-298-412")
    )
    (path "/bb7251a8-9c6f-490e-a604-fe4b34be3d98/09e255b2-6ceb-48d3-ab16-dfdfbff7cc7e"
      (reference "J?") (unit 1) (value "Conn_01x22_Female") (footprint "CM4IO:Hirose_FH12-22S-0.5SH_1x22-1MP_P0.50mm_Horizontal")
    )
    (path "/96699991-74c6-4e9f-9d25-097a9a29feee/19b34829-0d2b-4d7e-88d0-18f60c5e9fb7"
      (reference "J?") (unit 1) (value "Conn_ARM_JTAG_SWD_10") (footprint "Connector:Tag-Connect_TC2050-IDC-FP_2x05_P1.27mm_Vertical")
    )
    (path "/bb7251a8-9c6f-490e-a604-fe4b34be3d98/249b64a0-39fb-4071-b23e-bf9bccb7abc0"
      (reference "J?") (unit 1) (value "Conn_01x22_Female") (footprint "CM4IO:Hirose_FH12-22S-0.5SH_1x22-1MP_P0.50mm_Horizontal")
    )
    (path "/bb7251a8-9c6f-490e-a604-fe4b34be3d98/8ac482af-b968-4b44-a171-9184a7062740"
      (reference "J?") (unit 1) (value "Conn_01x22_Female") (footprint "CM4IO:Hirose_FH12-22S-0.5SH_1x22-1MP_P0.50mm_Horizontal")
    )
    (path "/bb7251a8-9c6f-490e-a604-fe4b34be3d98/95513a05-1ba8-4d8a-991b-c2b0dc386b34"
      (reference "J?") (unit 1) (value "Conn_01x22_Female") (footprint "CM4IO:Hirose_FH12-22S-0.5SH_1x22-1MP_P0.50mm_Horizontal")
    )
    (path "/bb7251a8-9c6f-490e-a604-fe4b34be3d98/95576a76-91bb-4db4-bcad-45ffa1fb7580"
      (reference "J?") (unit 1) (value "PCIe-x1") (footprint "CM4IO:PCIex1-36")
    )
    (path "/96699991-74c6-4e9f-9d25-097a9a29feee/832d1e59-b8be-441f-a77f-2cc1a3c6953f/b61d4abb-9ce0-48d3-9c53-5c624ca490e4"
      (reference "J?") (unit 1) (value "Conn_01x03") (footprint "")
    )
    (path "/c884ff7b-98f4-480e-8742-a70a597f8c7c/cd763078-6e8e-42d0-a7f6-5b08fa59c64e"
      (reference "J?") (unit 1) (value "USB_B_Nicro") (footprint "Connector_USB:USB_Mini-B_Wuerth_65100516121_Horizontal")
    )
    (path "/c884ff7b-98f4-480e-8742-a70a597f8c7c/cde96bb9-b9ba-4646-b410-d18c4f907e2c"
      (reference "J?") (unit 1) (value "USB_67298-4090") (footprint "CM4IO:MOLEX_USB_67298-4090")
    )
    (path "/c884ff7b-98f4-480e-8742-a70a597f8c7c/d4ccb5b5-54ad-4d3e-b68d-65358f77636f"
      (reference "J?") (unit 1) (value "USB_67298-4090") (footprint "CM4IO:MOLEX_USB_67298-4090")
    )
    (path "/1d6f22d6-14ad-40e9-a327-52c9670022bb/d7a2ea51-a396-4803-9f46-e381b1259172"
      (reference "J?") (unit 1) (value "Micro_SD_Card_Det") (footprint "")
    )
    (path "/c884ff7b-98f4-480e-8742-a70a597f8c7c/e6e13d1c-360e-4fa0-9b92-15c11b8ce28d"
      (reference "J?") (unit 1) (value "Conn_01x05_Nale") (footprint "Connector_JST:JST_EH_B5B-EH-A_1x05_P2.50mm_Vertical")
    )
    (path "/c884ff7b-98f4-480e-8742-a70a597f8c7c/ef2a9e5b-9660-47a1-b722-a1620266b6c7"
      (reference "J?") (unit 1) (value "USB_67298-4090") (footprint "CM4IO:MOLEX_USB_67298-4090")
    )
    (path "/bb7251a8-9c6f-490e-a604-fe4b34be3d98/fb078252-2c69-4f10-b8ca-ec674f33126f"
      (reference "J?") (unit 1) (value "HDMI_A_1.4") (footprint "CM4IO:EDAC 690-019-298-412")
    )
    (path "/c884ff7b-98f4-480e-8742-a70a597f8c7c/707ce6f2-1ac6-4462-a2bc-9ac9b108b34c"
      (reference "JP?") (unit 1) (value "SolderJumper_2_Open") (footprint "Jumper:SolderJumper-2_P1.3mm_Open_RoundedPad1.0x1.5mm")
    )
    (path "/c884ff7b-98f4-480e-8742-a70a597f8c7c/d1e9102d-847e-487a-a9fc-2aae6eaa510f"
      (reference "JP?") (unit 1) (value "SolderJumper_2_Open") (footprint "Jumper:SolderJumper-2_P1.3mm_Open_RoundedPad1.0x1.5mm")
    )
    (path "/1d6f22d6-14ad-40e9-a327-52c9670022bb/1b734947-4591-44d6-ba02-cd89adc71133"
      (reference "Module?") (unit 1) (value "ComputeModule4-CM4") (footprint "CM4IO:Raspberry-Pi-4-Compute-Module")
    )
    (path "/bb7251a8-9c6f-490e-a604-fe4b34be3d98/45b195c2-72f5-4872-8a09-3bb305675d03"
      (reference "Module?") (unit 2) (value "ComputeModule4-CM4") (footprint "CM4IO:Raspberry-Pi-4-Compute-Module")
    )
    (path "/c884ff7b-98f4-480e-8742-a70a597f8c7c/bda80550-3fc7-4e3e-a060-72c58fbfc4e0"
      (reference "NT?") (unit 1) (value "NetTie_2") (footprint "")
    )
    (path "/96699991-74c6-4e9f-9d25-097a9a29feee/832d1e59-b8be-441f-a77f-2cc1a3c6953f/c655a54b-abba-4679-b98d-61e8613980bd"
      (reference "Q?") (unit 1) (value "2N7002") (footprint "Package_TO_SOT_SMD:SOT-23")
    )
    (path "/c884ff7b-98f4-480e-8742-a70a597f8c7c/0d9ea084-95f7-4a95-9381-6b6c689d33a9"
      (reference "R?") (unit 1) (value "470") (footprint "Resistor_SMD:R_0402_1005Metric_Pad0.72x0.64mm_HandSolder")
    )
    (path "/c884ff7b-98f4-480e-8742-a70a597f8c7c/0f7f5736-73d3-48d8-a7db-d81cc6252c7d"
      (reference "R?") (unit 1) (value "470") (footprint "Resistor_SMD:R_0402_1005Metric_Pad0.72x0.64mm_HandSolder")
    )
    (path "/96699991-74c6-4e9f-9d25-097a9a29feee/683494ab-83e3-4e0e-9f47-9b1d32dcbe51/15d7253e-5f50-4592-b0b0-14913d4012c4"
      (reference "R?") (unit 1) (value "120") (footprint "Resistor_SMD:R_0402_1005Metric")
    )
    (path "/c884ff7b-98f4-480e-8742-a70a597f8c7c/21c7dbba-3088-4967-9600-6fe15b085e86"
      (reference "R?") (unit 1) (value "470") (footprint "Resistor_SMD:R_0402_1005Metric_Pad0.72x0.64mm_HandSolder")
    )
    (path "/96699991-74c6-4e9f-9d25-097a9a29feee/683494ab-83e3-4e0e-9f47-9b1d32dcbe51/2aee349e-4aa9-41a2-9181-5659a60a2fbe"
      (reference "R?") (unit 1) (value "10K") (footprint "Resistor_SMD:R_0402_1005Metric")
    )
    (path "/96699991-74c6-4e9f-9d25-097a9a29feee/41d14a77-a1a1-4f82-be40-67934bda1603"
      (reference "R?") (unit 1) (value "440") (footprint "Resistor_SMD:R_0402_1005Metric")
    )
    (path "/96699991-74c6-4e9f-9d25-097a9a29feee/832d1e59-b8be-441f-a77f-2cc1a3c6953f/4fb0bff6-6312-465f-b724-e0cd0c7442be"
      (reference "R?") (unit 1) (value "1K") (footprint "Resistor_SMD:R_0402_1005Metric")
    )
    (path "/96699991-74c6-4e9f-9d25-097a9a29feee/683494ab-83e3-4e0e-9f47-9b1d32dcbe51/5af144ba-216a-4ca3-91b2-a7ea05c8ee02"
      (reference "R?") (unit 1) (value "100") (footprint "Resistor_SMD:R_0402_1005Metric")
    )
    (path "/c884ff7b-98f4-480e-8742-a70a597f8c7c/72b68bc4-8b8a-480c-9869-b16b44481091"
      (reference "R?") (unit 1) (value "470") (footprint "Resistor_SMD:R_0402_1005Metric_Pad0.72x0.64mm_HandSolder")
    )
    (path "/c884ff7b-98f4-480e-8742-a70a597f8c7c/88ed2d38-2bcc-4fa7-a15b-4337b0fe89de"
      (reference "R?") (unit 1) (value "2.2k") (footprint "Resistor_SMD:R_0603_1608Metric")
    )
    (path "/1d6f22d6-14ad-40e9-a327-52c9670022bb/6e33aeeb-1b7e-46d7-8f44-ec30e8201196/905f56d1-8aff-4e24-9f25-dbbe83a2ea84"
      (reference "R?") (unit 1) (value "2.7k") (footprint "Resistor_SMD:R_0603_1608Metric_Pad0.98x0.95mm_HandSolder")
    )
    (path "/c884ff7b-98f4-480e-8742-a70a597f8c7c/907076e9-2b06-490a-ad0a-fa7039cff072"
      (reference "R?") (unit 1) (value "470") (footprint "Resistor_SMD:R_0402_1005Metric_Pad0.72x0.64mm_HandSolder")
    )
    (path "/c884ff7b-98f4-480e-8742-a70a597f8c7c/97da1807-7c85-4cae-87a9-d0983327c4f5"
      (reference "R?") (unit 1) (value "470") (footprint "Resistor_SMD:R_0402_1005Metric_Pad0.72x0.64mm_HandSolder")
    )
    (path "/c884ff7b-98f4-480e-8742-a70a597f8c7c/9bb82221-2ae2-4ead-9a7f-2072cd56a20e"
      (reference "R?") (unit 1) (value "2.2k") (footprint "Resistor_SMD:R_0603_1608Metric")
    )
    (path "/96699991-74c6-4e9f-9d25-097a9a29feee/683494ab-83e3-4e0e-9f47-9b1d32dcbe51/a3019dce-ce39-4ef5-9115-cb2e17e5d12d"
      (reference "R?") (unit 1) (value "120") (footprint "Resistor_SMD:R_0402_1005Metric")
    )
    (path "/c884ff7b-98f4-480e-8742-a70a597f8c7c/a7c4dac8-d3cc-4ebb-8678-57739ef6cdfb"
      (reference "R?") (unit 1) (value "2.7k") (footprint "Resistor_SMD:R_0201_0603Metric_Pad0.64x0.40mm_HandSolder")
    )
    (path "/96699991-74c6-4e9f-9d25-097a9a29feee/683494ab-83e3-4e0e-9f47-9b1d32dcbe51/aef228d7-d435-43bd-aa7e-5425adb958c8"
      (reference "R?") (unit 1) (value "120") (footprint "Resistor_SMD:R_0402_1005Metric")
    )
    (path "/96699991-74c6-4e9f-9d25-097a9a29feee/c094e4fa-d1aa-4361-8c19-905d3cdd1317"
      (reference "R?") (unit 1) (value "1K") (footprint "Resistor_SMD:R_0402_1005Metric")
    )
    (path "/1d6f22d6-14ad-40e9-a327-52c9670022bb/6e33aeeb-1b7e-46d7-8f44-ec30e8201196/c83f16b9-46bf-4912-a2a7-9f23bd722eed"
      (reference "R?") (unit 1) (value "2.7k") (footprint "Resistor_SMD:R_0603_1608Metric_Pad0.98x0.95mm_HandSolder")
    )
    (path "/c884ff7b-98f4-480e-8742-a70a597f8c7c/d0512fbd-9d48-4cf4-a98d-1e6364c04cef"
      (reference "R?") (unit 1) (value "470") (footprint "Resistor_SMD:R_0402_1005Metric_Pad0.72x0.64mm_HandSolder")
    )
    (path "/96699991-74c6-4e9f-9d25-097a9a29feee/832d1e59-b8be-441f-a77f-2cc1a3c6953f/e1287ce2-d129-4841-b05f-3dd1f25c6fcd"
      (reference "R?") (unit 1) (value "1K") (footprint "Resistor_SMD:R_0402_1005Metric")
    )
    (path "/96699991-74c6-4e9f-9d25-097a9a29feee/683494ab-83e3-4e0e-9f47-9b1d32dcbe51/e2841aab-560b-41fa-b70a-d2923fd42664"
      (reference "R?") (unit 1) (value "120") (footprint "Resistor_SMD:R_0402_1005Metric")
    )
    (path "/96699991-74c6-4e9f-9d25-097a9a29feee/683494ab-83e3-4e0e-9f47-9b1d32dcbe51/e4ebde44-5ee0-4553-9706-daeb607f3813"
      (reference "R?") (unit 1) (value "100") (footprint "Resistor_SMD:R_0402_1005Metric")
    )
    (path "/96699991-74c6-4e9f-9d25-097a9a29feee/ea28b0b6-85f9-44a4-9a9d-13615241f1cc"
      (reference "R?") (unit 1) (value "10K") (footprint "Resistor_SMD:R_0402_1005Metric")
    )
    (path "/96699991-74c6-4e9f-9d25-097a9a29feee/ea6dd025-6df7-4b4c-939b-a688e3f7824c"
      (reference "R?") (unit 1) (value "10K") (footprint "Resistor_SMD:R_0402_1005Metric")
    )
    (path "/96699991-74c6-4e9f-9d25-097a9a29feee/832d1e59-b8be-441f-a77f-2cc1a3c6953f/f28e0f09-8519-4a24-a7aa-2e5936bb6c3e"
      (reference "R?") (unit 1) (value "10K") (footprint "Resistor_SMD:R_0402_1005Metric")
    )
    (path "/96699991-74c6-4e9f-9d25-097a9a29feee/c72f49b8-3b9b-44a2-bb44-25315ffb7eed"
      (reference "SW?") (unit 1) (value "SW_MEC_5E") (footprint "Button_Switch_SMD:SW_MEC_5GSH9")
    )
    (path "/96699991-74c6-4e9f-9d25-097a9a29feee/683494ab-83e3-4e0e-9f47-9b1d32dcbe51/1ac5f788-5502-4627-8377-e207cccb0463"
      (reference "U?") (unit 1) (value "SN65HVD230") (footprint "Package_SO:SOIC-8_3.9x4.9mm_P1.27mm")
    )
    (path "/96699991-74c6-4e9f-9d25-097a9a29feee/5f9cfea5-a1d0-4c22-afb8-0bcc6ef65868"
      (reference "U?") (unit 1) (value "STM32F103C8Tx") (footprint "Package_QFP:LQFP-48_7x7mm_P0.5mm")
    )
    (path "/1d6f22d6-14ad-40e9-a327-52c9670022bb/6e33aeeb-1b7e-46d7-8f44-ec30e8201196/df93d791-8a79-437a-b5ea-e96d471e8093"
      (reference "U?") (unit 1) (value "MPU-6050") (footprint "Sensor_Motion:InvenSense_QFN-24_4x4mm_P0.5mm")
    )
    (path "/c884ff7b-98f4-480e-8742-a70a597f8c7c/efdb3bbc-c080-491d-b7b1-4df35fbb0627"
      (reference "U?") (unit 1) (value "M24C02-WMN") (footprint "Package_SO:SOIC-8_3.9x4.9mm_P1.27mm")
    )
    (path "/96699991-74c6-4e9f-9d25-097a9a29feee/f854a503-fa08-48a0-89ab-c7195aa2135d"
      (reference "U?") (unit 1) (value "MAX811SEUS-T") (footprint "Package_TO_SOT_SMD:SOT-143")
    )
    (path "/96699991-74c6-4e9f-9d25-097a9a29feee/38a9857e-aaec-483e-aebb-7668d32a88cf"
      (reference "Y?") (unit 1) (value "Crystal_GND24") (footprint "Crystal:Crystal_SMD_3225-4Pin_3.2x2.5mm")
    )
  )
)
