%TF.GenerationSoftware,KiCad,Pcbnew,(6.0.2)*%
%TF.CreationDate,2022-07-20T19:51:26+02:00*%
%TF.ProjectId,MotorController,4d6f746f-7243-46f6-9e74-726f6c6c6572,rev?*%
%TF.SameCoordinates,Original*%
%TF.FileFunction,Soldermask,Top*%
%TF.FilePolarity,Negative*%
%FSLAX46Y46*%
G04 Gerber Fmt 4.6, Leading zero omitted, Abs format (unit mm)*
G04 Created by KiCad (PCBNEW (6.0.2)) date 2022-07-20 19:51:26*
%MOMM*%
%LPD*%
G01*
G04 APERTURE LIST*
G04 Aperture macros list*
%AMRoundRect*
0 Rectangle with rounded corners*
0 $1 Rounding radius*
0 $2 $3 $4 $5 $6 $7 $8 $9 X,Y pos of 4 corners*
0 Add a 4 corners polygon primitive as box body*
4,1,4,$2,$3,$4,$5,$6,$7,$8,$9,$2,$3,0*
0 Add four circle primitives for the rounded corners*
1,1,$1+$1,$2,$3*
1,1,$1+$1,$4,$5*
1,1,$1+$1,$6,$7*
1,1,$1+$1,$8,$9*
0 Add four rect primitives between the rounded corners*
20,1,$1+$1,$2,$3,$4,$5,0*
20,1,$1+$1,$4,$5,$6,$7,0*
20,1,$1+$1,$6,$7,$8,$9,0*
20,1,$1+$1,$8,$9,$2,$3,0*%
G04 Aperture macros list end*
%ADD10C,0.800000*%
%ADD11C,6.400000*%
%ADD12RoundRect,0.135000X0.185000X-0.135000X0.185000X0.135000X-0.185000X0.135000X-0.185000X-0.135000X0*%
%ADD13R,1.700000X1.700000*%
%ADD14O,1.700000X1.700000*%
%ADD15R,0.450000X0.600000*%
%ADD16RoundRect,0.250000X0.625000X-0.400000X0.625000X0.400000X-0.625000X0.400000X-0.625000X-0.400000X0*%
%ADD17RoundRect,0.150000X0.150000X-0.512500X0.150000X0.512500X-0.150000X0.512500X-0.150000X-0.512500X0*%
%ADD18RoundRect,0.140000X-0.170000X0.140000X-0.170000X-0.140000X0.170000X-0.140000X0.170000X0.140000X0*%
%ADD19RoundRect,0.150000X0.587500X0.150000X-0.587500X0.150000X-0.587500X-0.150000X0.587500X-0.150000X0*%
%ADD20RoundRect,0.135000X-0.185000X0.135000X-0.185000X-0.135000X0.185000X-0.135000X0.185000X0.135000X0*%
%ADD21RoundRect,0.140000X0.170000X-0.140000X0.170000X0.140000X-0.170000X0.140000X-0.170000X-0.140000X0*%
%ADD22R,1.600000X1.600000*%
%ADD23C,1.600000*%
%ADD24RoundRect,1.500000X1.500000X-1.500000X1.500000X1.500000X-1.500000X1.500000X-1.500000X-1.500000X0*%
%ADD25C,6.000000*%
%ADD26RoundRect,0.140000X0.140000X0.170000X-0.140000X0.170000X-0.140000X-0.170000X0.140000X-0.170000X0*%
%ADD27RoundRect,0.140000X-0.140000X-0.170000X0.140000X-0.170000X0.140000X0.170000X-0.140000X0.170000X0*%
%ADD28R,0.600000X1.550000*%
%ADD29R,3.100000X2.600000*%
%ADD30R,0.650000X1.500000*%
%ADD31R,1.800000X1.350000*%
%ADD32RoundRect,0.135000X-0.135000X-0.185000X0.135000X-0.185000X0.135000X0.185000X-0.135000X0.185000X0*%
%ADD33RoundRect,0.250000X0.450000X-0.262500X0.450000X0.262500X-0.450000X0.262500X-0.450000X-0.262500X0*%
%ADD34RoundRect,0.243750X-0.243750X-0.456250X0.243750X-0.456250X0.243750X0.456250X-0.243750X0.456250X0*%
%ADD35R,2.950000X3.500000*%
%ADD36R,3.000000X3.000000*%
%ADD37C,3.000000*%
%ADD38R,1.500000X2.000000*%
%ADD39R,3.800000X2.000000*%
%ADD40RoundRect,0.250000X1.000000X-1.950000X1.000000X1.950000X-1.000000X1.950000X-1.000000X-1.950000X0*%
%ADD41RoundRect,0.250000X1.625000X-0.587500X1.625000X0.587500X-1.625000X0.587500X-1.625000X-0.587500X0*%
%ADD42RoundRect,0.100000X0.637500X0.100000X-0.637500X0.100000X-0.637500X-0.100000X0.637500X-0.100000X0*%
%ADD43RoundRect,0.243750X0.243750X0.456250X-0.243750X0.456250X-0.243750X-0.456250X0.243750X-0.456250X0*%
%ADD44RoundRect,0.160000X0.160000X-0.197500X0.160000X0.197500X-0.160000X0.197500X-0.160000X-0.197500X0*%
%ADD45RoundRect,0.150000X-0.587500X-0.150000X0.587500X-0.150000X0.587500X0.150000X-0.587500X0.150000X0*%
%ADD46RoundRect,0.250000X-0.325000X-0.650000X0.325000X-0.650000X0.325000X0.650000X-0.325000X0.650000X0*%
%ADD47C,2.374900*%
%ADD48C,0.990600*%
%ADD49C,0.787400*%
%ADD50RoundRect,0.160000X0.197500X0.160000X-0.197500X0.160000X-0.197500X-0.160000X0.197500X-0.160000X0*%
%ADD51R,1.300000X1.700000*%
%ADD52RoundRect,0.075000X-0.662500X-0.075000X0.662500X-0.075000X0.662500X0.075000X-0.662500X0.075000X0*%
%ADD53RoundRect,0.075000X-0.075000X-0.662500X0.075000X-0.662500X0.075000X0.662500X-0.075000X0.662500X0*%
%ADD54RoundRect,0.135000X0.135000X0.185000X-0.135000X0.185000X-0.135000X-0.185000X0.135000X-0.185000X0*%
%ADD55RoundRect,0.250000X-0.450000X0.262500X-0.450000X-0.262500X0.450000X-0.262500X0.450000X0.262500X0*%
%ADD56R,1.200000X1.400000*%
G04 APERTURE END LIST*
D10*
%TO.C,H2*%
X103702944Y-45697056D03*
X107097056Y-42302944D03*
X105400000Y-46400000D03*
X107097056Y-45697056D03*
X107800000Y-44000000D03*
X105400000Y-41600000D03*
X103702944Y-42302944D03*
X103000000Y-44000000D03*
D11*
X105400000Y-44000000D03*
%TD*%
D12*
%TO.C,R59*%
X103530000Y-101500000D03*
X103530000Y-100480000D03*
%TD*%
D13*
%TO.C,J19*%
X18200000Y-110220000D03*
D14*
X18200000Y-112760000D03*
X18200000Y-115300000D03*
X18200000Y-117840000D03*
%TD*%
D15*
%TO.C,D4*%
X79350000Y-122250000D03*
X79350000Y-124350000D03*
%TD*%
D16*
%TO.C,R1*%
X90004494Y-60250000D03*
X90004494Y-57150000D03*
%TD*%
D13*
%TO.C,J16*%
X85300000Y-112500000D03*
D14*
X87840000Y-112500000D03*
X90380000Y-112500000D03*
X92920000Y-112500000D03*
X95460000Y-112500000D03*
X98000000Y-112500000D03*
%TD*%
D16*
%TO.C,R5*%
X57920000Y-60750000D03*
X57920000Y-57650000D03*
%TD*%
D17*
%TO.C,U3*%
X64990000Y-60317500D03*
X65940000Y-60317500D03*
X66890000Y-60317500D03*
X66890000Y-58042500D03*
X65940000Y-58042500D03*
X64990000Y-58042500D03*
%TD*%
D18*
%TO.C,C12*%
X44160000Y-53620000D03*
X44160000Y-54580000D03*
%TD*%
%TO.C,C13*%
X65460000Y-53620000D03*
X65460000Y-54580000D03*
%TD*%
D19*
%TO.C,Q7*%
X25337500Y-112570000D03*
X25337500Y-110670000D03*
X23462500Y-111620000D03*
%TD*%
D13*
%TO.C,J14*%
X85350000Y-88800000D03*
D14*
X87890000Y-88800000D03*
X90430000Y-88800000D03*
X92970000Y-88800000D03*
X95510000Y-88800000D03*
X98050000Y-88800000D03*
%TD*%
D20*
%TO.C,R27*%
X27300000Y-102110000D03*
X27300000Y-103130000D03*
%TD*%
%TO.C,R39*%
X27300000Y-98310000D03*
X27300000Y-99330000D03*
%TD*%
%TO.C,R36*%
X27200000Y-83810000D03*
X27200000Y-84830000D03*
%TD*%
D21*
%TO.C,C34*%
X57600000Y-85660000D03*
X57600000Y-84700000D03*
%TD*%
D13*
%TO.C,J26*%
X85110000Y-96000000D03*
D14*
X87650000Y-96000000D03*
X90190000Y-96000000D03*
X92730000Y-96000000D03*
%TD*%
D20*
%TO.C,R24*%
X27300000Y-87520000D03*
X27300000Y-88540000D03*
%TD*%
D22*
%TO.C,C20*%
X88620000Y-47205113D03*
D23*
X88620000Y-44705113D03*
%TD*%
D13*
%TO.C,J7*%
X62900000Y-128000000D03*
D14*
X60360000Y-128000000D03*
X57820000Y-128000000D03*
X55280000Y-128000000D03*
X52740000Y-128000000D03*
X50200000Y-128000000D03*
%TD*%
D24*
%TO.C,J28*%
X109500000Y-72900000D03*
D25*
X109500000Y-65700000D03*
%TD*%
D21*
%TO.C,C16*%
X65420000Y-50600000D03*
X65420000Y-49640000D03*
%TD*%
D26*
%TO.C,C36*%
X104250000Y-84910000D03*
X103290000Y-84910000D03*
%TD*%
D19*
%TO.C,Q8*%
X25637500Y-99070000D03*
X25637500Y-97170000D03*
X23762500Y-98120000D03*
%TD*%
D27*
%TO.C,C43*%
X27200000Y-82720000D03*
X28160000Y-82720000D03*
%TD*%
D13*
%TO.C,J20*%
X18100000Y-81920000D03*
D14*
X18100000Y-84460000D03*
X18100000Y-87000000D03*
X18100000Y-89540000D03*
%TD*%
D18*
%TO.C,C32*%
X61700000Y-84700000D03*
X61700000Y-85660000D03*
%TD*%
D28*
%TO.C,U1*%
X22695000Y-70387500D03*
X23965000Y-70387500D03*
X25235000Y-70387500D03*
X26505000Y-70387500D03*
X26505000Y-64987500D03*
X25235000Y-64987500D03*
X23965000Y-64987500D03*
X22695000Y-64987500D03*
D29*
X24600000Y-67687500D03*
%TD*%
D30*
%TO.C,U11*%
X81465000Y-54600000D03*
X82735000Y-54600000D03*
X84005000Y-54600000D03*
X85275000Y-54600000D03*
X85275000Y-49200000D03*
X84005000Y-49200000D03*
X82735000Y-49200000D03*
X81465000Y-49200000D03*
D31*
X84270000Y-52575000D03*
X82470000Y-51225000D03*
X82470000Y-52575000D03*
X84270000Y-51225000D03*
%TD*%
D12*
%TO.C,R23*%
X93190000Y-120720000D03*
X93190000Y-119700000D03*
%TD*%
%TO.C,R29*%
X110450000Y-83310000D03*
X110450000Y-82290000D03*
%TD*%
%TO.C,R60*%
X109830000Y-101210000D03*
X109830000Y-100190000D03*
%TD*%
D32*
%TO.C,R19*%
X90880000Y-119710000D03*
X91900000Y-119710000D03*
%TD*%
D30*
%TO.C,U13*%
X70915000Y-54600000D03*
X72185000Y-54600000D03*
X73455000Y-54600000D03*
X74725000Y-54600000D03*
X74725000Y-49200000D03*
X73455000Y-49200000D03*
X72185000Y-49200000D03*
X70915000Y-49200000D03*
D31*
X73720000Y-52575000D03*
X73720000Y-51225000D03*
X71920000Y-51225000D03*
X71920000Y-52575000D03*
%TD*%
D20*
%TO.C,R30*%
X20700000Y-116310000D03*
X20700000Y-117330000D03*
%TD*%
D33*
%TO.C,FB4*%
X41320000Y-60225000D03*
X41320000Y-58400000D03*
%TD*%
D27*
%TO.C,C46*%
X27220000Y-97220000D03*
X28180000Y-97220000D03*
%TD*%
D20*
%TO.C,R61*%
X109830000Y-102190000D03*
X109830000Y-103210000D03*
%TD*%
D27*
%TO.C,C35*%
X27220000Y-86420000D03*
X28180000Y-86420000D03*
%TD*%
D22*
%TO.C,C19*%
X67560000Y-47205113D03*
D23*
X67560000Y-44705113D03*
%TD*%
D21*
%TO.C,C50*%
X22100000Y-97600000D03*
X22100000Y-96640000D03*
%TD*%
D34*
%TO.C,D2*%
X60062500Y-76500000D03*
X61937500Y-76500000D03*
%TD*%
D12*
%TO.C,R57*%
X109830000Y-97210000D03*
X109830000Y-96190000D03*
%TD*%
D35*
%TO.C,L1*%
X18175000Y-75187500D03*
X23625000Y-75187500D03*
%TD*%
D17*
%TO.C,U15*%
X96990000Y-60037500D03*
X97940000Y-60037500D03*
X98890000Y-60037500D03*
X98890000Y-57762500D03*
X97940000Y-57762500D03*
X96990000Y-57762500D03*
%TD*%
D27*
%TO.C,C63*%
X24240000Y-60900000D03*
X25200000Y-60900000D03*
%TD*%
D36*
%TO.C,J4*%
X49785000Y-38600000D03*
D37*
X54865000Y-38600000D03*
%TD*%
D30*
%TO.C,U12*%
X49555000Y-54600000D03*
X50825000Y-54600000D03*
X52095000Y-54600000D03*
X53365000Y-54600000D03*
X53365000Y-49200000D03*
X52095000Y-49200000D03*
X50825000Y-49200000D03*
X49555000Y-49200000D03*
D31*
X50560000Y-52575000D03*
X52360000Y-51225000D03*
X50560000Y-51225000D03*
X52360000Y-52575000D03*
%TD*%
D38*
%TO.C,U7*%
X43400000Y-78150000D03*
D39*
X41100000Y-84450000D03*
D38*
X41100000Y-78150000D03*
X38800000Y-78150000D03*
%TD*%
D12*
%TO.C,R25*%
X104150000Y-83810000D03*
X104150000Y-82790000D03*
%TD*%
D40*
%TO.C,C6*%
X34000000Y-75287500D03*
X34000000Y-66887500D03*
%TD*%
D13*
%TO.C,J25*%
X85350000Y-85000000D03*
D14*
X87890000Y-85000000D03*
X90430000Y-85000000D03*
X92970000Y-85000000D03*
%TD*%
D13*
%TO.C,J11*%
X44150000Y-117020000D03*
D14*
X41610000Y-117020000D03*
X39070000Y-117020000D03*
X36530000Y-117020000D03*
X33990000Y-117020000D03*
X31450000Y-117020000D03*
%TD*%
D36*
%TO.C,J2*%
X60460000Y-38600000D03*
D37*
X65540000Y-38600000D03*
%TD*%
D32*
%TO.C,R17*%
X34690000Y-58200000D03*
X35710000Y-58200000D03*
%TD*%
D20*
%TO.C,R22*%
X93190000Y-117500000D03*
X93190000Y-118520000D03*
%TD*%
D22*
%TO.C,C25*%
X56985000Y-47205113D03*
D23*
X56985000Y-44705113D03*
%TD*%
D41*
%TO.C,SS1*%
X19500000Y-69100000D03*
X19500000Y-64725000D03*
%TD*%
D18*
%TO.C,C54*%
X109212500Y-116520000D03*
X109212500Y-117480000D03*
%TD*%
D13*
%TO.C,J10*%
X112950000Y-118110000D03*
D14*
X112950000Y-115570000D03*
X112950000Y-113030000D03*
X112950000Y-110490000D03*
%TD*%
D42*
%TO.C,U8*%
X27362500Y-57175000D03*
X27362500Y-56525000D03*
X27362500Y-55875000D03*
X27362500Y-55225000D03*
X27362500Y-54575000D03*
X27362500Y-53925000D03*
X27362500Y-53275000D03*
X27362500Y-52625000D03*
X21637500Y-52625000D03*
X21637500Y-53275000D03*
X21637500Y-53925000D03*
X21637500Y-54575000D03*
X21637500Y-55225000D03*
X21637500Y-55875000D03*
X21637500Y-56525000D03*
X21637500Y-57175000D03*
%TD*%
D10*
%TO.C,H3*%
X27097056Y-125697056D03*
X23000000Y-124000000D03*
X25400000Y-126400000D03*
D11*
X25400000Y-124000000D03*
D10*
X27800000Y-124000000D03*
X25400000Y-121600000D03*
X23702944Y-125697056D03*
X27097056Y-122302944D03*
X23702944Y-122302944D03*
%TD*%
D20*
%TO.C,R53*%
X110350000Y-116490000D03*
X110350000Y-117510000D03*
%TD*%
D17*
%TO.C,U6*%
X53970000Y-60737500D03*
X54920000Y-60737500D03*
X55870000Y-60737500D03*
X55870000Y-58462500D03*
X54920000Y-58462500D03*
X53970000Y-58462500D03*
%TD*%
D21*
%TO.C,C23*%
X54785000Y-50580000D03*
X54785000Y-49620000D03*
%TD*%
D12*
%TO.C,R32*%
X20900000Y-87330000D03*
X20900000Y-86310000D03*
%TD*%
%TO.C,R49*%
X110350000Y-111180000D03*
X110350000Y-110160000D03*
%TD*%
D20*
%TO.C,R45*%
X110450000Y-88290000D03*
X110450000Y-89310000D03*
%TD*%
D10*
%TO.C,H1*%
X25400000Y-41600000D03*
X27800000Y-44000000D03*
X27097056Y-42302944D03*
X23702944Y-42302944D03*
X23702944Y-45697056D03*
X25400000Y-46400000D03*
X23000000Y-44000000D03*
D11*
X25400000Y-44000000D03*
D10*
X27097056Y-45697056D03*
%TD*%
D19*
%TO.C,Q5*%
X25537500Y-84610000D03*
X25537500Y-82710000D03*
X23662500Y-83660000D03*
%TD*%
D33*
%TO.C,FB7*%
X95120000Y-59715000D03*
X95120000Y-57890000D03*
%TD*%
D20*
%TO.C,R38*%
X27100000Y-111710000D03*
X27100000Y-112730000D03*
%TD*%
D18*
%TO.C,C22*%
X76120000Y-53620000D03*
X76120000Y-54580000D03*
%TD*%
%TO.C,C14*%
X86720000Y-53620000D03*
X86720000Y-54580000D03*
%TD*%
D43*
%TO.C,D1*%
X48237500Y-83800000D03*
X46362500Y-83800000D03*
%TD*%
D27*
%TO.C,C8*%
X54020000Y-56920000D03*
X54980000Y-56920000D03*
%TD*%
D16*
%TO.C,R2*%
X68940000Y-60300000D03*
X68940000Y-57200000D03*
%TD*%
D12*
%TO.C,R46*%
X20700000Y-111220000D03*
X20700000Y-110200000D03*
%TD*%
D44*
%TO.C,R52*%
X110350000Y-115467500D03*
X110350000Y-114272500D03*
%TD*%
D13*
%TO.C,J23*%
X113050000Y-89580000D03*
D14*
X113050000Y-87040000D03*
X113050000Y-84500000D03*
X113050000Y-81960000D03*
%TD*%
D15*
%TO.C,D3*%
X60300000Y-122250000D03*
X60300000Y-124350000D03*
%TD*%
D44*
%TO.C,R6*%
X27900000Y-72385000D03*
X27900000Y-71190000D03*
%TD*%
D26*
%TO.C,C53*%
X103930000Y-117000000D03*
X102970000Y-117000000D03*
%TD*%
D12*
%TO.C,R51*%
X103950000Y-115820000D03*
X103950000Y-114800000D03*
%TD*%
D32*
%TO.C,R54*%
X32580000Y-58200000D03*
X33600000Y-58200000D03*
%TD*%
D36*
%TO.C,J5*%
X71120000Y-38600000D03*
D37*
X76200000Y-38600000D03*
%TD*%
D27*
%TO.C,C3*%
X65040000Y-56500000D03*
X66000000Y-56500000D03*
%TD*%
D10*
%TO.C,H4*%
X103702944Y-122302944D03*
X107097056Y-125697056D03*
X107800000Y-124000000D03*
X107097056Y-122302944D03*
D11*
X105400000Y-124000000D03*
D10*
X103702944Y-125697056D03*
X105400000Y-126400000D03*
X103000000Y-124000000D03*
X105400000Y-121600000D03*
%TD*%
D16*
%TO.C,R11*%
X82720000Y-46800000D03*
X82720000Y-43700000D03*
%TD*%
D45*
%TO.C,Q10*%
X105612500Y-115100000D03*
X105612500Y-117000000D03*
X107487500Y-116050000D03*
%TD*%
D16*
%TO.C,R9*%
X40120000Y-46850000D03*
X40120000Y-43750000D03*
%TD*%
D21*
%TO.C,C41*%
X21800000Y-115300000D03*
X21800000Y-114340000D03*
%TD*%
D16*
%TO.C,R4*%
X79420000Y-60650000D03*
X79420000Y-57550000D03*
%TD*%
%TO.C,R3*%
X47220000Y-60500000D03*
X47220000Y-57400000D03*
%TD*%
D12*
%TO.C,R56*%
X103550000Y-97810000D03*
X103550000Y-96790000D03*
%TD*%
D20*
%TO.C,R31*%
X20900000Y-102610000D03*
X20900000Y-103630000D03*
%TD*%
D12*
%TO.C,R35*%
X20900000Y-101630000D03*
X20900000Y-100610000D03*
%TD*%
D21*
%TO.C,C17*%
X86720000Y-50600000D03*
X86720000Y-49640000D03*
%TD*%
D27*
%TO.C,C5*%
X20300000Y-70900000D03*
X21260000Y-70900000D03*
%TD*%
D16*
%TO.C,R12*%
X50885000Y-46800000D03*
X50885000Y-43700000D03*
%TD*%
D27*
%TO.C,C4*%
X43140000Y-56627500D03*
X44100000Y-56627500D03*
%TD*%
D18*
%TO.C,C40*%
X109350000Y-84330000D03*
X109350000Y-85290000D03*
%TD*%
D22*
%TO.C,C26*%
X78120000Y-47205113D03*
D23*
X78120000Y-44705113D03*
%TD*%
D36*
%TO.C,J1*%
X39120000Y-38600000D03*
D37*
X44200000Y-38600000D03*
%TD*%
D46*
%TO.C,C10*%
X40825000Y-75500000D03*
X43775000Y-75500000D03*
%TD*%
D18*
%TO.C,C48*%
X109350000Y-88350000D03*
X109350000Y-89310000D03*
%TD*%
D13*
%TO.C,J18*%
X44300000Y-108720000D03*
D14*
X41760000Y-108720000D03*
X39220000Y-108720000D03*
X36680000Y-108720000D03*
%TD*%
D18*
%TO.C,C56*%
X97060000Y-53440000D03*
X97060000Y-54400000D03*
%TD*%
D19*
%TO.C,Q4*%
X25637500Y-102970000D03*
X25637500Y-101070000D03*
X23762500Y-102020000D03*
%TD*%
D18*
%TO.C,C33*%
X60600000Y-84700000D03*
X60600000Y-85660000D03*
%TD*%
D17*
%TO.C,U5*%
X75470000Y-60617500D03*
X76420000Y-60617500D03*
X77370000Y-60617500D03*
X77370000Y-58342500D03*
X76420000Y-58342500D03*
X75470000Y-58342500D03*
%TD*%
D12*
%TO.C,R44*%
X20900000Y-83360000D03*
X20900000Y-82340000D03*
%TD*%
D45*
%TO.C,Q11*%
X105192500Y-96950000D03*
X105192500Y-98850000D03*
X107067500Y-97900000D03*
%TD*%
%TO.C,Q12*%
X105192500Y-100750000D03*
X105192500Y-102650000D03*
X107067500Y-101700000D03*
%TD*%
D26*
%TO.C,C27*%
X58730000Y-82900000D03*
X57770000Y-82900000D03*
%TD*%
D13*
%TO.C,J17*%
X44140000Y-120920000D03*
D14*
X41600000Y-120920000D03*
X39060000Y-120920000D03*
X36520000Y-120920000D03*
%TD*%
D22*
%TO.C,C18*%
X46360000Y-47205113D03*
D23*
X46360000Y-44705113D03*
%TD*%
D26*
%TO.C,C51*%
X104230000Y-112600000D03*
X103270000Y-112600000D03*
%TD*%
D32*
%TO.C,R14*%
X72890000Y-79700000D03*
X73910000Y-79700000D03*
%TD*%
D26*
%TO.C,C44*%
X104130000Y-88810000D03*
X103170000Y-88810000D03*
%TD*%
D12*
%TO.C,R37*%
X104150000Y-87710000D03*
X104150000Y-86690000D03*
%TD*%
D36*
%TO.C,J9*%
X92320000Y-38600000D03*
D37*
X97400000Y-38600000D03*
%TD*%
D12*
%TO.C,R48*%
X104150000Y-111600000D03*
X104150000Y-110580000D03*
%TD*%
D27*
%TO.C,C2*%
X86024494Y-56537500D03*
X86984494Y-56537500D03*
%TD*%
D20*
%TO.C,R43*%
X20900000Y-98600000D03*
X20900000Y-99620000D03*
%TD*%
D47*
%TO.C,J6*%
X98340000Y-123665000D03*
D48*
X95800000Y-123665000D03*
X94784000Y-131285000D03*
D47*
X93260000Y-129380000D03*
X98340000Y-129380000D03*
X93260000Y-123665000D03*
D48*
X96816000Y-131285000D03*
D49*
X95165000Y-124935000D03*
X95165000Y-126205000D03*
X95165000Y-127475000D03*
X95165000Y-128745000D03*
X95165000Y-130015000D03*
X96435000Y-130015000D03*
X96435000Y-128745000D03*
X96435000Y-127475000D03*
X96435000Y-126205000D03*
X96435000Y-124935000D03*
%TD*%
D50*
%TO.C,R8*%
X46497500Y-81900000D03*
X45302500Y-81900000D03*
%TD*%
D30*
%TO.C,U16*%
X91755000Y-54625000D03*
X93025000Y-54625000D03*
X94295000Y-54625000D03*
X95565000Y-54625000D03*
X95565000Y-49225000D03*
X94295000Y-49225000D03*
X93025000Y-49225000D03*
X91755000Y-49225000D03*
D31*
X92760000Y-51250000D03*
X92760000Y-52600000D03*
X94560000Y-52600000D03*
X94560000Y-51250000D03*
%TD*%
D13*
%TO.C,J13*%
X44450000Y-92120000D03*
D14*
X41910000Y-92120000D03*
X39370000Y-92120000D03*
X36830000Y-92120000D03*
X34290000Y-92120000D03*
X31750000Y-92120000D03*
%TD*%
D21*
%TO.C,C57*%
X97060000Y-50660000D03*
X97060000Y-49700000D03*
%TD*%
D17*
%TO.C,U2*%
X86054494Y-60275000D03*
X87004494Y-60275000D03*
X87954494Y-60275000D03*
X87954494Y-58000000D03*
X87004494Y-58000000D03*
X86054494Y-58000000D03*
%TD*%
D22*
%TO.C,C58*%
X99260000Y-47300000D03*
D23*
X99260000Y-44800000D03*
%TD*%
D32*
%TO.C,R18*%
X90890000Y-118510000D03*
X91910000Y-118510000D03*
%TD*%
D21*
%TO.C,C42*%
X22100000Y-101600000D03*
X22100000Y-100640000D03*
%TD*%
D51*
%TO.C,D7*%
X55250000Y-123900000D03*
X51750000Y-123900000D03*
%TD*%
D27*
%TO.C,C11*%
X22100000Y-58300000D03*
X23060000Y-58300000D03*
%TD*%
D33*
%TO.C,FB2*%
X84184494Y-60015000D03*
X84184494Y-58190000D03*
%TD*%
D45*
%TO.C,Q6*%
X105812500Y-86850000D03*
X105812500Y-88750000D03*
X107687500Y-87800000D03*
%TD*%
D30*
%TO.C,U9*%
X38955000Y-54600000D03*
X40225000Y-54600000D03*
X41495000Y-54600000D03*
X42765000Y-54600000D03*
X42765000Y-49200000D03*
X41495000Y-49200000D03*
X40225000Y-49200000D03*
X38955000Y-49200000D03*
D31*
X41760000Y-51225000D03*
X41760000Y-52575000D03*
X39960000Y-52575000D03*
X39960000Y-51225000D03*
%TD*%
D21*
%TO.C,C24*%
X76220000Y-50680000D03*
X76220000Y-49720000D03*
%TD*%
D46*
%TO.C,C9*%
X40825000Y-73000000D03*
X43775000Y-73000000D03*
%TD*%
D36*
%TO.C,J3*%
X81720000Y-38600000D03*
D37*
X86800000Y-38600000D03*
%TD*%
D13*
%TO.C,J24*%
X44440000Y-96020000D03*
D14*
X41900000Y-96020000D03*
X39360000Y-96020000D03*
X36820000Y-96020000D03*
%TD*%
D13*
%TO.C,J12*%
X44250000Y-104820000D03*
D14*
X41710000Y-104820000D03*
X39170000Y-104820000D03*
X36630000Y-104820000D03*
X34090000Y-104820000D03*
X31550000Y-104820000D03*
%TD*%
D12*
%TO.C,R21*%
X65000000Y-121910000D03*
X65000000Y-120890000D03*
%TD*%
D27*
%TO.C,C55*%
X96820000Y-56300000D03*
X97780000Y-56300000D03*
%TD*%
D18*
%TO.C,C21*%
X54785000Y-53620000D03*
X54785000Y-54580000D03*
%TD*%
D21*
%TO.C,C39*%
X22000000Y-87330000D03*
X22000000Y-86370000D03*
%TD*%
D51*
%TO.C,D6*%
X74500000Y-121500000D03*
X71000000Y-121500000D03*
%TD*%
D33*
%TO.C,FB6*%
X52120000Y-60412500D03*
X52120000Y-58587500D03*
%TD*%
D18*
%TO.C,C52*%
X109250000Y-112190000D03*
X109250000Y-113150000D03*
%TD*%
D13*
%TO.C,J27*%
X85250000Y-108700000D03*
D14*
X87790000Y-108700000D03*
X90330000Y-108700000D03*
X92870000Y-108700000D03*
%TD*%
D18*
%TO.C,C60*%
X108730000Y-98220000D03*
X108730000Y-99180000D03*
%TD*%
D16*
%TO.C,R13*%
X72220000Y-46800000D03*
X72220000Y-43700000D03*
%TD*%
D20*
%TO.C,R26*%
X27000000Y-115920000D03*
X27000000Y-116940000D03*
%TD*%
D21*
%TO.C,C47*%
X22000000Y-83340000D03*
X22000000Y-82380000D03*
%TD*%
D18*
%TO.C,C62*%
X108630000Y-102210000D03*
X108630000Y-103170000D03*
%TD*%
D19*
%TO.C,Q1*%
X25537500Y-88580000D03*
X25537500Y-86680000D03*
X23662500Y-87630000D03*
%TD*%
D20*
%TO.C,R42*%
X20700000Y-112210000D03*
X20700000Y-113230000D03*
%TD*%
D27*
%TO.C,C37*%
X27000000Y-114830000D03*
X27960000Y-114830000D03*
%TD*%
D20*
%TO.C,R50*%
X110350000Y-112160000D03*
X110350000Y-113180000D03*
%TD*%
D45*
%TO.C,Q9*%
X105775000Y-110760000D03*
X105775000Y-112660000D03*
X107650000Y-111710000D03*
%TD*%
D19*
%TO.C,Q3*%
X25337500Y-116770000D03*
X25337500Y-114870000D03*
X23462500Y-115820000D03*
%TD*%
D51*
%TO.C,D8*%
X74450000Y-123900000D03*
X70950000Y-123900000D03*
%TD*%
D17*
%TO.C,U4*%
X43170000Y-60445000D03*
X44120000Y-60445000D03*
X45070000Y-60445000D03*
X45070000Y-58170000D03*
X44120000Y-58170000D03*
X43170000Y-58170000D03*
%TD*%
D20*
%TO.C,R40*%
X20900000Y-84340000D03*
X20900000Y-85360000D03*
%TD*%
D18*
%TO.C,C31*%
X63200000Y-79620000D03*
X63200000Y-80580000D03*
%TD*%
D46*
%TO.C,C1*%
X23845000Y-62700000D03*
X26795000Y-62700000D03*
%TD*%
D12*
%TO.C,R41*%
X110450000Y-87320000D03*
X110450000Y-86300000D03*
%TD*%
D52*
%TO.C,U14*%
X63437500Y-81650000D03*
X63437500Y-82150000D03*
X63437500Y-82650000D03*
X63437500Y-83150000D03*
X63437500Y-83650000D03*
X63437500Y-84150000D03*
X63437500Y-84650000D03*
X63437500Y-85150000D03*
X63437500Y-85650000D03*
X63437500Y-86150000D03*
X63437500Y-86650000D03*
X63437500Y-87150000D03*
D53*
X64850000Y-88562500D03*
X65350000Y-88562500D03*
X65850000Y-88562500D03*
X66350000Y-88562500D03*
X66850000Y-88562500D03*
X67350000Y-88562500D03*
X67850000Y-88562500D03*
X68350000Y-88562500D03*
X68850000Y-88562500D03*
X69350000Y-88562500D03*
X69850000Y-88562500D03*
X70350000Y-88562500D03*
D52*
X71762500Y-87150000D03*
X71762500Y-86650000D03*
X71762500Y-86150000D03*
X71762500Y-85650000D03*
X71762500Y-85150000D03*
X71762500Y-84650000D03*
X71762500Y-84150000D03*
X71762500Y-83650000D03*
X71762500Y-83150000D03*
X71762500Y-82650000D03*
X71762500Y-82150000D03*
X71762500Y-81650000D03*
D53*
X70350000Y-80237500D03*
X69850000Y-80237500D03*
X69350000Y-80237500D03*
X68850000Y-80237500D03*
X68350000Y-80237500D03*
X67850000Y-80237500D03*
X67350000Y-80237500D03*
X66850000Y-80237500D03*
X66350000Y-80237500D03*
X65850000Y-80237500D03*
X65350000Y-80237500D03*
X64850000Y-80237500D03*
%TD*%
D13*
%TO.C,J22*%
X18100000Y-96220000D03*
D14*
X18100000Y-98760000D03*
X18100000Y-101300000D03*
X18100000Y-103840000D03*
%TD*%
D20*
%TO.C,R28*%
X20900000Y-88290000D03*
X20900000Y-89310000D03*
%TD*%
D33*
%TO.C,FB5*%
X73700000Y-60315000D03*
X73700000Y-58490000D03*
%TD*%
D51*
%TO.C,D5*%
X55250000Y-121500000D03*
X51750000Y-121500000D03*
%TD*%
D16*
%TO.C,R55*%
X93060000Y-46750000D03*
X93060000Y-43650000D03*
%TD*%
D21*
%TO.C,C49*%
X21800000Y-111200000D03*
X21800000Y-110240000D03*
%TD*%
D12*
%TO.C,R34*%
X20700000Y-115330000D03*
X20700000Y-114310000D03*
%TD*%
D20*
%TO.C,R58*%
X109830000Y-98190000D03*
X109830000Y-99210000D03*
%TD*%
D27*
%TO.C,C38*%
X27200000Y-101020000D03*
X28160000Y-101020000D03*
%TD*%
D16*
%TO.C,R10*%
X61460000Y-46950000D03*
X61460000Y-43850000D03*
%TD*%
D21*
%TO.C,C15*%
X44160000Y-50680000D03*
X44160000Y-49720000D03*
%TD*%
D33*
%TO.C,FB3*%
X63140000Y-59977500D03*
X63140000Y-58152500D03*
%TD*%
D26*
%TO.C,C30*%
X65180000Y-78600000D03*
X64220000Y-78600000D03*
%TD*%
D27*
%TO.C,C29*%
X70120000Y-90200000D03*
X71080000Y-90200000D03*
%TD*%
D12*
%TO.C,R47*%
X20900000Y-97630000D03*
X20900000Y-96610000D03*
%TD*%
D27*
%TO.C,C45*%
X27020000Y-110620000D03*
X27980000Y-110620000D03*
%TD*%
D54*
%TO.C,R15*%
X76010000Y-79700000D03*
X74990000Y-79700000D03*
%TD*%
D27*
%TO.C,C28*%
X57670000Y-77500000D03*
X58630000Y-77500000D03*
%TD*%
D20*
%TO.C,R33*%
X110450000Y-84300000D03*
X110450000Y-85320000D03*
%TD*%
D55*
%TO.C,FB1*%
X59100000Y-84500000D03*
X59100000Y-86325000D03*
%TD*%
D56*
%TO.C,Y1*%
X59000000Y-81300000D03*
X59000000Y-79100000D03*
X57300000Y-79100000D03*
X57300000Y-81300000D03*
%TD*%
D44*
%TO.C,R7*%
X27900000Y-69985000D03*
X27900000Y-68790000D03*
%TD*%
D16*
%TO.C,R16*%
X100840000Y-60050000D03*
X100840000Y-56950000D03*
%TD*%
D26*
%TO.C,C61*%
X103590000Y-102600000D03*
X102630000Y-102600000D03*
%TD*%
D30*
%TO.C,U10*%
X60180000Y-54600000D03*
X61450000Y-54600000D03*
X62720000Y-54600000D03*
X63990000Y-54600000D03*
X63990000Y-49200000D03*
X62720000Y-49200000D03*
X61450000Y-49200000D03*
X60180000Y-49200000D03*
D31*
X62985000Y-52575000D03*
X61185000Y-52575000D03*
X61185000Y-51225000D03*
X62985000Y-51225000D03*
%TD*%
D13*
%TO.C,J8*%
X82100000Y-127900000D03*
D14*
X79560000Y-127900000D03*
X77020000Y-127900000D03*
X74480000Y-127900000D03*
X71940000Y-127900000D03*
X69400000Y-127900000D03*
%TD*%
D27*
%TO.C,C7*%
X75520000Y-56800000D03*
X76480000Y-56800000D03*
%TD*%
D45*
%TO.C,Q2*%
X105812500Y-82950000D03*
X105812500Y-84850000D03*
X107687500Y-83900000D03*
%TD*%
D26*
%TO.C,C59*%
X103630000Y-98900000D03*
X102670000Y-98900000D03*
%TD*%
D13*
%TO.C,J21*%
X112930000Y-104500000D03*
D14*
X112930000Y-101960000D03*
X112930000Y-99420000D03*
X112930000Y-96880000D03*
%TD*%
D13*
%TO.C,J15*%
X85150000Y-99800000D03*
D14*
X87690000Y-99800000D03*
X90230000Y-99800000D03*
X92770000Y-99800000D03*
X95310000Y-99800000D03*
X97850000Y-99800000D03*
%TD*%
D20*
%TO.C,R20*%
X61300000Y-77990000D03*
X61300000Y-79010000D03*
%TD*%
M02*
