M48
; DRILL file {KiCad (6.0.2)} date Wed Jul 20 19:51:26 2022
; FORMAT={-:-/ absolute / inch / decimal}
; #@! TF.CreationDate,2022-07-20T19:51:26+02:00
; #@! TF.GenerationSoftware,Kicad,Pcbnew,(6.0.2)
; #@! TF.FileFunction,Plated,1,4,PTH
FMAT,2
INCH
; #@! TA.AperFunction,Plated,PTH,ViaDrill
T1C0.0079
; #@! TA.AperFunction,Plated,PTH,ComponentDrill
T2C0.0118
; #@! TA.AperFunction,Plated,PTH,ViaDrill
T3C0.0157
; #@! TA.AperFunction,Plated,PTH,ComponentDrill
T4C0.0197
; #@! TA.AperFunction,Plated,PTH,ComponentDrill
T5C0.0315
; #@! TA.AperFunction,Plated,PTH,ComponentDrill
T6C0.0394
; #@! TA.AperFunction,Plated,PTH,ComponentDrill
T7C0.0598
; #@! TA.AperFunction,Plated,PTH,ComponentDrill
T8C0.1260
; #@! TA.AperFunction,Plated,PTH,ComponentDrill
T9C0.1772
%
G90
G05
T1
X0.7598Y-2.6102
X0.8031Y-2.0709
X0.8031Y-2.122
X0.8031Y-2.1496
X0.8031Y-2.1732
X0.8386Y-4.6181
X0.8504Y-3.3583
X0.8504Y-3.5189
X0.8504Y-3.9252
X0.8504Y-4.0906
X0.8504Y-4.4567
X0.8819Y-4.3433
X0.8819Y-4.5047
X0.8898Y-3.2409
X0.8898Y-3.3976
X0.8937Y-3.8079
X0.8937Y-3.9654
X0.9094Y-2.2638
X0.937Y-2.2362
X0.9646Y-2.2992
X0.9921Y-4.4024
X0.9921Y-4.5638
X1.0Y-3.3
X1.0Y-3.4457
X1.0039Y-3.8709
X1.0039Y-4.0205
X1.0157Y-3.0157
X1.0433Y-3.0157
X1.0709Y-3.0157
X1.0945Y-3.0157
X1.122Y-3.0157
X1.122Y-4.5205
X1.126Y-4.3551
X1.1299Y-3.2567
X1.1299Y-3.4024
X1.1299Y-3.8276
X1.1299Y-3.9772
X1.1417Y-2.252
X1.1535Y-3.0157
X1.1693Y-2.2283
X1.1969Y-2.2008
X1.2205Y-2.1772
X1.252Y-2.2913
X1.2795Y-2.1535
X1.3031Y-2.126
X1.4941Y-2.7933
X1.5Y-2.8346
X1.5236Y-2.0079
X1.5236Y-2.0394
X1.5276Y-3.1575
X1.5276Y-3.185
X1.5276Y-3.2126
X1.5315Y-2.189
X1.5787Y-1.6772
X1.5787Y-3.1575
X1.5787Y-3.185
X1.5787Y-3.2126
X1.5787Y-3.2402
X1.5787Y-3.2677
X1.5906Y-2.2047
X1.6063Y-2.4094
X1.626Y-3.185
X1.626Y-3.2126
X1.626Y-3.2402
X1.626Y-3.2677
X1.6309Y-2.2018
X1.6693Y-3.2402
X1.6693Y-3.2677
X1.6937Y-2.3428
X1.7047Y-2.0079
X1.7047Y-2.0354
X1.7165Y-2.1732
X1.7362Y-2.0354
X1.7362Y-2.4173
X1.744Y-2.2059
X1.7677Y-2.9488
X1.7677Y-2.9882
X1.7677Y-3.0276
X1.7677Y-3.0709
X1.77Y-2.8931
X1.8008Y-2.9275
X1.9016Y-3.3425
X1.937Y-2.0118
X1.937Y-2.0394
X1.9449Y-2.4803
X1.9488Y-2.1929
X1.9764Y-3.3543
X1.9803Y-3.3858
X1.9961Y-2.1969
X2.0Y-4.7835
X2.0Y-4.8819
X2.0039Y-1.6772
X2.0472Y-2.1929
X2.0512Y-2.4134
X2.1181Y-2.0157
X2.1181Y-2.0394
X2.1189Y-2.3534
X2.1339Y-2.1732
X2.1535Y-2.0157
X2.1535Y-2.0394
X2.1654Y-2.4331
X2.1701Y-2.2196
X2.2165Y-3.2008
X2.2283Y-3.2953
X2.2677Y-3.3071
X2.2677Y-3.3976
X2.3346Y-2.4961
X2.3465Y-3.0591
X2.3543Y-2.0118
X2.3543Y-2.0394
X2.3819Y-3.311
X2.4055Y-3.311
X2.4173Y-2.1929
X2.4213Y-1.685
X2.4501Y-3.0856
X2.4685Y-2.1929
X2.4803Y-2.8465
X2.4843Y-2.3976
X2.5276Y-3.126
X2.5276Y-3.1575
X2.5394Y-2.0
X2.5394Y-2.0354
X2.5479Y-3.4342
X2.5512Y-3.249
X2.5512Y-3.3071
X2.5512Y-3.685
X2.5528Y-2.3377
X2.555Y-3.0712
X2.5591Y-2.1693
X2.5591Y-4.8228
X2.563Y-3.6496
X2.5709Y-3.0512
X2.5748Y-2.0354
X2.5748Y-3.2717
X2.579Y-3.7753
X2.5945Y-2.4134
X2.5945Y-3.7992
X2.5994Y-3.7498
X2.6024Y-3.0472
X2.6039Y-2.1999
X2.622Y-3.374
X2.6425Y-3.0463
X2.6565Y-3.0678
X2.6683Y-3.6727
X2.6683Y-3.7181
X2.6875Y-3.6558
X2.689Y-3.063
X2.7105Y-3.6447
X2.7362Y-3.2598
X2.7533Y-3.1184
X2.7598Y-4.7835
X2.7598Y-4.878
X2.7641Y-3.5784
X2.7677Y-3.3701
X2.7717Y-3.4291
X2.7778Y-3.329
X2.7795Y-3.2362
X2.7874Y-2.4961
X2.7933Y-3.1732
X2.8228Y-3.5512
X2.8425Y-1.6772
X2.8425Y-2.1969
X2.8465Y-3.1732
X2.878Y-3.2598
X2.8898Y-4.6339
X2.8937Y-2.1969
X2.9016Y-3.2904
X2.9055Y-2.4173
X2.9213Y-3.3101
X2.9449Y-3.3268
X2.9567Y-1.9921
X2.9567Y-2.0157
X2.9567Y-2.0394
X2.9646Y-4.6299
X2.9685Y-2.3504
X2.9685Y-3.3425
X2.9685Y-4.122
X2.9724Y-3.5157
X2.9803Y-2.0394
X2.9803Y-2.1732
X2.9884Y-3.4604
X2.9921Y-3.3583
X3.0039Y-2.0394
X3.0079Y-2.4252
X3.0079Y-3.4921
X3.0157Y-2.2126
X3.0157Y-3.1339
X3.0157Y-3.378
X3.1535Y-3.0157
X3.189Y-2.0276
X3.2126Y-2.4882
X3.2559Y-1.6811
X3.2559Y-2.1969
X3.3071Y-2.1969
X3.311Y-2.4094
X3.3701Y-2.0118
X3.3701Y-2.0354
X3.3819Y-2.0906
X3.3866Y-2.3416
X3.3937Y-2.0354
X3.3937Y-2.1732
X3.4173Y-2.0354
X3.4224Y-2.4078
X3.4285Y-2.2047
X3.5591Y-3.1339
X3.5984Y-2.0866
X3.6024Y-2.0197
X3.6063Y-2.4843
X3.6181Y-5.0315
X3.6453Y-4.6264
X3.6453Y-4.7524
X3.6575Y-3.2411
X3.6605Y-2.2099
X3.6654Y-1.6772
X3.689Y-4.9843
X3.7341Y-4.6202
X3.7362Y-2.3976
X3.7431Y-2.2296
X3.7717Y-5.0945
X3.7717Y-5.2126
X3.7756Y-2.0118
X3.7756Y-2.0394
X3.7756Y-2.0669
X3.7992Y-2.0394
X3.7992Y-2.0669
X3.8118Y-2.3268
X3.8189Y-2.1693
X3.8268Y-2.0394
X3.8268Y-2.0669
X3.8551Y-2.4016
X3.8551Y-2.193
X3.8622Y-4.9724
X4.0177Y-4.0394
X4.0217Y-3.8937
X4.0335Y-4.6063
X4.0412Y-3.497
X4.0452Y-3.3435
X4.0453Y-4.4331
X4.0472Y-2.4961
X4.1319Y-4.0
X4.1358Y-3.8504
X4.1476Y-4.5669
X4.1594Y-3.4567
X4.1594Y-4.3937
X4.1634Y-3.3031
X4.2539Y-4.0591
X4.2579Y-3.9016
X4.2756Y-3.3583
X4.2776Y-4.4528
X4.2776Y-4.622
X4.2795Y-3.5157
X4.3189Y-3.4016
X4.3189Y-4.5039
X4.3465Y-3.2165
X4.3465Y-3.7835
X4.3465Y-3.9488
X4.3465Y-4.315
T2
X0.8976Y-2.6412
X0.8976Y-2.6885
X0.9449Y-2.6412
X0.9449Y-2.6885
X0.9961Y-2.6412
X0.9961Y-2.6885
X1.0394Y-2.6412
X1.0394Y-2.6885
T3
X0.8307Y-2.2953
X2.5433Y-3.8583
X2.685Y-3.9449
X3.014Y-4.1731
T4
X0.9055Y-1.7323
X0.9055Y-4.8819
X0.9332Y-1.6655
X0.9332Y-1.7991
X0.9332Y-4.8151
X0.9332Y-4.9487
X1.0Y-1.6378
X1.0Y-1.8268
X1.0Y-4.7874
X1.0Y-4.9764
X1.0668Y-1.6655
X1.0668Y-1.7991
X1.0668Y-4.8151
X1.0668Y-4.9487
X1.0945Y-1.7323
X1.0945Y-4.8819
X4.0551Y-1.7323
X4.0551Y-4.8819
X4.0828Y-1.6655
X4.0828Y-1.7991
X4.0828Y-4.8151
X4.0828Y-4.9487
X4.1496Y-1.6378
X4.1496Y-1.8268
X4.1496Y-4.7874
X4.1496Y-4.9764
X4.2164Y-1.6655
X4.2164Y-1.7991
X4.2164Y-4.8151
X4.2164Y-4.9487
X4.2441Y-1.7323
X4.2441Y-4.8819
T5
X1.8252Y-1.76
X1.8252Y-1.8585
X2.2435Y-1.76
X2.2435Y-1.8585
X2.6598Y-1.76
X2.6598Y-1.8585
X3.0756Y-1.76
X3.0756Y-1.8585
X3.489Y-1.76
X3.489Y-1.8585
X3.9079Y-1.7638
X3.9079Y-1.8622
T6
X0.7126Y-3.2252
X0.7126Y-3.3252
X0.7126Y-3.4252
X0.7126Y-3.5252
X0.7126Y-3.7882
X0.7126Y-3.8882
X0.7126Y-3.9882
X0.7126Y-4.0882
X0.7165Y-4.3394
X0.7165Y-4.4394
X0.7165Y-4.5394
X0.7165Y-4.6394
X1.2382Y-4.6071
X1.2421Y-4.1268
X1.25Y-3.6268
X1.3382Y-4.6071
X1.3421Y-4.1268
X1.35Y-3.6268
X1.4378Y-4.7606
X1.4382Y-4.6071
X1.4421Y-4.1268
X1.4441Y-4.2803
X1.4496Y-3.7803
X1.45Y-3.6268
X1.5378Y-4.7606
X1.5382Y-4.6071
X1.5421Y-4.1268
X1.5441Y-4.2803
X1.5496Y-3.7803
X1.55Y-3.6268
X1.6378Y-4.7606
X1.6382Y-4.6071
X1.6421Y-4.1268
X1.6441Y-4.2803
X1.6496Y-3.7803
X1.65Y-3.6268
X1.7378Y-4.7606
X1.7382Y-4.6071
X1.7421Y-4.1268
X1.7441Y-4.2803
X1.7496Y-3.7803
X1.75Y-3.6268
X1.9764Y-5.0394
X2.0764Y-5.0394
X2.1764Y-5.0394
X2.2764Y-5.0394
X2.3764Y-5.0394
X2.4764Y-5.0394
X2.7323Y-5.0354
X2.8323Y-5.0354
X2.9323Y-5.0354
X3.0323Y-5.0354
X3.1323Y-5.0354
X3.2323Y-5.0354
X3.3508Y-3.7795
X3.3524Y-3.9291
X3.3563Y-4.2795
X3.3583Y-4.4291
X3.3602Y-3.3465
X3.3602Y-3.4961
X3.4508Y-3.7795
X3.4524Y-3.9291
X3.4563Y-4.2795
X3.4583Y-4.4291
X3.4602Y-3.3465
X3.4602Y-3.4961
X3.5508Y-3.7795
X3.5524Y-3.9291
X3.5563Y-4.2795
X3.5583Y-4.4291
X3.5602Y-3.3465
X3.5602Y-3.4961
X3.6508Y-3.7795
X3.6524Y-3.9291
X3.6563Y-4.2795
X3.6583Y-4.4291
X3.6602Y-3.3465
X3.6602Y-3.4961
X3.7524Y-3.9291
X3.7583Y-4.4291
X3.7602Y-3.4961
X3.8524Y-3.9291
X3.8583Y-4.4291
X3.8602Y-3.4961
X4.4461Y-3.8142
X4.4461Y-3.9142
X4.4461Y-4.0142
X4.4461Y-4.1142
X4.4469Y-4.35
X4.4469Y-4.45
X4.4469Y-4.55
X4.4469Y-4.65
X4.4508Y-3.2268
X4.4508Y-3.3268
X4.4508Y-3.4268
X4.4508Y-3.5268
T7
X1.5402Y-1.5197
X1.7402Y-1.5197
X1.96Y-1.5197
X2.16Y-1.5197
X2.3803Y-1.5197
X2.5803Y-1.5197
X2.8Y-1.5197
X3.0Y-1.5197
X3.2173Y-1.5197
X3.4173Y-1.5197
X3.6346Y-1.5197
X3.8346Y-1.5197
T8
X1.0Y-1.7323
X1.0Y-4.8819
X4.1496Y-1.7323
X4.1496Y-4.8819
T9
X4.311Y-2.5866
X4.311Y-2.8701
T0
M30
