%TF.GenerationSoftware,KiCad,Pcbnew,(6.0.2)*%
%TF.CreationDate,2022-07-20T19:51:26+02:00*%
%TF.ProjectId,MotorController,4d6f746f-7243-46f6-9e74-726f6c6c6572,rev?*%
%TF.SameCoordinates,Original*%
%TF.FileFunction,Soldermask,Bot*%
%TF.FilePolarity,Negative*%
%FSLAX46Y46*%
G04 Gerber Fmt 4.6, Leading zero omitted, Abs format (unit mm)*
G04 Created by KiCad (PCBNEW (6.0.2)) date 2022-07-20 19:51:26*
%MOMM*%
%LPD*%
G01*
G04 APERTURE LIST*
G04 Aperture macros list*
%AMRoundRect*
0 Rectangle with rounded corners*
0 $1 Rounding radius*
0 $2 $3 $4 $5 $6 $7 $8 $9 X,Y pos of 4 corners*
0 Add a 4 corners polygon primitive as box body*
4,1,4,$2,$3,$4,$5,$6,$7,$8,$9,$2,$3,0*
0 Add four circle primitives for the rounded corners*
1,1,$1+$1,$2,$3*
1,1,$1+$1,$4,$5*
1,1,$1+$1,$6,$7*
1,1,$1+$1,$8,$9*
0 Add four rect primitives between the rounded corners*
20,1,$1+$1,$2,$3,$4,$5,0*
20,1,$1+$1,$4,$5,$6,$7,0*
20,1,$1+$1,$6,$7,$8,$9,0*
20,1,$1+$1,$8,$9,$2,$3,0*%
G04 Aperture macros list end*
%ADD10C,0.800000*%
%ADD11C,6.400000*%
%ADD12R,1.700000X1.700000*%
%ADD13O,1.700000X1.700000*%
%ADD14R,1.600000X1.600000*%
%ADD15C,1.600000*%
%ADD16RoundRect,1.500000X1.500000X-1.500000X1.500000X1.500000X-1.500000X1.500000X-1.500000X-1.500000X0*%
%ADD17C,6.000000*%
%ADD18R,3.000000X3.000000*%
%ADD19C,3.000000*%
%ADD20C,2.374900*%
%ADD21C,0.990600*%
G04 APERTURE END LIST*
D10*
%TO.C,H2*%
X103702944Y-45697056D03*
X107097056Y-42302944D03*
X105400000Y-46400000D03*
X107097056Y-45697056D03*
X107800000Y-44000000D03*
X105400000Y-41600000D03*
X103702944Y-42302944D03*
X103000000Y-44000000D03*
D11*
X105400000Y-44000000D03*
%TD*%
D12*
%TO.C,J19*%
X18200000Y-110220000D03*
D13*
X18200000Y-112760000D03*
X18200000Y-115300000D03*
X18200000Y-117840000D03*
%TD*%
D12*
%TO.C,J16*%
X85300000Y-112500000D03*
D13*
X87840000Y-112500000D03*
X90380000Y-112500000D03*
X92920000Y-112500000D03*
X95460000Y-112500000D03*
X98000000Y-112500000D03*
%TD*%
D12*
%TO.C,J14*%
X85350000Y-88800000D03*
D13*
X87890000Y-88800000D03*
X90430000Y-88800000D03*
X92970000Y-88800000D03*
X95510000Y-88800000D03*
X98050000Y-88800000D03*
%TD*%
D12*
%TO.C,J26*%
X85110000Y-96000000D03*
D13*
X87650000Y-96000000D03*
X90190000Y-96000000D03*
X92730000Y-96000000D03*
%TD*%
D14*
%TO.C,C20*%
X88620000Y-47205113D03*
D15*
X88620000Y-44705113D03*
%TD*%
D12*
%TO.C,J7*%
X62900000Y-128000000D03*
D13*
X60360000Y-128000000D03*
X57820000Y-128000000D03*
X55280000Y-128000000D03*
X52740000Y-128000000D03*
X50200000Y-128000000D03*
%TD*%
D16*
%TO.C,J28*%
X109500000Y-72900000D03*
D17*
X109500000Y-65700000D03*
%TD*%
D12*
%TO.C,J20*%
X18100000Y-81920000D03*
D13*
X18100000Y-84460000D03*
X18100000Y-87000000D03*
X18100000Y-89540000D03*
%TD*%
D14*
%TO.C,C19*%
X67560000Y-47205113D03*
D15*
X67560000Y-44705113D03*
%TD*%
D18*
%TO.C,J4*%
X49785000Y-38600000D03*
D19*
X54865000Y-38600000D03*
%TD*%
D12*
%TO.C,J25*%
X85350000Y-85000000D03*
D13*
X87890000Y-85000000D03*
X90430000Y-85000000D03*
X92970000Y-85000000D03*
%TD*%
D12*
%TO.C,J11*%
X44150000Y-117020000D03*
D13*
X41610000Y-117020000D03*
X39070000Y-117020000D03*
X36530000Y-117020000D03*
X33990000Y-117020000D03*
X31450000Y-117020000D03*
%TD*%
D18*
%TO.C,J2*%
X60460000Y-38600000D03*
D19*
X65540000Y-38600000D03*
%TD*%
D14*
%TO.C,C25*%
X56985000Y-47205113D03*
D15*
X56985000Y-44705113D03*
%TD*%
D12*
%TO.C,J10*%
X112950000Y-118110000D03*
D13*
X112950000Y-115570000D03*
X112950000Y-113030000D03*
X112950000Y-110490000D03*
%TD*%
D10*
%TO.C,H3*%
X27097056Y-125697056D03*
X23000000Y-124000000D03*
X25400000Y-126400000D03*
D11*
X25400000Y-124000000D03*
D10*
X27800000Y-124000000D03*
X25400000Y-121600000D03*
X23702944Y-125697056D03*
X27097056Y-122302944D03*
X23702944Y-122302944D03*
%TD*%
%TO.C,H1*%
X25400000Y-41600000D03*
X27800000Y-44000000D03*
X27097056Y-42302944D03*
X23702944Y-42302944D03*
X23702944Y-45697056D03*
X25400000Y-46400000D03*
X23000000Y-44000000D03*
D11*
X25400000Y-44000000D03*
D10*
X27097056Y-45697056D03*
%TD*%
D12*
%TO.C,J23*%
X113050000Y-89580000D03*
D13*
X113050000Y-87040000D03*
X113050000Y-84500000D03*
X113050000Y-81960000D03*
%TD*%
D18*
%TO.C,J5*%
X71120000Y-38600000D03*
D19*
X76200000Y-38600000D03*
%TD*%
D10*
%TO.C,H4*%
X103702944Y-122302944D03*
X107097056Y-125697056D03*
X107800000Y-124000000D03*
X107097056Y-122302944D03*
D11*
X105400000Y-124000000D03*
D10*
X103702944Y-125697056D03*
X105400000Y-126400000D03*
X103000000Y-124000000D03*
X105400000Y-121600000D03*
%TD*%
D14*
%TO.C,C26*%
X78120000Y-47205113D03*
D15*
X78120000Y-44705113D03*
%TD*%
D18*
%TO.C,J1*%
X39120000Y-38600000D03*
D19*
X44200000Y-38600000D03*
%TD*%
D12*
%TO.C,J18*%
X44300000Y-108720000D03*
D13*
X41760000Y-108720000D03*
X39220000Y-108720000D03*
X36680000Y-108720000D03*
%TD*%
D12*
%TO.C,J17*%
X44140000Y-120920000D03*
D13*
X41600000Y-120920000D03*
X39060000Y-120920000D03*
X36520000Y-120920000D03*
%TD*%
D14*
%TO.C,C18*%
X46360000Y-47205113D03*
D15*
X46360000Y-44705113D03*
%TD*%
D18*
%TO.C,J9*%
X92320000Y-38600000D03*
D19*
X97400000Y-38600000D03*
%TD*%
D20*
%TO.C,J6*%
X98340000Y-123665000D03*
D21*
X95800000Y-123665000D03*
X94784000Y-131285000D03*
D20*
X93260000Y-129380000D03*
X98340000Y-129380000D03*
X93260000Y-123665000D03*
D21*
X96816000Y-131285000D03*
%TD*%
D12*
%TO.C,J13*%
X44450000Y-92120000D03*
D13*
X41910000Y-92120000D03*
X39370000Y-92120000D03*
X36830000Y-92120000D03*
X34290000Y-92120000D03*
X31750000Y-92120000D03*
%TD*%
D14*
%TO.C,C58*%
X99260000Y-47300000D03*
D15*
X99260000Y-44800000D03*
%TD*%
D18*
%TO.C,J3*%
X81720000Y-38600000D03*
D19*
X86800000Y-38600000D03*
%TD*%
D12*
%TO.C,J24*%
X44440000Y-96020000D03*
D13*
X41900000Y-96020000D03*
X39360000Y-96020000D03*
X36820000Y-96020000D03*
%TD*%
D12*
%TO.C,J12*%
X44250000Y-104820000D03*
D13*
X41710000Y-104820000D03*
X39170000Y-104820000D03*
X36630000Y-104820000D03*
X34090000Y-104820000D03*
X31550000Y-104820000D03*
%TD*%
D12*
%TO.C,J27*%
X85250000Y-108700000D03*
D13*
X87790000Y-108700000D03*
X90330000Y-108700000D03*
X92870000Y-108700000D03*
%TD*%
D12*
%TO.C,J22*%
X18100000Y-96220000D03*
D13*
X18100000Y-98760000D03*
X18100000Y-101300000D03*
X18100000Y-103840000D03*
%TD*%
D12*
%TO.C,J8*%
X82100000Y-127900000D03*
D13*
X79560000Y-127900000D03*
X77020000Y-127900000D03*
X74480000Y-127900000D03*
X71940000Y-127900000D03*
X69400000Y-127900000D03*
%TD*%
D12*
%TO.C,J21*%
X112930000Y-104500000D03*
D13*
X112930000Y-101960000D03*
X112930000Y-99420000D03*
X112930000Y-96880000D03*
%TD*%
D12*
%TO.C,J15*%
X85150000Y-99800000D03*
D13*
X87690000Y-99800000D03*
X90230000Y-99800000D03*
X92770000Y-99800000D03*
X95310000Y-99800000D03*
X97850000Y-99800000D03*
%TD*%
M02*
